<svg xmlns="http://www.w3.org/2000/svg" viewBox="-3156.892 242.529 46.675 29.719">
  <defs>
    <style>
      .cls-1 {
        fill: #fff;
      }
    </style>
  </defs>
  <path id="Path_11601" data-name="Path 11601" class="cls-1" d="M680.6,293.6v-.4a8.389,8.389,0,0,0-1.9-3.9,7.871,7.871,0,0,0-5.5-2.7,6.522,6.522,0,0,0-2.4.2c-1-3.2-3.9-5.9-7.3-5.9a11.376,11.376,0,0,0-4.5,1c-.9-2.9-3.5-5.4-6.6-5.4-4.1,0-7.8,2.6-8.1,7a7.658,7.658,0,0,0,.7,3.7,5.582,5.582,0,0,0-3.7-1.5c-3.7,0-6.9,2.4-7.2,6.2-.3,3.5,2.5,7.2,6.2,7.2a5.282,5.282,0,0,0,1.3-.1,5.918,5.918,0,0,0,.7,2.9,7.128,7.128,0,0,0,5.8,3.9,6.48,6.48,0,0,0,3.6-.7,7.491,7.491,0,0,0,2-1.5,6.391,6.391,0,0,0,1.5,1.3,7.881,7.881,0,0,0,3.9,1.3,8.759,8.759,0,0,0,4.2-.8,9.217,9.217,0,0,0,3.5-3,6.377,6.377,0,0,0,.8-1.4,8.571,8.571,0,0,0,4.6,1.9,8.27,8.27,0,0,0,6-2,7.924,7.924,0,0,0,2.3-3.4A10.059,10.059,0,0,0,680.6,293.6Z" transform="translate(-3790.97 -33.971)"/>
</svg>
