<svg xmlns="http://www.w3.org/2000/svg" viewBox="806 3232 135.6 135.6">
  <defs>
    <style>
      .cls-1 {
        fill: #72c700;
      }

      .cls-2 {
        fill: #009490;
      }

      .cls-3 {
        fill: #1e988a;
      }

      .cls-4 {
        fill: #5ab7b2;
      }

      .cls-5 {
        fill: #7ddbd4;
      }

      .cls-6 {
        fill: #b8dde1;
      }

      .cls-7 {
        fill: #4f7f70;
      }

      .cls-10, .cls-11, .cls-12, .cls-13, .cls-14, .cls-8, .cls-9 {
        fill: #144733;
        font-family: MyriadPro-Regular, Myriad Pro;
      }

      .cls-8 {
        font-size: 5px;
      }

      .cls-9 {
        font-size: 9px;
      }

      .cls-10 {
        font-size: 13px;
      }

      .cls-11 {
        font-size: 12px;
      }

      .cls-12 {
        font-size: 16px;
      }

      .cls-13 {
        font-size: 14px;
      }

      .cls-14 {
        font-size: 11px;
      }
    </style>
  </defs>
  <g id="Group_12146" data-name="Group 12146" transform="translate(94 149)">
    <g id="Group_12131" data-name="Group 12131" transform="translate(688.9 3083)">
      <circle id="Ellipse_1468" data-name="Ellipse 1468" class="cls-1" cx="67.8" cy="67.8" r="67.8" transform="translate(23.1 0)"/>
    </g>
    <g id="Group_12138" data-name="Group 12138" transform="translate(737 3108)">
      <circle id="Ellipse_1604" data-name="Ellipse 1604" class="cls-2" cx="42.516" cy="42.516" r="42.516" transform="translate(0.92)"/>
      <circle id="Ellipse_1605" data-name="Ellipse 1605" class="cls-3" cx="36.679" cy="36.679" r="36.679" transform="translate(6.757 5.837)"/>
      <circle id="Ellipse_1606" data-name="Ellipse 1606" class="cls-4" cx="32.497" cy="32.497" r="32.497" transform="translate(12.333 5.14)"/>
      <circle id="Ellipse_1607" data-name="Ellipse 1607" class="cls-5" cx="23.088" cy="23.088" r="23.088" transform="translate(20.349 14.55)"/>
      <circle id="Ellipse_1608" data-name="Ellipse 1608" class="cls-6" cx="9.584" cy="9.584" r="9.584" transform="translate(33.853 30.493)"/>
      <g id="Group_12110" data-name="Group 12110" transform="translate(0.88 1.516)">
        <path id="Path_14481" data-name="Path 14481" class="cls-7" d="M300.6,87.142s-.436.523-1.22,1.394c-.436.436-.871,1.045-1.481,1.742a27.74,27.74,0,0,1-2.265,2.178c-.436.436-.871.871-1.394,1.307s-1.046.871-1.655,1.307-1.22.871-1.83,1.394l-2.091,1.307a40.04,40.04,0,0,1-10.978,4.792,38.719,38.719,0,0,1-14.811,1.394,40.36,40.36,0,0,1-16.728-5.14,15.343,15.343,0,0,1-2-1.22c-.7-.436-1.307-.871-2-1.307a16.026,16.026,0,0,1-1.917-1.481c-.61-.523-1.307-1.045-1.917-1.568l-.261-.174c-.087-.087-.087,0-.174-.174l-.087-.087-.436-.436-.871-.871a17.3,17.3,0,0,1-1.742-1.83c-.523-.7-1.133-1.394-1.655-2l-.871-1.045-.7-1.133c-.523-.7-.958-1.481-1.481-2.265l-1.307-2.352a32.718,32.718,0,0,1-2.178-5.053,24.434,24.434,0,0,1-.784-2.7l-.436-1.394c-.087-.436-.174-.958-.261-1.394-.174-.958-.348-1.83-.523-2.788l-.261-2.875a38.463,38.463,0,0,1,.784-11.762l.261-1.481.436-1.481c.348-.958.523-2,.871-2.962s.784-1.917,1.133-2.875a6.947,6.947,0,0,1,.7-1.394l.7-1.394.7-1.394.871-1.307c.61-.871,1.133-1.742,1.742-2.614.7-.784,1.307-1.655,2-2.439a3.255,3.255,0,0,1,.523-.61l.523-.523,1.133-1.133a13.881,13.881,0,0,1,1.133-1.133l1.307-1.045a29.619,29.619,0,0,1,2.614-2l1.394-.871a12.2,12.2,0,0,1,1.394-.871,31.3,31.3,0,0,1,2.962-1.481,38.658,38.658,0,0,1,39.206,4.356c.958.784,1.83,1.481,2.788,2.265.784.871,1.655,1.655,2.439,2.527.784.958,1.568,1.917,2.265,2.875.61,1.045,1.394,2,2,3.049a35.545,35.545,0,0,1,2.875,28.577,34.791,34.791,0,0,1-7.667,12.894l-1.307,1.307c-.261.174-.436.436-.7.61l-.784.61L287.1,84.18a16.345,16.345,0,0,1-1.568,1.045,29.174,29.174,0,0,1-6.8,3.4,34.252,34.252,0,0,1-15.16,1.568,32.561,32.561,0,0,1-14.2-5.663,19.133,19.133,0,0,1-1.568-1.22c-.523-.436-.958-.784-1.481-1.307l-1.307-1.307-.7-.7-.61-.784a19.131,19.131,0,0,1-1.22-1.568l-1.045-1.655-.523-.784-.436-.871c-.261-.61-.61-1.133-.871-1.742-.436-1.22-1.045-2.352-1.394-3.659a12.312,12.312,0,0,1-.523-1.917L237.35,65.1a28.826,28.826,0,0,1-.174-7.754c.087-1.307.436-2.527.61-3.833l.523-1.83.261-.958.348-.871a28.711,28.711,0,0,1,3.746-6.8l1.22-1.481a6.143,6.143,0,0,0,.61-.784l.7-.7c.436-.436.871-.871,1.394-1.307l1.568-1.22a25.924,25.924,0,0,1,6.8-3.746,25.016,25.016,0,0,1,7.58-1.568,28.231,28.231,0,0,1,7.667.61,25.407,25.407,0,0,1,7.144,2.788,17.35,17.35,0,0,1,1.655,1.045,17.667,17.667,0,0,1,1.568,1.133l1.481,1.22,1.307,1.307a26.084,26.084,0,0,1,4.356,6.273,27.026,27.026,0,0,1,2.091,7.318,23.962,23.962,0,0,1-.261,7.493A22.819,22.819,0,0,1,287.01,68.5a23.268,23.268,0,0,1-4.53,5.924,20.679,20.679,0,0,1-6.186,4.095,22.081,22.081,0,0,1-14.375,1.133,22.674,22.674,0,0,1-6.621-2.962c-.523-.348-1.046-.7-1.481-1.045a17.443,17.443,0,0,1-1.394-1.22L251.2,73.2l-1.133-1.394a20.527,20.527,0,0,1-3.921-13.33,19.587,19.587,0,0,1,5.576-12.459,17.782,17.782,0,0,1,12.023-5.489,18.241,18.241,0,0,1,12.284,3.921,7.027,7.027,0,0,1,1.22,1.045,13.882,13.882,0,0,1,1.133,1.133l1.046,1.307c.261.436.61.871.871,1.307a16.473,16.473,0,0,1,2,5.924,16.1,16.1,0,0,1-2.875,11.675,14.694,14.694,0,0,1-4.269,4.095,15.334,15.334,0,0,1-5.4,2.178,14.968,14.968,0,0,1-10.8-2.178,13.687,13.687,0,0,1-6.012-8.625,13.3,13.3,0,0,1,1.655-9.845,12.571,12.571,0,0,1,7.493-5.75,12.216,12.216,0,0,1,8.8.958,14.379,14.379,0,0,1,3.4,2.527,12.275,12.275,0,0,1,2.178,3.485,11.346,11.346,0,0,1,.174,7.58,10.292,10.292,0,0,1-4.182,5.489,10.172,10.172,0,0,1-5.924,1.742,10.049,10.049,0,0,1-5.227-1.655,9.193,9.193,0,0,1-4.269-7.231,10.3,10.3,0,0,1,1.22-5.14c.349-.523.61-.871.784-1.133a2.58,2.58,0,0,1,.261-.348,2.576,2.576,0,0,0-.261.348c-.174.261-.436.61-.784,1.133a8.738,8.738,0,0,0-1.22,5.14,11.09,11.09,0,0,0,1.046,3.746,8.57,8.57,0,0,0,3.224,3.4,9.2,9.2,0,0,0,5.14,1.568,10.092,10.092,0,0,0,9.845-7.231,10.868,10.868,0,0,0-.261-7.406,13.743,13.743,0,0,0-2.091-3.4,13.354,13.354,0,0,0-3.311-2.527,11.952,11.952,0,0,0-8.538-.871,12.1,12.1,0,0,0-7.231,5.576,12.828,12.828,0,0,0-1.481,9.5,13.377,13.377,0,0,0,5.837,8.277,14.361,14.361,0,0,0,10.368,2,14.724,14.724,0,0,0,9.235-6.012,15.242,15.242,0,0,0,2.614-11.152,16.154,16.154,0,0,0-1.917-5.663l-.784-1.307a6,6,0,0,0-.958-1.133c-.349-.348-.7-.784-1.046-1.133s-.784-.61-1.133-.958a17.168,17.168,0,0,0-23,1.568,18.42,18.42,0,0,0-5.14,11.762A19.086,19.086,0,0,0,251.2,70.763l1.045,1.307,1.22,1.22c.348.348.871.7,1.307,1.045a7.9,7.9,0,0,0,1.394.958,20.324,20.324,0,0,0,6.273,2.788,20.879,20.879,0,0,0,13.591-1.133,21.393,21.393,0,0,0,5.75-3.833,23.743,23.743,0,0,0,4.269-5.576A22.775,22.775,0,0,0,288.4,60.83a21.8,21.8,0,0,0,.174-7.144,24,24,0,0,0-2-6.883l-.871-1.568a8.632,8.632,0,0,0-.958-1.481c-.348-.523-.7-.958-1.045-1.394a8.728,8.728,0,0,0-1.22-1.394l-1.307-1.307-1.394-1.133a9.046,9.046,0,0,0-1.481-1.045,9.424,9.424,0,0,0-1.568-.958,26.776,26.776,0,0,0-6.8-2.614,25.11,25.11,0,0,0-7.231-.523,25.625,25.625,0,0,0-7.144,1.568,25.094,25.094,0,0,0-6.36,3.485L247.8,39.572a18.478,18.478,0,0,0-1.307,1.307l-.7.7-.523.7-1.133,1.394a25.627,25.627,0,0,0-3.485,6.447l-.348.871-.261.871-.523,1.742c-.174,1.22-.523,2.352-.61,3.659a25.793,25.793,0,0,0,.261,7.318l.348,1.83a13.235,13.235,0,0,0,.523,1.742,22.819,22.819,0,0,0,1.307,3.4c.261.523.523,1.045.871,1.655l.436.784.523.784,1.045,1.481,1.133,1.394.61.7a5.257,5.257,0,0,0,.7.7l1.307,1.307c.436.348.958.784,1.394,1.133.523.348.958.784,1.481,1.133a30.437,30.437,0,0,0,13.417,5.315,31.77,31.77,0,0,0,14.288-1.481,29.742,29.742,0,0,0,6.447-3.224,9.044,9.044,0,0,0,1.481-1.045l1.394-1.133.7-.523c.261-.174.436-.436.7-.61l1.307-1.307.348-.348.261-.348.61-.7,1.133-1.394c.7-.958,1.307-2,2-2.962.523-1.045,1.133-2.091,1.655-3.136.436-1.133.958-2.178,1.307-3.311a33.81,33.81,0,0,0-2.788-27.1c-.523-.958-1.22-1.917-1.83-2.875l-2.091-2.614c-.784-.871-1.655-1.655-2.439-2.527-.784-.7-1.742-1.394-2.614-2.091A37.341,37.341,0,0,0,274.2,23.28,36.689,36.689,0,0,0,248.85,25.2c-.958.436-1.83.958-2.788,1.481l-1.307.784-1.307.871a25.433,25.433,0,0,0-2.439,1.83l-1.22.958a13.884,13.884,0,0,0-1.133,1.133l-1.133,1.133-.523.523a2.763,2.763,0,0,0-.436.523c-.61.784-1.307,1.568-1.917,2.352a25.235,25.235,0,0,0-1.655,2.527l-.784,1.22-.7,1.307-.7,1.307a8.792,8.792,0,0,0-.61,1.307c-.348.871-.7,1.83-1.133,2.7a26.074,26.074,0,0,0-.871,2.788l-.436,1.394-.261,1.394a37.776,37.776,0,0,0-.7,11.239c.087.958.174,1.83.261,2.7.174.871.348,1.83.523,2.7l.261,1.307.348,1.307c.261.871.523,1.742.784,2.527a39.755,39.755,0,0,0,2.091,4.792c.436.784.784,1.568,1.22,2.265s.958,1.394,1.394,2.091l.7,1.045.784.958c.523.61,1.045,1.307,1.568,1.917a16.452,16.452,0,0,0,1.742,1.742l.871.871.436.436.087.087.087.087.261.174c.61.523,1.22,1.045,1.83,1.481s1.22,1.045,1.83,1.394c.61.436,1.307.871,1.917,1.22a8.538,8.538,0,0,0,1.917,1.133,40.547,40.547,0,0,0,15.944,4.879,38.821,38.821,0,0,0,14.114-1.307,51.888,51.888,0,0,0,10.716-4.182c.7-.436,1.481-.784,2.178-1.133.7-.436,1.307-.871,1.917-1.22.61-.436,1.22-.784,1.742-1.133.523-.436,1.045-.784,1.481-1.133.958-.7,1.742-1.307,2.439-1.917s1.22-1.133,1.655-1.481C300.079,87.577,300.6,87.142,300.6,87.142Z" transform="translate(-224.154 -20.44)"/>
      </g>
      <text id="_1" data-name="1" class="cls-8" transform="translate(33.846 34.323)"><tspan x="0" y="0">1</tspan></text>
      <text id="_2" data-name="2" class="cls-8" transform="translate(30.834 44.883)"><tspan x="0" y="0">2</tspan></text>
      <text id="_2-2" data-name="2" class="cls-9" transform="translate(47.017 23.207)"><tspan x="0" y="0">2</tspan></text>
      <text id="_3" data-name="3" class="cls-8" transform="translate(40.226 53.756)"><tspan x="0" y="0">3</tspan></text>
      <text id="_3-2" data-name="3" class="cls-9" transform="translate(28.945 22.877)"><tspan x="0" y="0">3</tspan></text>
      <text id="_4" data-name="4" class="cls-8" transform="translate(50.843 49.305)"><tspan x="0" y="0">4</tspan></text>
      <text id="_4-2" data-name="4" class="cls-10" transform="translate(15.175 38.819)"><tspan x="0" y="0">4</tspan></text>
      <text id="_5" data-name="5" class="cls-8" transform="translate(54.749 38.729)"><tspan x="0" y="0">5</tspan></text>
      <text id="_5-2" data-name="5" class="cls-11" transform="translate(30.134 67.035)"><tspan x="0" y="0">5</tspan></text>
      <text id="_6" data-name="6" class="cls-8" transform="translate(48.018 28.953)"><tspan x="0" y="0">6</tspan></text>
      <text id="_6-2" data-name="6" class="cls-11" transform="translate(58.041 61.485)"><tspan x="0" y="0">6</tspan></text>
      <text id="_7" data-name="7" class="cls-12" transform="translate(66.514 39.828)"><tspan x="0" y="0">7</tspan></text>
      <text id="_7-2" data-name="7" class="cls-8" transform="translate(37.738 26.704)"><tspan x="0" y="0">7</tspan></text>
      <text id="_8" data-name="8" class="cls-13" transform="translate(53.033 16.797)"><tspan x="0" y="0">8</tspan></text>
      <text id="_8-2" data-name="8" class="cls-8" transform="translate(28.945 31.754)"><tspan x="0" y="0">8</tspan></text>
      <text id="_9" data-name="9" class="cls-8" transform="translate(25.483 39.712)"><tspan x="0" y="0">9</tspan></text>
      <text id="_9-2" data-name="9" class="cls-10" transform="translate(20.364 16.668)"><tspan x="0" y="0">9</tspan></text>
      <text id="_10" data-name="10" class="cls-8" transform="translate(26.76 52.879)"><tspan x="0" y="0">10</tspan></text>
      <text id="_10-2" data-name="10" class="cls-10" transform="translate(0 51.088)"><tspan x="0" y="0">10</tspan></text>
      <text id="_11" data-name="11" class="cls-8" transform="translate(44.856 58.68)"><tspan x="0" y="0">11</tspan></text>
      <text id="_11-2" data-name="11" class="cls-10" transform="translate(30.834 80.597)"><tspan x="0" y="0">11</tspan></text>
      <text id="_12" data-name="12" class="cls-10" transform="translate(58.041 74.131)"><tspan x="0" y="0">12</tspan></text>
      <text id="_12-2" data-name="12" class="cls-8" transform="translate(58.705 47.064)"><tspan x="0" y="0">12</tspan></text>
      <text id="_1-2" data-name="1" class="cls-14" transform="translate(58.041 32.949)"><tspan x="0" y="0">1</tspan></text>
    </g>
  </g>
</svg>
