<svg xmlns="http://www.w3.org/2000/svg" viewBox="1600 809 135.6 135.6">
  <defs>
    <style>
      .cls-1 {
        fill: #ff6768;
      }

      .cls-2 {
        fill: #dacfb2;
      }

      .cls-3 {
        fill: #003764;
      }

      .cls-4 {
        fill: #f1e4c4;
      }

      .cls-5 {
        fill: #00a19b;
      }

      .cls-6 {
        fill: #009490;
      }

      .cls-7 {
        fill: #085156;
      }

      .cls-8 {
        fill: #231f20;
      }

      .cls-9 {
        fill: #00acc8;
      }
    </style>
  </defs>
  <g id="Group_11041" data-name="Group 11041" transform="translate(1600 393.2)">
    <g id="Group_11029" data-name="Group 11029">
      <circle id="Ellipse_1494" data-name="Ellipse 1494" class="cls-1" cx="67.8" cy="67.8" r="67.8" transform="translate(0 415.8)"/>
    </g>
    <g id="Group_11040" data-name="Group 11040">
      <g id="Group_11036" data-name="Group 11036">
        <g id="Group_11033" data-name="Group 11033">
          <path id="Path_12446" data-name="Path 12446" class="cls-2" d="M69,492.4a3.166,3.166,0,0,1-3.1-3v-1.6c-.1-9.6-.1-17.1-3.4-23.2a3.041,3.041,0,0,1,5.4-2.8c3.9,7.4,4,15.6,4.1,26v1.6a2.942,2.942,0,0,1-3,3Z"/>
          <g id="Group_11032" data-name="Group 11032">
            <path id="Path_12447" data-name="Path 12447" class="cls-2" d="M36.2,490.8h0a3.116,3.116,0,0,1-3.1-3.1c.1-11.4.5-20,4.6-27.6a3.041,3.041,0,0,1,5.4,2.8c-3.4,6.4-3.7,14.3-3.8,24.8A3.254,3.254,0,0,1,36.2,490.8Z"/>
            <g id="Group_11031" data-name="Group 11031">
              <path id="Path_12448" data-name="Path 12448" class="cls-3" d="M64.6,494.8a5.57,5.57,0,0,0-5.6-5.5H45.2a5.635,5.635,0,0,0-5.6,5.5l-.5,46a5.476,5.476,0,0,0,5.2,5.7h.1A5.635,5.635,0,0,0,50,541l.6-40.5h2.8L54,541a5.57,5.57,0,0,0,5.6,5.5h.1c3.1,0,5.1-2.6,5-5.7Z"/>
              <g id="Group_11030" data-name="Group 11030">
                <rect id="Rectangle_232" data-name="Rectangle 232" class="cls-2" width="9.3" height="9.4" transform="translate(47.6 446.9)"/>
                <ellipse id="Ellipse_1495" data-name="Ellipse 1495" class="cls-4" cx="13" cy="15" rx="13" ry="15" transform="translate(39.4 421.4)"/>
                <path id="Path_12449" data-name="Path 12449" d="M65.4,437.9a15.782,15.782,0,0,1-8.1-3.2c-4.8,2.8-15.1,2.8-17.8,2.8-1.5-3.8-.5-10.8,4.3-11.9,1.7-6.5,11.3-4.9,15.4-3C65.7,425.4,67.3,431.6,65.4,437.9Z"/>
              </g>
              <path id="Path_12450" data-name="Path 12450" class="cls-5" d="M62.4,456.5l-10.2-1-10.2,1-2.2,38.4H64.4Z"/>
              <path id="Path_12451" data-name="Path 12451" class="cls-5" d="M69,463.6s-1.7-6.3-5.6-8.8c-1.7-1.1-6.8-1.3-11.2-1.3-4.5-.1-9.6.2-11.2,1.3-3.9,2.5-4.9,9.2-4.9,9.2-.7,1.5,5,3.7,5.6,2.6l2.9-6.2H60.7l2.9,6.2C64,467.8,69.7,465.1,69,463.6Z"/>
            </g>
          </g>
        </g>
        <g id="Group_11035" data-name="Group 11035">
          <g id="Group_11034" data-name="Group 11034">
            <path id="Path_12452" data-name="Path 12452" class="cls-2" d="M79.7,545.6a4.225,4.225,0,0,1-4.2-4.2V512.8a4.2,4.2,0,1,1,8.4,0v28.6A4.225,4.225,0,0,1,79.7,545.6Z"/>
            <path id="Path_12453" data-name="Path 12453" class="cls-2" d="M93.7,545.6a4.225,4.225,0,0,1-4.2-4.2V512.8a4.2,4.2,0,1,1,8.4,0v28.6A4.161,4.161,0,0,1,93.7,545.6Z"/>
            <path id="Path_12454" data-name="Path 12454" d="M102.1,475.4H69.2l.1-39.1s-1.1-12.8,16-12.8,16.8,12.8,16.8,12.8Z"/>
            <path id="Path_12455" data-name="Path 12455" class="cls-2" d="M97.7,464c0,4.2-5.3,3.2-11.9,3.2-1.7,0-3.3.1-4.7.1-4.3.1-8.9-10.1,0-10.8,1.3-.1,2.8-.2,4.6-.2C99.7,456.4,97.7,459.8,97.7,464Z"/>
            <path id="Path_12456" data-name="Path 12456" class="cls-2" d="M72,489.5a3.1,3.1,0,0,1-3.1-3c-.4-15-.3-23.6,6.8-27.8a3.07,3.07,0,0,1,3.1,5.3c-3.7,2.2-4.2,7.5-3.8,22.4a2.912,2.912,0,0,1-3,3.1Z"/>
            <rect id="Rectangle_233" data-name="Rectangle 233" class="cls-2" width="7.6" height="9.2" transform="translate(82 450.8)"/>
            <ellipse id="Ellipse_1496" data-name="Ellipse 1496" class="cls-4" cx="12.7" cy="14.7" rx="12.7" ry="14.7" transform="translate(73.3 423.2)"/>
            <path id="Path_12457" data-name="Path 12457" d="M69.3,436.4c.9,0,1.7,2,2.6,2,15.9,0,21.2-5,27.2-5,.8,0,2.2,3.1,3,3.1,0-10.6-6.2-15.5-17-15.5S69.3,425.7,69.3,436.4Z"/>
            <path id="Path_12458" data-name="Path 12458" class="cls-2" d="M100.2,489.5h0a3.114,3.114,0,0,1-3.1-3.1c.4-14.9-.1-20.2-3.8-22.4a3.07,3.07,0,0,1,3.1-5.3c7.1,4.2,7.2,12.9,6.8,27.8A3.009,3.009,0,0,1,100.2,489.5Z"/>
            <path id="Path_12459" data-name="Path 12459" class="cls-6" d="M97.9,483.4s-3.2-11.5-2.6-13.9c1.2-3.6,4.8-8,5-8.5-3.2-4.1-9.5-5.1-10.3-4.7,0,.9-1.8,5-4.1,5.1-2.3-.2-4.1-4.2-4.1-5.1-.7-.3-7,.6-10.3,4.7.3.5,3.9,4.9,5,8.5-.1,2.8-2.5,13.3-2.5,13.3s-6,29.8-5,30.8,4.7,1.3,17,1.3c12.4,0,16.1-.3,17-1.3C104.1,512.6,97.9,483.4,97.9,483.4Z"/>
          </g>
        </g>
      </g>
      <g id="Group_11039" data-name="Group 11039">
        <path id="Path_12460" data-name="Path 12460" class="cls-2" d="M79.9,512.4a2.433,2.433,0,0,1-2.4-2.4v-1.1c-.1-6.6-.1-11.4-2.2-15.3a2.438,2.438,0,0,1,4.3-2.3c2.7,5,2.7,10.6,2.8,17.6V510a2.6,2.6,0,0,1-2.5,2.4Z"/>
        <path id="Path_12461" data-name="Path 12461" class="cls-2" d="M58.5,511.5h0a2.5,2.5,0,0,1-2.5-2.6c.1-7.7.3-13.5,3.1-18.7a2.506,2.506,0,0,1,4.4,2.4c-2.2,4.2-2.5,9.4-2.5,16.3A2.5,2.5,0,0,1,58.5,511.5Z"/>
        <g id="Group_11038" data-name="Group 11038">
          <path id="Path_12462" data-name="Path 12462" class="cls-7" d="M77.6,513.7a3.757,3.757,0,0,0-3.7-3.7H64.7a3.691,3.691,0,0,0-3.7,3.7l-.3,29.1a3.677,3.677,0,0,0,3.5,3.8h.1a3.691,3.691,0,0,0,3.7-3.7l.4-25.4h2l.4,25.4a3.757,3.757,0,0,0,3.7,3.7h.1c2.1,0,3.4-1.7,3.4-3.8Z"/>
          <g id="Group_11037" data-name="Group 11037">
            <rect id="Rectangle_234" data-name="Rectangle 234" class="cls-2" width="6.3" height="6.3" transform="translate(66.1 481.6)"/>
            <ellipse id="Ellipse_1497" data-name="Ellipse 1497" class="cls-4" cx="8.7" cy="10" rx="8.7" ry="10" transform="translate(60.7 464.6)"/>
            <path id="Path_12463" data-name="Path 12463" class="cls-8" d="M78.1,474.9a23.977,23.977,0,0,0-17.4.4c-.8-13.4,10.4-11.3,13.2-10C78.3,467.2,78.5,470.6,78.1,474.9Z"/>
          </g>
          <path id="Path_12464" data-name="Path 12464" class="cls-9" d="M76.1,488.1l-6.9-.7-6.8.7-1.5,25.6H77.4Z"/>
          <path id="Path_12465" data-name="Path 12465" class="cls-9" d="M80.5,492.8s-1.1-4.2-3.7-5.9c-.7-.5-2.4-.7-4.4-.8a5.4,5.4,0,0,1-3.2,1.2c-1.1,0-2.1-.9-3.4-1.2-1.8.1-3.5.3-4.2.8-2.6,1.7-4,6.2-4,6.2-.5,1,4.1,2.5,4.5,1.7l1.9-4.2H74.8l1.3,4.4C76.5,495.8,80.9,493.8,80.5,492.8Z"/>
        </g>
      </g>
    </g>
  </g>
</svg>
