<svg xmlns="http://www.w3.org/2000/svg" viewBox="1600 2962 135.6 135.6">
  <defs>
    <style>
      .cls-1 {
        fill: #72c700;
      }

      .cls-2 {
        fill: #fbfdff;
      }

      .cls-3 {
        fill: #92888b;
      }

      .cls-12, .cls-4 {
        fill: none;
      }

      .cls-4 {
        stroke: #92888b;
        stroke-width: 0.587px;
      }

      .cls-12, .cls-4, .cls-6 {
        stroke-miterlimit: 10;
      }

      .cls-5, .cls-6 {
        fill: #ef3325;
      }

      .cls-6 {
        stroke: #ff9e16;
        stroke-width: 0.122px;
      }

      .cls-7 {
        opacity: 0.1;
      }

      .cls-8 {
        fill: #18243e;
      }

      .cls-9 {
        fill: #c4c4c8;
      }

      .cls-10 {
        fill: #253456;
      }

      .cls-11 {
        fill: #e2e1e5;
      }

      .cls-12 {
        stroke: #ef3325;
        stroke-linecap: round;
        stroke-linejoin: round;
        stroke-width: 0.471px;
      }
    </style>
  </defs>
  <g id="Group_11120" data-name="Group 11120" transform="translate(-85 208)">
    <g id="Group_11065" data-name="Group 11065" transform="translate(1685 2107.1)">
      <g id="Group_11049" data-name="Group 11049">
        <circle id="Ellipse_1499" data-name="Ellipse 1499" class="cls-1" cx="67.8" cy="67.8" r="67.8" transform="translate(0 646.9)"/>
      </g>
      <g id="Group_11064" data-name="Group 11064">
        <path id="Path_12483" data-name="Path 12483" class="cls-2" d="M24.1,764.6l80,6.3,8.7-110.2-80-6.3"/>
        <path id="Path_12484" data-name="Path 12484" class="cls-3" d="M40.6,680.7l60.9,4.7.2-2.4-60.9-4.7Z"/>
        <path id="Path_12485" data-name="Path 12485" class="cls-3" d="M40.3,684.4l60.9,4.7.2-2.4L40.5,682Z"/>
        <path id="Path_12486" data-name="Path 12486" class="cls-3" d="M40,688.2l61,4.6.1-2.4-60.9-4.6Z"/>
        <path id="Path_12487" data-name="Path 12487" class="cls-3" d="M39.8,691.9l60.9,4.6.2-2.4-61-4.6Z"/>
        <path id="Path_12488" data-name="Path 12488" class="cls-3" d="M39.1,697.8l60.9,4.6.2-2.4-60.9-4.6Z"/>
        <path id="Path_12489" data-name="Path 12489" class="cls-3" d="M38.8,701.5l61,4.6.1-2.4L39,699.1Z"/>
        <path id="Path_12490" data-name="Path 12490" class="cls-3" d="M38.6,705.2l60.9,4.6.2-2.3-61-4.7Z"/>
        <path id="Path_12491" data-name="Path 12491" class="cls-3" d="M38.3,708.9l60.9,4.7.2-2.4-60.9-4.7Z"/>
        <path id="Path_12492" data-name="Path 12492" class="cls-3" d="M37.9,715.1l61,4.6.1-2.4-60.9-4.6Z"/>
        <path id="Path_12493" data-name="Path 12493" class="cls-3" d="M37.7,718.8l60.9,4.7.2-2.4-61-4.7Z"/>
        <path id="Path_12494" data-name="Path 12494" class="cls-3" d="M37.4,722.5l60.9,4.7.2-2.4-60.9-4.7Z"/>
        <path id="Path_12495" data-name="Path 12495" class="cls-3" d="M37.1,726.2,98,730.9l.2-2.4-60.9-4.7Z"/>
        <path id="Path_12496" data-name="Path 12496" class="cls-3" d="M36.2,733.3l60.9,4.6.2-2.4-60.9-4.6Z"/>
        <path id="Path_12497" data-name="Path 12497" class="cls-3" d="M35.9,737l60.9,4.6.2-2.3-60.9-4.7Z"/>
        <path id="Path_12498" data-name="Path 12498" class="cls-3" d="M35.6,740.7l61,4.7.1-2.4-60.9-4.7Z"/>
        <path id="Path_12499" data-name="Path 12499" class="cls-3" d="M35.3,744.4l61,4.7.2-2.4-61-4.7Z"/>
        <line id="Line_16" data-name="Line 16" class="cls-4" x2="28.3" y2="1.6" transform="translate(50.4 760.8)"/>
        <g id="Group_11052" data-name="Group 11052">
          <g id="Group_11050" data-name="Group 11050">
            <path id="Path_12500" data-name="Path 12500" class="cls-5" d="M91.1,752.8a1.815,1.815,0,0,0,2,0,.965.965,0,0,1,1.5.4,1.9,1.9,0,0,0,1.8,1,.925.925,0,0,1,1.1,1.1,1.9,1.9,0,0,0,1,1.8.929.929,0,0,1,.4,1.5,1.815,1.815,0,0,0,0,2,.965.965,0,0,1-.4,1.5,1.9,1.9,0,0,0-1,1.8.925.925,0,0,1-1.1,1.1,1.9,1.9,0,0,0-1.8,1,.929.929,0,0,1-1.5.4,1.815,1.815,0,0,0-2,0,.965.965,0,0,1-1.5-.4,1.9,1.9,0,0,0-1.8-1,.925.925,0,0,1-1.1-1.1,1.9,1.9,0,0,0-1-1.8.98.98,0,0,1-.4-1.5,1.815,1.815,0,0,0,0-2,.965.965,0,0,1,.4-1.5,1.9,1.9,0,0,0,1-1.8.925.925,0,0,1,1.1-1.1,1.9,1.9,0,0,0,1.8-1A.929.929,0,0,1,91.1,752.8Z"/>
          </g>
          <g id="Group_11051" data-name="Group 11051">
            <circle id="Ellipse_1500" data-name="Ellipse 1500" class="cls-6" cx="5.7" cy="5.7" r="5.7" transform="translate(86.5 753.9)"/>
          </g>
        </g>
        <g id="Group_11063" data-name="Group 11063">
          <g id="Group_11053" data-name="Group 11053" class="cls-7">
            <path id="Path_12501" data-name="Path 12501" class="cls-8" d="M99.5,720.3l1.2-2.3a1.789,1.789,0,0,0-3.2-1.6l-1.2,2.3-.7-.4-.8,1.5-.3.5h0L78.6,751,77,759.2h0l-.5,1.1h0l-.5,1,.2.1.5-1h0l.5-1.1h0l5.8-6,16.1-31.1.9-1.6Z"/>
          </g>
          <g id="Group_11054" data-name="Group 11054">
            <path id="Path_12502" data-name="Path 12502" class="cls-9" d="M93.2,726.3c-.1,0-.2-.1-.3-.1a1.794,1.794,0,0,1-.8-2.4l4.6-8.9a1.789,1.789,0,0,1,3.2,1.6l-4.6,8.9A1.708,1.708,0,0,1,93.2,726.3Z"/>
          </g>
          <g id="Group_11055" data-name="Group 11055">
            <rect id="Rectangle_235" data-name="Rectangle 235" class="cls-8" width="0.2" height="1.7" transform="translate(76.112 758.366) rotate(27.541)"/>
          </g>
          <g id="Group_11056" data-name="Group 11056">
            <rect id="Rectangle_236" data-name="Rectangle 236" class="cls-9" width="0.3" height="1.7" transform="translate(76.61 757.336) rotate(27.49)"/>
          </g>
          <g id="Group_11057" data-name="Group 11057">
            <rect id="Rectangle_237" data-name="Rectangle 237" class="cls-8" width="5.1" height="35" transform="matrix(0.887, 0.461, -0.461, 0.887, 94.042, 718.484)"/>
          </g>
          <g id="Group_11058" data-name="Group 11058">
            <rect id="Rectangle_238" data-name="Rectangle 238" class="cls-10" width="0.9" height="35" transform="translate(97.177 720.177) rotate(27.444)"/>
          </g>
          <g id="Group_11059" data-name="Group 11059">
            <path id="Path_12503" data-name="Path 12503" class="cls-11" d="M77.9,749.6l-1.5,8.2.3.1,5.7-6Z"/>
          </g>
          <g id="Group_11060" data-name="Group 11060">
            <rect id="Rectangle_239" data-name="Rectangle 239" class="cls-11" width="1.9" height="5.1" transform="matrix(0.461, -0.887, 0.887, 0.461, 94.059, 718.533)"/>
          </g>
          <g id="Group_11061" data-name="Group 11061">
            <rect id="Rectangle_240" data-name="Rectangle 240" class="cls-9" width="5.1" height="0.9" transform="translate(94.288 718.116) rotate(27.431)"/>
          </g>
          <g id="Group_11062" data-name="Group 11062">
            <path id="Path_12504" data-name="Path 12504" class="cls-11" d="M88.5,732.7h0c-.4-.2-.5-.5-.3-.8l6.4-12.4a.524.524,0,0,1,.8-.2.63.63,0,0,1,.3.8l-6.4,12.4A1.078,1.078,0,0,1,88.5,732.7Z"/>
          </g>
        </g>
        <path id="Path_12505" data-name="Path 12505" class="cls-12" d="M58.9,759s6.1-1.9,3.3-3.9c-2.8-2.1-2.6,10.3,1.4,6.7,8-7.1,7.5-19.2,3.6-11.5s.9,14.4,6.3,7.7"/>
      </g>
    </g>
  </g>
</svg>
