<svg id="Group_11091" data-name="Group 11091" xmlns="http://www.w3.org/2000/svg" viewBox="2964.9 1515.6 85.2 85.2">
  <defs>
    <style>
      .cls-1 {
        fill: #9778d3;
        stroke: #802245;
        stroke-linecap: round;
        stroke-linejoin: round;
        stroke-miterlimit: 10;
        stroke-width: 7px;
      }

      .cls-2 {
        fill: #fff;
        font-size: 39px;
        font-family: PatuaOne-Regular, Patua One;
      }
    </style>
  </defs>
  <circle id="Ellipse_1415" data-name="Ellipse 1415" class="cls-1" cx="39.1" cy="39.1" r="39.1" transform="translate(2968.4 1519.1)"/>
  <text id="_03" data-name="03" class="cls-2" transform="translate(2986.151 1569.832)"><tspan x="0" y="0"></tspan></text>
</svg>
