<svg xmlns="http://www.w3.org/2000/svg" xmlns:xlink="http://www.w3.org/1999/xlink" viewBox="199 1933 135.6 135.6">
  <defs>
    <style>
      .cls-1 {
        fill: #ff6768;
      }

      .cls-2 {
        fill: url(#linear-gradient);
      }

      .cls-3 {
        fill: #aa6629;
      }

      .cls-4 {
        fill: #6ca439;
      }

      .cls-5 {
        fill: #4a7628;
      }

      .cls-6 {
        fill: #1d5632;
      }

      .cls-7 {
        fill: #9f684f;
      }

      .cls-8 {
        fill: #a85247;
      }

      .cls-9 {
        fill: #e67e3c;
        opacity: 0.38;
      }

      .cls-10 {
        fill: #47a141;
      }

      .cls-11 {
        fill: url(#linear-gradient-2);
      }

      .cls-12, .cls-15, .cls-16 {
        fill: none;
        stroke-miterlimit: 10;
      }

      .cls-12 {
        stroke: #a4dae7;
      }

      .cls-12, .cls-15 {
        stroke-linecap: round;
        stroke-linejoin: round;
      }

      .cls-12, .cls-16 {
        stroke-width: 0.236px;
      }

      .cls-13 {
        fill: #e6e6e6;
      }

      .cls-14 {
        fill: #a4dae7;
      }

      .cls-15, .cls-16 {
        stroke: #e5e38c;
      }

      .cls-15 {
        stroke-width: 2.359px;
      }
    </style>
    <linearGradient id="linear-gradient" x1="0.501" y1="-0.872" x2="0.501" y2="2.159" gradientUnits="objectBoundingBox">
      <stop offset="0.062" stop-color="#f4d19f"/>
      <stop offset="1" stop-color="#ffc27a"/>
    </linearGradient>
    <linearGradient id="linear-gradient-2" x1="0.499" y1="-1.544" x2="0.499" y2="3.286" xlink:href="#linear-gradient"/>
  </defs>
  <g id="Group_11263" data-name="Group 11263" transform="translate(-1042 1217)">
    <g id="Group_11161" data-name="Group 11161">
      <g id="Group_11092" data-name="Group 11092" transform="translate(1241 716)">
        <g id="Group_11086" data-name="Group 11086">
          <circle id="Ellipse_1509" data-name="Ellipse 1509" class="cls-1" cx="67.8" cy="67.8" r="67.8" transform="translate(0 0)"/>
        </g>
      </g>
    </g>
    <g id="Group_11255" data-name="Group 11255" transform="translate(1075.705 720)">
      <path id="Path_13611" data-name="Path 13611" class="cls-2" d="M210.3,117.6c0-7.9,12.1-14.3,27-14.3s27,6.4,27,14.3"/>
      <g id="Group_11247" data-name="Group 11247">
        <path id="Path_13612" data-name="Path 13612" class="cls-3" d="M268,57.2l3.3.3c-.8,9.8.1,39.3-11.3,58l-13-1.1C261.1,102.4,265.9,83.2,268,57.2Z"/>
        <path id="Path_13613" data-name="Path 13613" class="cls-4" d="M241.8,71.4c4.3-22.6,26-11,26-11C269.3,40.9,237.2,35,241.8,71.4Z"/>
        <path id="Path_13614" data-name="Path 13614" class="cls-5" d="M267.7,60.4c5.6-22.5,40.4-13.1,21.5,18.1C294.6,52.8,267.7,60.4,267.7,60.4Z"/>
        <path id="Path_13615" data-name="Path 13615" class="cls-6" d="M269.9,56.6c-8.3-21.6,25.5-33.9,28,2.5C287.5,34.9,269.9,56.6,269.9,56.6Z"/>
        <path id="Path_13616" data-name="Path 13616" class="cls-5" d="M267.5,57.1C284.4,39.4,256,17.7,239,51,258.9,31.6,267.5,57.1,267.5,57.1Z"/>
        <path id="Path_13617" data-name="Path 13617" class="cls-4" d="M267.8,60.2c6.6-13.4,25.4-3,9.8,14.1C284.5,58.8,267.8,60.2,267.8,60.2Z"/>
        <path id="Path_13618" data-name="Path 13618" class="cls-5" d="M273.9,60.7c-4.4-14.3-24.6-7-11.9,12.4C257.6,56.7,273.9,60.7,273.9,60.7Z"/>
        <circle id="Ellipse_1547" data-name="Ellipse 1547" class="cls-7" cx="3.1" cy="3.1" r="3.1" transform="matrix(0.081, -0.997, 0.997, 0.081, 269.328, 62.957)"/>
        <circle id="Ellipse_1548" data-name="Ellipse 1548" class="cls-8" cx="3.1" cy="3.1" r="3.1" transform="matrix(0.081, -0.997, 0.997, 0.081, 266.207, 64.065)"/>
        <path id="Path_13619" data-name="Path 13619" class="cls-9" d="M261.7,112.4c6.9-13.6,8.5-31.6,9.1-43.9l-2.8.4,2.3,1.9L268.7,73l1.3,2.1L268.2,79l1.2,2.8-2.5,1.8.7,3.1-2.1,2.8.7,4.4-3,2.2.2,5.3-3.2,2.4.8,4.3-.9,2.1Z"/>
      </g>
      <g id="Group_11248" data-name="Group 11248">
        <path id="Path_13620" data-name="Path 13620" class="cls-3" d="M198,60.6l-3.2.7c2,9.6,4.9,39,18.6,56.1l12.8-2.7C210.7,104.6,203.4,86.1,198,60.6Z"/>
        <path id="Path_13621" data-name="Path 13621" class="cls-10" d="M225.9,71.3c-7.2-21.8-27.2-7.6-27.2-7.6C194.6,44.6,225.7,34.6,225.9,71.3Z"/>
        <path id="Path_13622" data-name="Path 13622" class="cls-5" d="M198.7,63.7c-8.5-21.6-41.7-7.8-19,20.7C171.1,59.6,198.7,63.7,198.7,63.7Z"/>
        <path id="Path_13623" data-name="Path 13623" class="cls-4" d="M196,60.2c5.4-22.5-29.7-30.3-27.4,6.1C175.8,41,196,60.2,196,60.2Z"/>
        <path id="Path_13624" data-name="Path 13624" class="cls-6" d="M198.5,60.5c-19-15.4,6.4-40.5,27.5-9.7C203.7,34,198.5,60.5,198.5,60.5Z"/>
        <path id="Path_13625" data-name="Path 13625" class="cls-4" d="M198.6,63.5c-8.3-12.4-25.6.3-7.9,15.3C181.9,64.3,198.6,63.5,198.6,63.5Z"/>
        <path id="Path_13626" data-name="Path 13626" class="cls-5" d="M192.6,64.8c2.5-14.7,23.5-10.1,13.4,10.8C208.3,58.7,192.6,64.8,192.6,64.8Z"/>
        <circle id="Ellipse_1549" data-name="Ellipse 1549" class="cls-7" cx="3.1" cy="3.1" r="3.1" transform="translate(190.135 61.698) rotate(-11.999)"/>
        <circle id="Ellipse_1550" data-name="Ellipse 1550" class="cls-8" cx="3.1" cy="3.1" r="3.1" transform="translate(193.327 62.313) rotate(-11.999)"/>
        <path id="Path_13627" data-name="Path 13627" class="cls-9" d="M211.4,114.5c-8.6-12.6-12.4-30.2-14.6-42.4l2.8.1-2,2.1,1.9,1.9-1,2.2,2.3,3.6-.9,2.9,2.8,1.4-.3,3.2,2.4,2.5-.1,4.4,3.3,1.8.5,5.3,3.5,1.9-.2,4.4,1.2,1.9Z"/>
      </g>
      <path id="Path_13628" data-name="Path 13628" class="cls-11" d="M218.5,117.6c0-5.5,8.4-10,18.9-10,10.4,0,18.9,4.5,18.9,10"/>
      <g id="Group_11251" data-name="Group 11251">
        <g id="Group_11249" data-name="Group 11249">
          <path id="Path_13629" data-name="Path 13629" class="cls-12" d="M260.7,80.3l5.8-9.8-6.8,9.6"/>
          <line id="Line_44" data-name="Line 44" class="cls-12" y1="11.9" x2="6.3" transform="translate(260.2 70.5)"/>
        </g>
        <g id="Group_11250" data-name="Group 11250">
          <path id="Path_13630" data-name="Path 13630" class="cls-12" d="M211.3,87.4,201.4,77l10.8,10.2"/>
          <line id="Line_45" data-name="Line 45" class="cls-12" x1="10.3" y1="12.5" transform="translate(201.4 77)"/>
        </g>
        <path id="Path_13631" data-name="Path 13631" class="cls-1" d="M261,80.9"/>
        <path id="Path_13632" data-name="Path 13632" class="cls-13" d="M259.5,84c-8.5,7-14.3,29-47.1,6.4-1.8-1.2-2.8-4.2-.6-3.8,10.2,1.8,27,2.2,47.9-7.2C262,78.4,261.4,82.5,259.5,84Z"/>
        <path id="Path_13633" data-name="Path 13633" class="cls-14" d="M259.5,84a4.345,4.345,0,0,0,1.2-1.7c-22,20.3-43.3,10.1-49.9,6a4.74,4.74,0,0,0,1.6,2.1C245.2,113,251,91,259.5,84Z"/>
        <line id="Line_46" data-name="Line 46" class="cls-15" x1="1.9" y2="2.5" transform="translate(211.7 87)"/>
        <line id="Line_47" data-name="Line 47" class="cls-15" x2="1.5" y2="2.7" transform="translate(259.1 79.8)"/>
        <path id="Path_13634" data-name="Path 13634" class="cls-16" d="M213.2,88.6s25,13.1,46.5-7.5"/>
        <path id="Path_13635" data-name="Path 13635" class="cls-16" d="M213.2,86.3s25,13.1,46.5-7.5"/>
      </g>
    </g>
  </g>
</svg>
