<svg xmlns="http://www.w3.org/2000/svg" xmlns:xlink="http://www.w3.org/1999/xlink" viewBox="1369 378 135.6 135.6">
  <defs>
    <style>
      .cls-1 {
        fill: #ff6768;
      }

      .cls-2 {
        fill: url(#linear-gradient);
      }

      .cls-3 {
        fill: url(#linear-gradient-2);
      }

      .cls-4 {
        fill: url(#linear-gradient-3);
      }

      .cls-5 {
        fill: url(#linear-gradient-4);
      }

      .cls-6 {
        fill: url(#linear-gradient-5);
      }

      .cls-7 {
        fill: url(#linear-gradient-6);
      }
    </style>
    <linearGradient id="linear-gradient" x1="0.5" y1="-0.139" x2="0.5" y2="1.805" gradientUnits="objectBoundingBox">
      <stop offset="0.326" stop-color="#d12a2f"/>
      <stop offset="0.514" stop-color="#c8252e"/>
      <stop offset="0.825" stop-color="#ae182c"/>
      <stop offset="0.854" stop-color="#ac162c"/>
    </linearGradient>
    <linearGradient id="linear-gradient-2" x1="0.493" y1="-3.496" x2="0.493" y2="4.331" gradientUnits="objectBoundingBox">
      <stop offset="0" stop-color="#f4d19f"/>
      <stop offset="1" stop-color="#ffba8e"/>
    </linearGradient>
    <linearGradient id="linear-gradient-3" x1="0.499" y1="-3.125" x2="0.499" y2="3.879" xlink:href="#linear-gradient-2"/>
    <linearGradient id="linear-gradient-4" x1="0.507" y1="-4.697" x2="0.507" y2="4.575" xlink:href="#linear-gradient-2"/>
    <linearGradient id="linear-gradient-5" x1="0.498" y1="-4.653" x2="0.498" y2="4.553" xlink:href="#linear-gradient-2"/>
    <linearGradient id="linear-gradient-6" x1="0.5" y1="-0.65" x2="0.5" y2="0.964" xlink:href="#linear-gradient-2"/>
  </defs>
  <g id="Group_10997" data-name="Group 10997" transform="translate(1360.7 378)">
    <g id="Group_10994" data-name="Group 10994">
      <circle id="Ellipse_1488" data-name="Ellipse 1488" class="cls-1" cx="67.8" cy="67.8" r="67.8" transform="translate(8.3 0)"/>
    </g>
    <g id="Group_10996" data-name="Group 10996">
      <path id="Path_12420" data-name="Path 12420" class="cls-2" d="M101.2,53H85.4V37.5A6.728,6.728,0,0,0,78.7,31H75.9a6.485,6.485,0,0,0-6.5,6.5V53H53.3a7.374,7.374,0,0,0-6.9,7.1v2.8c0,3.4,3.1,5.1,6.9,5.1H69.4V85.4c0,3.5,2.7,5.6,6.5,5.6h2.8c3.6,0,6.7-2,6.7-5.6V68h15.8c3.6,0,5.2-1.5,5.2-5.1V60C106.4,56.5,104.8,53,101.2,53Z"/>
      <g id="Group_10995" data-name="Group 10995">
        <path id="Path_12421" data-name="Path 12421" class="cls-3" d="M119.2,62.1c-.3.4-.5.8-.8,1.2L115,76.4l.9-.6a5.14,5.14,0,0,1,5.7,0l3.1-14.3C122.3,60.2,120.6,60.2,119.2,62.1Z"/>
        <path id="Path_12422" data-name="Path 12422" class="cls-4" d="M38.7,75.8a23.4,23.4,0,0,1,3.1,2.4L38.5,67.9a52.083,52.083,0,0,0-3.1-5.8c-1.2-1.5-2.4-1.9-4.1-1.3L34,75.3A5,5,0,0,1,38.7,75.8Z"/>
        <path id="Path_12423" data-name="Path 12423" class="cls-5" d="M43.6,79.8c.3.3.6.5.9.8h0c2.1,1.9,2.1-.4,2-.6h0c-.9-3.2-1.8-6.3-3-9.4A3.948,3.948,0,0,0,40.1,68l2,10.5A17.382,17.382,0,0,1,43.6,79.8Z"/>
        <path id="Path_12424" data-name="Path 12424" class="cls-6" d="M116,67.9c-1.9-.2-4.2.3-5,2.7-1.1,3.1-2.1,6.3-3,9.4h0c0,.2-.1,2.4,2,.6h0a6.47,6.47,0,0,1,.9-.8c1.3-1.1,2.5-2.2,3.8-3.2Z"/>
        <path id="Path_12425" data-name="Path 12425" class="cls-7" d="M134.8,58.7c-.7-3.3-3-3.7-4.6-3.5a6.062,6.062,0,0,0-3,2.1l-5.5,18.5a1.756,1.756,0,0,1,.5.4,5.377,5.377,0,0,1,2.3,5.9,11.526,11.526,0,0,1-1.9,4.2c-4.4,5.4-13.7,14.1-15.7,15.9,0,0,8.6-13,11.9-16.5l.3-.3h0c1.8-2,3.2-4.1,1.2-6.2l-.3-.3c-2.5-2.2-5.4,1.3-9.2,4.5-3.7,3.2-10,6.3-12.7,6.9-3.3.6-6.6,1.2-9.9,1.9A11.365,11.365,0,0,0,79.7,99c-.9,2-1.7,22.5-2.5,24.5-.8-2-1.6-22.5-2.5-24.5a11.623,11.623,0,0,0-8.5-6.8c-3.3-.7-6.6-1.4-9.9-1.9-2.7-.6-8.9-3.7-12.7-6.9C40,80.2,37,76.8,34.5,79l-.3.3c-2.1,2.1-.7,4.3,1.2,6.2h0l.3.3C39,89.3,49.6,99.1,49.6,99.1A66.315,66.315,0,0,1,31.9,86.4,10.085,10.085,0,0,1,30,82.2a5.377,5.377,0,0,1,2.3-5.9,5.968,5.968,0,0,1,1.5-.9L29.7,61.6c-.6-1.2-1-2.1-1.5-3,0-.1-1.6-2.9-3.9-3.4-1.7-.2-3.9.2-4.6,3.5a16.25,16.25,0,0,0,.3,3.8c2.3,11.6,4.8,23.1,7,34.7,1.1,5.6,4.3,8.9,9.6,10.5s10.6,3.5,15.9,5c3.3,1,5.4,2.8,6.1,6,0,.4.1.7.1.9,0,.3.1.6.1.9.1,3.4-2.3,10.8,3.3,11.3H91.9c5.8-.4,3.3-7.9,3.4-11.3,0-.3.1-.6.1-.9a2.769,2.769,0,0,0,.1-.9c.6-3.3,2.7-5.1,6.1-6,5.3-1.5,10.6-3.4,15.9-5s8.6-4.9,9.6-10.5c2.2-11.6,4.7-23.1,7-34.7A8.3,8.3,0,0,0,134.8,58.7Z"/>
      </g>
    </g>
  </g>
</svg>
