<svg xmlns="http://www.w3.org/2000/svg" xmlns:xlink="http://www.w3.org/1999/xlink" viewBox="4970 722 186 270">
  <defs>
    <style>
      .cls-1 {
        fill: #ef6b57;
      }

      .cls-2, .cls-3 {
        fill: #fff;
      }

      .cls-2 {
        font-size: 22px;
        font-family: PatuaOne-Regular, Patua One;
      }

      .cls-4 {
        filter: url(#Rectangle_3556);
      }
    </style>
    <filter id="Rectangle_3556" x="4970" y="722" width="186" height="270" filterUnits="userSpaceOnUse">
      <feOffset dy="3" input="SourceAlpha"/>
      <feGaussianBlur stdDeviation="3" result="blur"/>
      <feFlood flood-opacity="0.533"/>
      <feComposite operator="in" in2="blur"/>
      <feComposite in="SourceGraphic"/>
    </filter>
  </defs>
  <g id="Group_10819" data-name="Group 10819" transform="translate(4084 -7)">
    <g class="cls-4" transform="matrix(1, 0, 0, 1, -4084, 7)">
      <rect id="Rectangle_3556-2" data-name="Rectangle 3556" class="cls-1" width="168" height="252" transform="translate(4979 728)"/>
    </g>
    <text id="Medianas_pequeñas_y_micro_empresas" data-name="Medianas,
pequeñas y
micro empresas" class="cls-2" transform="translate(979 918)"><tspan x="-72" y="0">Micro, pequeñas</tspan><tspan x="-50" y="26">y medianas</tspan><tspan x="-50" y="52"> empresas</tspan></text>
    <g id="Group_10152" data-name="Group 10152" transform="translate(932 780)">
      <rect id="Rectangle_3588" data-name="Rectangle 3588" class="cls-3" width="94.848" height="3.232" transform="translate(0 79.982)"/>
      <g id="Group_10151" data-name="Group 10151" transform="translate(3.716 17.989)">
        <path id="Path_13451" data-name="Path 13451" class="cls-3" d="M6.9,109.1v33.663H22.035V109.1H6.9Z" transform="translate(-6.9 -85.078)"/>
        <path id="Path_13452" data-name="Path 13452" class="cls-3" d="M51.2,85.8v46.212H66.335V85.8H51.2Z" transform="translate(-27.34 -74.328)"/>
        <path id="Path_13453" data-name="Path 13453" class="cls-3" d="M95.5,94.2v41.688h15.135V94.2H95.5Z" transform="translate(-47.78 -78.204)"/>
        <path id="Path_13454" data-name="Path 13454" class="cls-3" d="M147.294,64.5H139.7v57.684h15.135V64.5Z" transform="translate(-68.174 -64.5)"/>
      </g>
      <path id="Path_13455" data-name="Path 13455" class="cls-3" d="M84.3,31.585a1.645,1.645,0,0,0,.162,3.285l3.016-.162-21.113,17.4-23.7-4.955-24.883,14.7a1.629,1.629,0,0,0-.592,2.262,1.646,1.646,0,0,0,1.454.808,1.705,1.705,0,0,0,.862-.215l23.752-14,24.022,5.063L89.2,37.671,88.019,40.9a1.7,1.7,0,0,0,1.023,2.154,1.914,1.914,0,0,0,.539.108,1.691,1.691,0,0,0,1.562-1.077L95.129,31.1Z" transform="translate(-7.822 -31.1)"/>
    </g>
  </g>
</svg>
