<svg xmlns="http://www.w3.org/2000/svg" xmlns:xlink="http://www.w3.org/1999/xlink" viewBox="12625 2444 186 270">
  <defs>
    <style>
      .cls-1 {
        fill: #2ec2ef;
      }

      .cls-2, .cls-3 {
        fill: #fff;
      }

      .cls-2 {
        font-size: 23px;
        font-family: PatuaOne-Regular, Patua One;
      }

      .cls-4 {
        fill: none;
        stroke: #fff;
        stroke-miterlimit: 10;
      }

      .cls-5 {
        filter: url(#Rectangle_3556);
      }
    </style>
    <filter id="Rectangle_3556" x="12625" y="2444" width="186" height="270" filterUnits="userSpaceOnUse">
      <feOffset dy="3" input="SourceAlpha"/>
      <feGaussianBlur stdDeviation="3" result="blur"/>
      <feFlood flood-opacity="0.533"/>
      <feComposite operator="in" in2="blur"/>
      <feComposite in="SourceGraphic"/>
    </filter>
  </defs>
  <g id="Group_11564" data-name="Group 11564" transform="translate(12131 1715)">
    <g class="cls-5" transform="matrix(1, 0, 0, 1, -12131, -1715)">
      <rect id="Rectangle_3556-2" data-name="Rectangle 3556" class="cls-1" width="168" height="252" transform="translate(12634 2450)"/>
    </g>
    <text id="Inversionistas" class="cls-2" transform="translate(515 918)"><tspan x="8" y="0">Inversionistas</tspan></text>
    <g id="Group_10158" data-name="Group 10158" transform="translate(526 770)">
      <path id="Path_13472" data-name="Path 13472" class="cls-3" d="M2224.484,77.779l-9.516,2.6a.528.528,0,0,1-.65-.371l-.046-.186a.528.528,0,0,1,.371-.65l9.516-2.6a.528.528,0,0,1,.649.371l.046.186A.528.528,0,0,1,2224.484,77.779Z" transform="translate(-2207.774 -41.021)"/>
      <path id="Path_13473" data-name="Path 13473" class="cls-3" d="M2210.493,67.51a29.022,29.022,0,0,1,2.46,3.064l7.984-2.182s-2.275-4.038,1.532-6.591c0,0-2.739.139-5.013.232h-.65a11.511,11.511,0,0,0-3.249.325c-1.95.511-.836,1.764-.836,1.764s.464.7.882,1.346.232.975.232.975-.325.511-1.856.7a7.8,7.8,0,0,1-1.578.139Z" transform="translate(-2205.712 -33.119)"/>
      <path id="Path_13474" data-name="Path 13474" class="cls-3" d="M2327.105,210.727c0-4.5-9.841-7.427-22-7.427s-22,2.878-22,7.334v-.046h44.005Z" transform="translate(-2244.665 -108.936)"/>
      <path id="Path_13475" data-name="Path 13475" class="cls-3" d="M2323.617,2.467l-.464-1.485A1.35,1.35,0,0,0,2321.389.1l-35.51,11.419a7.425,7.425,0,0,0-6.22-3.249,7.568,7.568,0,0,0-7.566,7.566v.139l-35.51,11.419a1.349,1.349,0,0,0-.882,1.764l.464,1.485a1.35,1.35,0,0,0,1.764.882l35.51-11.419a7.842,7.842,0,0,0,3.574,2.785V98.415h5.292V22.892a7.51,7.51,0,0,0,4.92-7.056V15.7l35.464-11.512A1.38,1.38,0,0,0,2323.617,2.467Z" transform="translate(-2219.221 -0.013)"/>
      <path id="Path_13476" data-name="Path 13476" class="cls-3" d="M2400.424,88.868c10.584,0,19.125-6.916,19.125-15.968H2381.3C2381.3,81.952,2389.887,88.868,2400.424,88.868Z" transform="translate(-2297.282 -39.067)"/>
      <g id="Group_10157" data-name="Group 10157" transform="translate(0 37.268)">
        <path id="Path_13477" data-name="Path 13477" class="cls-3" d="M2213.388,104.716a7.95,7.95,0,0,1-1.346-2.739,8.085,8.085,0,1,1,14.251,2.739h9.516a10.476,10.476,0,0,0,.232-5.431,7.353,7.353,0,0,0-.417-1.439,36.337,36.337,0,0,0-2.878-5.71,1.231,1.231,0,0,1-.232-.279,37.615,37.615,0,0,0-6.685-7.241c-3.435-2.646-4.688-3.667-5.941-4.317l-10.166,2.785a39.232,39.232,0,0,0-4.549,12.626,8.553,8.553,0,0,0-.139,1.532c-.046.7-.232,1.9-.232,3.2a33.213,33.213,0,0,0,.232,4.317h8.355Z" transform="translate(-2202.711 -80.3)"/>
        <path id="Path_13478" data-name="Path 13478" class="cls-3" d="M2200.3,134.6c.511,8.309,8.866,15.179,19.125,15.179s18.614-6.87,19.125-15.179Z" transform="translate(-2200.3 -109.395)"/>
        <path id="Path_13479" data-name="Path 13479" class="cls-3" d="M2235.836,118.644a2.834,2.834,0,0,0,.417-2.46,2.563,2.563,0,0,0-1.021-1.578,5.225,5.225,0,0,0-2.414-.65l-.278-.046-1.068-3.853a4.246,4.246,0,0,1,.789.046,4.666,4.666,0,0,1,1.207.464l.464-.928a4.932,4.932,0,0,0-1.578-.557,4.839,4.839,0,0,0-1.161,0l-.232-.882-.6.139.232.882a.171.171,0,0,0-.139.046,1.181,1.181,0,0,1-.325.093l-.232-.882-.6.139.279.975a3.794,3.794,0,0,0-1.253.975,2.422,2.422,0,0,0-.417,2.182,2.473,2.473,0,0,0,1.346,1.671,5.18,5.18,0,0,0,1.81.511l1.16,4.271a2.72,2.72,0,0,1-.6-.093,4.219,4.219,0,0,1-1.392-.6l-.65,1.021c.046.046.093.046.139.093h4.874A2.7,2.7,0,0,0,2235.836,118.644Zm-1.671-3.156a1.621,1.621,0,0,1,.928,1.16,1.6,1.6,0,0,1-.232,1.532,2.443,2.443,0,0,1-.929.7l-1.021-3.714A6.07,6.07,0,0,1,2234.165,115.488Zm-4.039-2.042a1.467,1.467,0,0,1-1.021-1.114,1.381,1.381,0,0,1,.325-1.3,2.433,2.433,0,0,1,.51-.464l.836,3.017C2230.544,113.538,2230.359,113.492,2230.126,113.445Zm1.253.279-.928-3.435a3.217,3.217,0,0,1,.371-.139.172.172,0,0,0,.14-.046l1.021,3.667-.186-.046A.64.64,0,0,1,2231.38,113.724Zm2,5.385a1.653,1.653,0,0,1-.465.093l-1.16-4.178.51.046h0l1.114,4.038Z" transform="translate(-2215.04 -95.249)"/>
      </g>
      <path id="Path_13480" data-name="Path 13480" class="cls-4" d="M2405.63,5.4l12.208,32.772H2393.7Z" transform="translate(-2303.926 -2.899)"/>
    </g>
  </g>
</svg>
