<svg xmlns="http://www.w3.org/2000/svg" xmlns:xlink="http://www.w3.org/1999/xlink" viewBox="13213 2444 186 270">
  <defs>
    <style>
      .cls-1 {
        fill: #2ec2ef;
      }

      .cls-2, .cls-4 {
        fill: #fff;
      }

      .cls-2 {
        font-size: 22px;
        font-family: PatuaOne-Regular, Patua One;
      }

      .cls-3 {
        fill: #3c444f;
      }

      .cls-5 {
        filter: url(#Rectangle_3556);
      }
    </style>
    <filter id="Rectangle_3556" x="13213" y="2444" width="186" height="270" filterUnits="userSpaceOnUse">
      <feOffset dy="3" input="SourceAlpha"/>
      <feGaussianBlur stdDeviation="3" result="blur"/>
      <feFlood flood-opacity="0.533"/>
      <feComposite operator="in" in2="blur"/>
      <feComposite in="SourceGraphic"/>
    </filter>
  </defs>
  <g id="Group_11567" data-name="Group 11567" transform="translate(12131 1715)">
    <g class="cls-5" transform="matrix(1, 0, 0, 1, -12131, -1715)">
      <rect id="Rectangle_3556-2" data-name="Rectangle 3556" class="cls-1" width="168" height="252" transform="translate(13222 2450)"/>
    </g>
    <text id="Menores_de_edad" data-name="Menores de
edad" class="cls-2" transform="translate(1175 918)"><tspan x="-60" y="0">Niños y niñas</tspan></text>
    <g id="Group_10156" data-name="Group 10156" transform="translate(1129 775)">
      <path id="Path_13465" data-name="Path 13465" class="cls-3" d="M1994.4,68.23c.334-.143.621-.286.955-.43C1995.068,67.9,1994.734,68.087,1994.4,68.23Z" transform="translate(-1982.844 -52.663)"/>
      <path id="Path_13466" data-name="Path 13466" class="cls-3" d="M1996.5,67.648a.167.167,0,0,0,.1-.048C1996.548,67.648,1996.548,67.648,1996.5,67.648Z" transform="translate(-1983.942 -52.558)"/>
      <ellipse id="Ellipse_1436" data-name="Ellipse 1436" class="cls-4" cx="12.94" cy="11.556" rx="12.94" ry="11.556" transform="translate(44.934 14.373)"/>
      <path id="Path_13467" data-name="Path 13467" class="cls-4" d="M2128.689,100.289a36.992,36.992,0,0,0-19-9.789c0,5.3-3.725,9.837-8.929,11.651,3.438,13.131,7.067,35.1-.955,51.523a46.058,46.058,0,0,0,30.083-43.119A48.343,48.343,0,0,0,2128.689,100.289Z" transform="translate(-2037.915 -64.524)"/>
      <path id="Path_13468" data-name="Path 13468" class="cls-4" d="M2016.948,67.594a36.281,36.281,0,0,0-20.055-6.494,35.162,35.162,0,0,0-15.185,3.629,45.941,45.941,0,0,0-1.051,59.593c3.677-16.474,23.446-33.808,35.383-42.976a11.3,11.3,0,0,1,.907-13.752Z" transform="translate(-1970.2 -49.162)"/>
      <path id="Path_13469" data-name="Path 13469" class="cls-4" d="M2042.547,49.566a16.236,16.236,0,0,1,2.149.143,51.26,51.26,0,0,0,.382-11.269h0l-.859-.287c-.1-.048-.191-.048-.287-.1-.478-.143-1.146-.334-1.91-.573a46.562,46.562,0,0,0-9.359-1.337h-.048c-.668-.048-1.289-.048-1.958-.048A45.724,45.724,0,0,0,1997.9,49.852c.191-.1.382-.143.573-.239.382-.143.716-.287,1.1-.43.191-.048.382-.143.573-.191.382-.143.764-.239,1.1-.382l.573-.143c.382-.1.716-.239,1.1-.334l.573-.143c.382-.1.764-.191,1.1-.239.191-.048.382-.048.573-.1.382-.048.716-.143,1.1-.191.239-.048.478-.048.764-.1.334-.048.621-.1.955-.143s.668-.048,1.051-.1c.239,0,.43-.048.668-.048.573-.048,1.146-.048,1.671-.048,8.786,0,16.044,3.629,20.724,6.733A14.785,14.785,0,0,1,2042.547,49.566Z" transform="translate(-1984.673 -36.1)"/>
      <path id="Path_13470" data-name="Path 13470" class="cls-4" d="M2108.592,64.1a38.066,38.066,0,0,1,18.623,9.073A46.007,46.007,0,0,0,2098.23,41.8a52.539,52.539,0,0,1-.43,11.078C2103.673,54.024,2108.114,58.561,2108.592,64.1Z" transform="translate(-2036.87 -39.078)"/>
      <path id="Path_13471" data-name="Path 13471" class="cls-4" d="M2028.844,105.2c-3.247,2.531-7.115,5.635-11.03,9.168-9.455,8.5-21.249,21.154-23.971,33.235l-.143.716a45.885,45.885,0,0,0,34.715,15.853,44.857,44.857,0,0,0,14.612-2.388l.43-.86c6.208-12.654,5.157-28.842,3.2-40.158-.669-3.916-1.48-7.545-2.34-10.648a16.02,16.02,0,0,1-4.059.525A14.388,14.388,0,0,1,2028.844,105.2Z" transform="translate(-1982.478 -72.204)"/>
    </g>
  </g>
</svg>
