<svg xmlns="http://www.w3.org/2000/svg" xmlns:xlink="http://www.w3.org/1999/xlink" viewBox="3268 -321 186 270">
  <defs>
    <style>
      .cls-1 {
        fill: #87c405;
      }

      .cls-2, .cls-3 {
        fill: #fff;
      }

      .cls-2 {
        font-size: 22px;
        font-family: PatuaOne-Regular, Patua One;
      }

      .cls-4 {
        filter: url(#Rectangle_3556);
      }
    </style>
    <filter id="Rectangle_3556" x="3268" y="-321" width="186" height="270" filterUnits="userSpaceOnUse">
      <feOffset dy="3" input="SourceAlpha"/>
      <feGaussianBlur stdDeviation="3" result="blur"/>
      <feFlood flood-opacity="0.533"/>
      <feComposite operator="in" in2="blur"/>
      <feComposite in="SourceGraphic"/>
    </filter>
  </defs>
  <g id="Group_10948" data-name="Group 10948" transform="translate(1990 -1050)">
    <g class="cls-4" transform="matrix(1, 0, 0, 1, -1990, 1050)">
      <rect id="Rectangle_3556-2" data-name="Rectangle 3556" class="cls-1" width="168" height="252" transform="translate(3277 -315)"/>
    </g>
    <text id="Milenials" class="cls-2" transform="translate(1371 918)"><tspan x="-43" y="0">Jóvenes y</tspan><tspan x="-46" y="25">Millennials</tspan></text>
    <g id="Group_10150" data-name="Group 10150" transform="translate(-413.297 951.633)">
      <path id="Path_13450" data-name="Path 13450" class="cls-3" d="M332.867,125.9c-1.089-2.382-3.539.681-11.3-2.519-21.305-8.781-49.825.136-49.825.136a20.65,20.65,0,0,0-8.1-1.293,22.359,22.359,0,0,0-8.168,1.293s-28.52-8.917-49.825-.136c-7.76,3.2-10.142.136-11.3,2.519-.681,1.5-1.838,7.079-.681,8.917.613,1.089,3.88,1.021,4.424,2.11,3.267,6.535-.136,20.216,15.656,25.117s33.9-.136,38.867-11.98c3.54-9.666,3.4-18.582,10.346-18.719h1.361c6.943.136,6.807,9.053,10.346,18.719,4.969,11.776,23.075,16.881,38.867,11.98s12.388-18.582,15.656-25.117c.545-1.089,3.812-1.021,4.424-2.11C334.705,132.983,333.548,127.4,332.867,125.9Zm-132.459,5.241c-2.246.34-4.084.136-4.22-.545-.068-.613,1.634-1.429,3.88-1.77s4.084-.136,4.22.545C204.356,130.056,202.654,130.8,200.408,131.145Zm51.663,9.87c-1.634,10.823-11.231,19.2-24.232,19.2-7.624,0-15.111-1.225-19.4-5.922-3.063-3.335-4.152-9.325-4.152-13.886,0-4.492.34-8.032,3.4-11.367,4.288-4.765,12.524-5.377,20.148-5.377,9.189,0,20.693,1.974,24.572,8.44C253.3,133.664,252.411,138.837,252.071,141.015Zm66.842,13.341c-4.288,4.765-11.776,5.922-19.467,5.922-13,0-22.6-8.372-24.3-19.263-.34-2.246-1.293-7.419-.34-8.917,3.88-6.466,15.451-8.44,24.64-8.44,7.624,0,15.86.613,20.216,5.377,2.995,3.335,3.4,6.875,3.4,11.435C323.065,144.963,321.976,151.021,318.913,154.356Zm8.917-23.347c-2.246-.34-3.948-1.089-3.88-1.77.068-.613,1.974-.885,4.22-.545s3.948,1.089,3.88,1.77C331.914,131.077,330.076,131.35,327.83,131.009Z" transform="translate(1521.12 -272.151)"/>
    </g>
  </g>
</svg>
