<svg xmlns="http://www.w3.org/2000/svg" viewBox="8787 2134.682 140.636 140.635">
  <defs>
    <style>
      .cls-1 {
        fill: #195c0b;
        stroke: #95989a;
      }

      .cls-2 {
        fill: #f7f7f7;
        stroke: #113608;
        stroke-width: 5px;
      }

      .cls-3 {
        fill: #144733;
      }

      .cls-4 {
        stroke: none;
      }

      .cls-5 {
        fill: none;
      }
    </style>
  </defs>
  <g id="Group_10314" data-name="Group 10314" transform="translate(8479)">
    <g id="Group_9955" data-name="Group 9955" transform="translate(50 804)">
      <g id="Group_9126" data-name="Group 9126" transform="translate(-129.433 120)">
        <g id="Group_9125" data-name="Group 9125" transform="translate(387.432 1210.682)">
          <g id="Group_9124" data-name="Group 9124" transform="translate(0)">
            <g id="Ellipse_1390" data-name="Ellipse 1390" class="cls-1">
              <circle class="cls-4" cx="70.318" cy="70.318" r="70.318"/>
              <circle class="cls-5" cx="70.318" cy="70.318" r="69.818"/>
            </g>
            <g id="Ellipse_1391" data-name="Ellipse 1391" class="cls-2" transform="translate(8.003 8.004)">
              <circle class="cls-4" cx="62.314" cy="62.314" r="62.314"/>
              <circle class="cls-5" cx="62.314" cy="62.314" r="59.814"/>
            </g>
          </g>
        </g>
      </g>
    </g>
    <path id="Path_9563" data-name="Path 9563" class="cls-3" d="M951.167,245.556a4.807,4.807,0,1,0-1.408,3.379A4.609,4.609,0,0,0,951.167,245.556Zm14.361,0a4.807,4.807,0,1,0-1.408,3.379A4.608,4.608,0,0,0,965.528,245.556Zm-14.361-14.267a4.807,4.807,0,1,0-1.408,3.379A4.608,4.608,0,0,0,951.167,231.289Zm28.628,14.267a4.807,4.807,0,1,0-1.408,3.379A4.608,4.608,0,0,0,979.795,245.556Zm-14.267-14.267a4.807,4.807,0,1,0-1.408,3.379A4.608,4.608,0,0,0,965.528,231.289Zm-14.361-14.361a4.807,4.807,0,1,0-1.408,3.379A4.609,4.609,0,0,0,951.167,216.928Zm28.628,14.361a4.807,4.807,0,1,0-1.408,3.379A4.608,4.608,0,0,0,979.795,231.289Zm-14.267-14.361a4.807,4.807,0,1,0-1.408,3.379A4.608,4.608,0,0,0,965.528,216.928Zm28.628,28.628V231.289a4.787,4.787,0,0,0-9.574,0v14.267a4.787,4.787,0,0,0,9.574,0Zm-14.361-28.628a4.807,4.807,0,1,0-1.408,3.379A4.608,4.608,0,0,0,979.795,216.928Zm14.361-11.92v-9.48a2.575,2.575,0,0,0-2.44-2.44H944.034a2.575,2.575,0,0,0-2.44,2.44V205.1a2.575,2.575,0,0,0,2.44,2.44h47.682a2.351,2.351,0,0,0,1.69-.751A2.747,2.747,0,0,0,994.156,205.007Zm0,11.92a4.807,4.807,0,1,0-1.408,3.379A4.609,4.609,0,0,0,994.156,216.928Zm4.693-23.841v57.162a4.807,4.807,0,0,1-4.787,4.787H941.687a4.807,4.807,0,0,1-4.787-4.787V193.087a4.807,4.807,0,0,1,4.787-4.787h52.469a4.608,4.608,0,0,1,3.379,1.408A5.28,5.28,0,0,1,998.849,193.087Z" transform="translate(-588.09 1980.206)"/>
  </g>
</svg>
