<svg xmlns="http://www.w3.org/2000/svg" viewBox="4025 978 235 235">
  <defs>
    <style>
      .cls-1 {
        fill: #fff;
        stroke: #95cf10;
        stroke-width: 5px;
      }

      .cls-2 {
        fill: #352f2d;
      }

      .cls-3 {
        fill: #a5e8ce;
      }

      .cls-4 {
        fill: #ccfef8;
      }

      .cls-5 {
        fill: #87c405;
      }

      .cls-6 {
        fill: #776b69;
      }

      .cls-7 {
        stroke: none;
      }

      .cls-8 {
        fill: none;
      }
    </style>
  </defs>
  <g id="Group_11538" data-name="Group 11538" transform="translate(3980 -201)">
    <g id="Rectangle_4264" data-name="Rectangle 4264" class="cls-1" transform="translate(45 1179)">
      <rect class="cls-7" width="235" height="235"/>
      <rect class="cls-8" x="2.5" y="2.5" width="230" height="230"/>
    </g>
    <g id="Calculator_1_" transform="translate(89 1201)">
      <path id="Path_14256" data-name="Path 14256" class="cls-2" d="M146.317,183.851a6.672,6.672,0,0,1-6.631,6.671H6.671A6.706,6.706,0,0,1,0,183.851V6.631A6.646,6.646,0,0,1,6.671,0H139.687a6.637,6.637,0,0,1,6.631,6.631Z" transform="translate(0)"/>
      <path id="Path_14257" data-name="Path 14257" class="cls-3" d="M145.594,34.3H36.971A6.68,6.68,0,0,0,30.3,40.971v30.3a6.68,6.68,0,0,0,6.671,6.671H145.594a6.68,6.68,0,0,0,6.671-6.671V40.931A6.646,6.646,0,0,0,145.594,34.3Z" transform="translate(-18.124 -20.516)"/>
      <path id="Path_14258" data-name="Path 14258" class="cls-4" d="M192.86,34.3H178.594L146.2,76.455a5.119,5.119,0,0,0-.8,1.447h14.628L191.855,36.47A6.647,6.647,0,0,0,192.86,34.3Z" transform="translate(-86.969 -20.516)"/>
      <path id="Path_14259" data-name="Path 14259" class="cls-4" d="M239.743,60.461a3.207,3.207,0,0,0,4.5-.6L263.895,34.3h-8.118L239.14,55.96A3.244,3.244,0,0,0,239.743,60.461Z" transform="translate(-142.653 -20.516)"/>
      <path id="Path_14260" data-name="Path 14260" class="cls-5" d="M288.739,343.86a6.68,6.68,0,0,1-6.671,6.671H265.431a6.646,6.646,0,0,1-6.631-6.671V298.771a6.672,6.672,0,0,1,6.631-6.671h16.637a6.68,6.68,0,0,1,6.671,6.671Z" transform="translate(-154.799 -174.717)"/>
      <path id="Path_14261" data-name="Path 14261" class="cls-6" d="M57.884,392.863a4.622,4.622,0,0,1-4.621,4.621H35.621A4.622,4.622,0,0,1,31,392.863V375.221a4.622,4.622,0,0,1,4.621-4.621H53.263a4.622,4.622,0,0,1,4.621,4.621Z" transform="translate(-18.542 -221.671)"/>
      <path id="Path_14262" data-name="Path 14262" class="cls-6" d="M133.084,392.863a4.622,4.622,0,0,1-4.621,4.621H110.821a4.622,4.622,0,0,1-4.621-4.621V375.221a4.622,4.622,0,0,1,4.621-4.621h17.642a4.622,4.622,0,0,1,4.621,4.621Z" transform="translate(-63.522 -221.671)"/>
      <path id="Path_14263" data-name="Path 14263" class="cls-6" d="M210.344,392.863a4.622,4.622,0,0,1-4.621,4.621h-17.6a4.622,4.622,0,0,1-4.621-4.621V375.221a4.622,4.622,0,0,1,4.621-4.621h17.642a4.622,4.622,0,0,1,4.621,4.621v17.642Z" transform="translate(-109.759 -221.671)"/>
      <path id="Path_14264" data-name="Path 14264" class="cls-6" d="M57.884,314.363a4.622,4.622,0,0,1-4.621,4.621H35.621A4.622,4.622,0,0,1,31,314.363V296.721a4.622,4.622,0,0,1,4.621-4.621H53.263a4.622,4.622,0,0,1,4.621,4.621Z" transform="translate(-18.542 -174.717)"/>
      <path id="Path_14265" data-name="Path 14265" class="cls-6" d="M133.084,314.363a4.622,4.622,0,0,1-4.621,4.621H110.821a4.622,4.622,0,0,1-4.621-4.621V296.721a4.622,4.622,0,0,1,4.621-4.621h17.642a4.622,4.622,0,0,1,4.621,4.621Z" transform="translate(-63.522 -174.717)"/>
      <path id="Path_14266" data-name="Path 14266" class="cls-6" d="M210.344,314.363a4.622,4.622,0,0,1-4.621,4.621h-17.6a4.622,4.622,0,0,1-4.621-4.621V296.721a4.622,4.622,0,0,1,4.621-4.621h17.642a4.622,4.622,0,0,1,4.621,4.621v17.642Z" transform="translate(-109.759 -174.717)"/>
      <path id="Path_14267" data-name="Path 14267" class="cls-6" d="M56.884,235.763a4.622,4.622,0,0,1-4.621,4.621H34.621A4.622,4.622,0,0,1,30,235.763V218.121a4.622,4.622,0,0,1,4.621-4.621H52.263a4.622,4.622,0,0,1,4.621,4.621Z" transform="translate(-17.944 -127.703)"/>
      <path id="Path_14268" data-name="Path 14268" class="cls-6" d="M132.084,235.763a4.622,4.622,0,0,1-4.621,4.621H109.821a4.622,4.622,0,0,1-4.621-4.621V218.121a4.622,4.622,0,0,1,4.621-4.621h17.642a4.622,4.622,0,0,1,4.621,4.621Z" transform="translate(-62.924 -127.703)"/>
      <path id="Path_14269" data-name="Path 14269" class="cls-6" d="M209.344,235.763a4.622,4.622,0,0,1-4.621,4.621h-17.6a4.622,4.622,0,0,1-4.621-4.621V218.121a4.622,4.622,0,0,1,4.621-4.621h17.642a4.622,4.622,0,0,1,4.621,4.621v17.642Z" transform="translate(-109.16 -127.703)"/>
      <path id="Path_14270" data-name="Path 14270" class="cls-5" d="M288.739,220.171a6.68,6.68,0,0,0-6.671-6.671H265.431a6.646,6.646,0,0,0-6.631,6.671v13.583a6.672,6.672,0,0,0,6.631,6.671h16.637a6.68,6.68,0,0,0,6.671-6.671Z" transform="translate(-154.799 -127.703)"/>
      <path id="Path_14271" data-name="Path 14271" class="cls-5" d="M118.128,168.872a6.68,6.68,0,0,1-6.671,6.671H36.671A6.68,6.68,0,0,1,30,168.872v-.2A6.68,6.68,0,0,1,36.671,162H111.5a6.68,6.68,0,0,1,6.671,6.671v.2Z" transform="translate(-17.944 -96.899)"/>
      <path id="Path_14272" data-name="Path 14272" class="cls-5" d="M291.49,169.314a6.68,6.68,0,0,1-6.671,6.671H270.071a6.68,6.68,0,0,1-6.671-6.671v-.643A6.68,6.68,0,0,1,270.071,162h14.748a6.68,6.68,0,0,1,6.671,6.671Z" transform="translate(-157.55 -96.899)"/>
    </g>
  </g>
</svg>
