<svg xmlns="http://www.w3.org/2000/svg" viewBox="3588.516 822.296 75.298 92.528">
  <defs>
    <style>
      .cls-1 {
        fill: #efdfb9;
      }

      .cls-2 {
        fill: #fff;
      }

      .cls-3 {
        fill: #fce227;
      }

      .cls-4 {
        fill: #38383d;
      }

      .cls-5 {
        fill: #fdb624;
      }

      .cls-6 {
        fill: #432918;
      }
    </style>
  </defs>
  <g id="Group_10204" data-name="Group 10204" transform="translate(3588.516 822.296)">
    <path id="Path_11445" data-name="Path 11445" class="cls-1" d="M1000.5,1239.76s33.679-13.344,54.49-7.625C1054.99,1232.134,1034.179,1250.615,1000.5,1239.76Z" transform="translate(-996.259 -1206.346)"/>
    <path id="Path_11446" data-name="Path 11446" class="cls-2" d="M1019.8,1246.914s20.123-8.738,37.544-5.613C1057.344,1241.3,1039.711,1251.573,1019.8,1246.914Z" transform="translate(-1005.339 -1211.011)"/>
    <path id="Path_11447" data-name="Path 11447" class="cls-3" d="M1021.032,1224.2l-1.43-29.231-9.108-10.273-1.695,2.542,8.1,9.108.847,26.53A11.052,11.052,0,0,0,1021.032,1224.2Z" transform="translate(-1000.164 -1184.7)"/>
    <g id="Group_10203" data-name="Group 10203" transform="translate(30.029 6.513)">
      <path id="Path_11448" data-name="Path 11448" class="cls-4" d="M1082.4,1215.635l-4.607,18.375s-1.589.635-1.694.37c0-.053,5.031-19.381,5.031-19.381Z" transform="translate(-1061.855 -1205.468)"/>
      <path id="Path_11449" data-name="Path 11449" class="cls-5" d="M1090.5,1209.762,1071.282,1197l-22.082,4.766,5.4,5.878,7.149,5.083,10.961,2.383,10.8-1.112Z" transform="translate(-1049.2 -1197)"/>
      <path id="Path_11450" data-name="Path 11450" class="cls-3" d="M1103.132,1214l-12.232-17,1.43,18.11Z" transform="translate(-1068.818 -1197)"/>
      <path id="Path_11451" data-name="Path 11451" class="cls-3" d="M1066.549,1212.727l-7.149-5.083L1076.081,1197Z" transform="translate(-1053.999 -1197)"/>
    </g>
    <path id="Path_11452" data-name="Path 11452" class="cls-6" d="M996.733,1241.3c-6.831,25.683-6.09,47.553,7.255,53.113,18.534,7.678,37.492,8.949,51.9-4.872,20.546-19.7,11.544-35.744-4.713-56.237-16.257,11.968-36.485,13.715-54.49,7.678" transform="translate(-992.492 -1207.564)"/>
  </g>
</svg>
