<svg xmlns="http://www.w3.org/2000/svg" viewBox="3103.435 213.594 163.031 67.261">
  <defs>
    <style>
      .cls-1 {
        fill: #f2ccd6;
      }
    </style>
  </defs>
  <path id="Path_14237" data-name="Path 14237" class="cls-1" d="M534.768,34.049a19.417,19.417,0,0,1,10.294,3.167c4.4-11.79,14.165-22.172,25.339-22.172a21.476,21.476,0,0,1,13.373,5.1C589.581,8.974,599.611,0,611.136,0c11.438,0,21.468,8.886,27.1,19.884h.176c20.94,0,37.92,18.652,37.92,34.137S659.35,67.13,638.411,67.13c-14.253,0-26.747,1.056-33.169-3.167-3.959,1.056-9.5.616-15.661.616-5.719,0-11,.352-14.869-.44-1.408,0-2.815-.088-4.311-.088-7.215,0-13.813.528-18.74-.528-3.959,1.5-10.03,1.056-16.893,1.056-11.878,0-21.468,1.5-21.468-8.534C513.3,46.191,522.89,34.049,534.768,34.049Z" transform="translate(2590.135 213.594)"/>
</svg>
