<svg id="Group_11560" data-name="Group 11560" xmlns="http://www.w3.org/2000/svg" viewBox="5988.683 729.309 751.489 183.237">
  <defs>
    <style>
      .cls-1 {
        fill: #39761d;
      }

      .cls-2 {
        fill: #5d8610;
      }
    </style>
  </defs>
  <path id="Path_11351" data-name="Path 11351" class="cls-1" d="M586.418,1017.52c-39.027-9.638-79.749-4.819-120.471-8.42l-22.77,2.383c-106.914,0-212.929,9-311.318,45.117-37.333,14.456-80.7,58.144-110.621,79.537-7.784,5.56,32.832,12.656,66.775,23.459,127.249,37.28,254.233,37.438,389.849,26.318,58.62-4.819,264.983-27.112,293.9-50.571C724.417,1077.993,678.029,1037.96,586.418,1017.52Z" transform="translate(5968.414 -279.791)"/>
  <g id="Group_10165" data-name="Group 10165" transform="translate(6515.104 797.514)">
    <path id="Path_11384" data-name="Path 11384" class="cls-2" d="M1017.036,1143.407c3.548,0,3.548-5.507,0-5.507s-3.548,5.507,0,5.507Z" transform="translate(-1014.375 -1137.9)"/>
  </g>
  <g id="Group_10166" data-name="Group 10166" transform="translate(6542.653 799.95)">
    <path id="Path_11385" data-name="Path 11385" class="cls-2" d="M1069.154,1148.007h1.218a2.754,2.754,0,0,0,0-5.507h-1.218a2.754,2.754,0,0,0,0,5.507Z" transform="translate(-1066.4 -1142.5)"/>
  </g>
  <g id="Group_10167" data-name="Group 10167" transform="translate(6520.995 818.007)">
    <path id="Path_11386" data-name="Path 11386" class="cls-2" d="M1025.5,1179.354v1.218a2.754,2.754,0,0,0,5.507,0v-1.218a2.8,2.8,0,0,0-2.754-2.754,2.768,2.768,0,0,0-2.754,2.754Z" transform="translate(-1025.5 -1176.6)"/>
  </g>
  <g id="Group_10168" data-name="Group 10168" transform="translate(6573.83 796.667)">
    <path id="Path_11387" data-name="Path 11387" class="cls-2" d="M1127.936,1141.807c3.548,0,3.548-5.507,0-5.507s-3.548,5.507,0,5.507Z" transform="translate(-1125.275 -1136.3)"/>
  </g>
  <g id="Group_10169" data-name="Group 10169" transform="translate(6580.449 822.879)">
    <path id="Path_11388" data-name="Path 11388" class="cls-2" d="M1140.436,1191.307c3.548,0,3.548-5.507,0-5.507s-3.548,5.507,0,5.507Z" transform="translate(-1137.775 -1185.8)"/>
  </g>
  <g id="Group_10170" data-name="Group 10170" transform="translate(6605.973 792.854)">
    <path id="Path_11389" data-name="Path 11389" class="cls-2" d="M1188.636,1134.607c3.548,0,3.548-5.507,0-5.507s-3.548,5.507,0,5.507Z" transform="translate(-1185.975 -1129.1)"/>
  </g>
  <g id="Group_10171" data-name="Group 10171" transform="translate(6598.719 764.471)">
    <path id="Path_11390" data-name="Path 11390" class="cls-2" d="M1174.936,1081.007c3.548,0,3.548-5.507,0-5.507s-3.548,5.507,0,5.507Z" transform="translate(-1172.275 -1075.5)"/>
  </g>
  <path id="Path_11391" data-name="Path 11391" class="cls-2" d="M1216.936,1093.507c3.548,0,3.548-5.507,0-5.507s-3.548,5.507,0,5.507Z" transform="translate(5406.685 -316.91)"/>
  <g id="Group_10177" data-name="Group 10177" transform="translate(6118.318 811.653)">
    <path id="Path_11396" data-name="Path 11396" class="cls-2" d="M267.736,1170.107c3.548,0,3.548-5.507,0-5.507s-3.548,5.507,0,5.507Z" transform="translate(-265.075 -1164.6)"/>
  </g>
  <g id="Group_10179" data-name="Group 10179" transform="translate(6134.059 837.865)">
    <path id="Path_11398" data-name="Path 11398" class="cls-2" d="M297.5,1219.607c3.548,0,3.548-5.507,0-5.507-3.6,0-3.6,5.507,0,5.507Z" transform="translate(-294.8 -1214.1)"/>
  </g>
  <g id="Group_10181" data-name="Group 10181" transform="translate(6116.836 786.87)">
    <path id="Path_11400" data-name="Path 11400" class="cls-2" d="M264.936,1123.307c3.548,0,3.548-5.507,0-5.507s-3.548,5.507,0,5.507Z" transform="translate(-262.275 -1117.8)"/>
  </g>
</svg>
