<svg xmlns="http://www.w3.org/2000/svg" viewBox="6268 2625 2046.25 262.112">
  <defs>
    <style>
      .cls-1 {
        fill: #245f6f;
      }

      .cls-2, .cls-4 {
        fill: #002539;
      }

      .cls-3 {
        fill: #8bcbef;
      }

      .cls-4 {
        opacity: 0.507;
      }
    </style>
  </defs>
  <g id="Group_10299" data-name="Group 10299" transform="translate(-5044 -1095)">
    <rect id="Rectangle_3265" data-name="Rectangle 3265" class="cls-1" width="2046.25" height="166.8" transform="translate(11312 3815.312)"/>
    <g id="Group_9171" data-name="Group 9171" transform="translate(-439 261)">
      <g id="Group_9167" data-name="Group 9167" transform="translate(-460 -204)">
        <path id="Path_9818" data-name="Path 9818" class="cls-1" d="M1353.9,89.9c8.2-22.3,17.1-43.9,28-60.8C1392.8,12.3,1406,.4,1419.7,0c6.4-.2,12.8,2.1,18.9,5.7,16.9,9.8,32.4,29.3,44.2,55.6,2.4,5.4,4.8,11.5,5.4,18.7.9,10.4-2.1,20.9-6.3,27.3-4.2,6.3-9.3,9.2-14.4,11.8-30.4,15.4-63.1,22.5-92.7,1.4a54.884,54.884,0,0,1-20.6-27.3Z" transform="translate(11312 3720.012)"/>
        <path id="Path_9819" data-name="Path 9819" class="cls-2" d="M1482.8,61.3c-11.8-26.4-27.3-45.9-44.2-55.6a.1.1,0,0,1-.1-.1c.8,1.9,1.7,3.8,2.5,5.9,5.2,14.4,8.3,33.1,6.1,50.4a100.1,100.1,0,0,1-5.8,22.5c-9.2,24.7-22.7,39.8-37.5,48.3,21.2,3.6,43-3.1,63.8-13.6,5-2.6,10.2-5.5,14.4-11.8s7.2-16.9,6.3-27.3C1487.6,72.8,1485.2,66.7,1482.8,61.3Z" transform="translate(11312 3720.012)"/>
        <path id="Path_9820" data-name="Path 9820" class="cls-3" d="M1423,.2c-1.1-.1-2.2-.2-3.3-.2-13.7.4-26.9,12.2-37.8,29.1-10.9,16.8-19.8,38.5-28,60.8l.4,3.3a55.454,55.454,0,0,0,20.6,27.3c1.8,1.3,3.7,2.5,5.5,3.6-4.3-5.9-7.7-14.5-8.5-24.8-1-13.7,2.8-27,7-37.9C1390.1,32.6,1405.8,11.4,1423,.2Z" transform="translate(11312 3720.012)"/>
      </g>
      <g id="Group_9170" data-name="Group 9170" transform="translate(-357.04 -146.239)">
        <path id="Path_9818-2" data-name="Path 9818" class="cls-1" d="M1353.9,48.525c4.427-12.038,9.231-23.7,15.115-32.822C1374.9,6.634,1382.025.21,1389.421-.006a19.186,19.186,0,0,1,10.2,3.077c9.123,5.29,17.491,15.817,23.861,30.015a30.743,30.743,0,0,1,2.915,10.095,24.538,24.538,0,0,1-3.4,14.737c-2.267,3.4-5.02,4.966-7.774,6.37-16.411,8.313-34.063,12.146-50.042.756a29.628,29.628,0,0,1-11.12-14.737Z" transform="translate(11312 3720.012)"/>
        <path id="Path_9819-2" data-name="Path 9819" class="cls-2" d="M1446.447,35.669c-6.37-14.252-14.737-24.778-23.861-30.015a.053.053,0,0,1-.054-.054c.432,1.026.918,2.051,1.35,3.185a61,61,0,0,1,3.293,27.208,54.038,54.038,0,0,1-3.131,12.146c-4.966,13.334-12.254,21.485-20.244,26.074,11.444,1.943,23.213-1.673,34.441-7.342,2.7-1.4,5.506-2.969,7.774-6.37a24.442,24.442,0,0,0,3.4-14.737A32.109,32.109,0,0,0,1446.447,35.669Z" transform="translate(11289.037 3717.43)"/>
        <path id="Path_9820-2" data-name="Path 9820" class="cls-3" d="M1391.2.108c-.594-.054-1.188-.108-1.781-.108-7.4.216-14.521,6.586-20.406,15.709-5.884,9.069-10.689,20.784-15.115,32.822l.216,1.781a29.936,29.936,0,0,0,11.121,14.737c.972.7,2,1.35,2.969,1.943a26.4,26.4,0,0,1-4.589-13.388c-.54-7.4,1.511-14.575,3.779-20.46C1373.442,17.6,1381.917,6.154,1391.2.108Z" transform="translate(11312 3720.007)"/>
      </g>
    </g>
    <g id="Group_9174" data-name="Group 9174" transform="translate(13077.451 3777)">
      <g id="Group_9167-2" data-name="Group 9167">
        <path id="Path_9818-3" data-name="Path 9818" class="cls-1" d="M1353.9,76.45c6.973-18.964,14.542-37.333,23.811-51.7C1386.981,10.458,1398.206.338,1409.857,0c5.443-.17,10.885,1.786,16.073,4.847,14.372,8.334,27.553,24.917,37.588,47.282,2.041,4.592,4.082,9.78,4.592,15.9.765,8.844-1.786,17.773-5.358,23.216-3.572,5.358-7.909,7.824-12.246,10.035-25.852,13.1-53.661,19.134-78.832,1.191a46.673,46.673,0,0,1-17.518-23.216Z" transform="translate(-1353.9 0.012)"/>
        <path id="Path_9819-3" data-name="Path 9819" class="cls-2" d="M1470.982,52.968c-10.035-22.451-23.216-39.034-37.588-47.282a.083.083,0,0,1-.085-.085c.68,1.616,1.446,3.232,2.126,5.017,4.422,12.246,7.058,28.148,5.188,42.86a85.131,85.131,0,0,1-4.932,19.134c-7.824,21-19.3,33.846-31.89,41.075,18.028,3.061,36.567-2.636,54.256-11.565,4.252-2.211,8.674-4.677,12.246-10.035s6.123-14.372,5.358-23.216A50.589,50.589,0,0,0,1470.982,52.968Z" transform="translate(-1361.365 -0.828)"/>
        <path id="Path_9820-3" data-name="Path 9820" class="cls-3" d="M1412.663.17c-.935-.085-1.871-.17-2.806-.17-11.65.34-22.876,10.375-32.145,24.747-9.269,14.287-16.838,32.741-23.811,51.7l.34,2.806a47.159,47.159,0,0,0,17.518,23.216c1.531,1.106,3.146,2.126,4.677,3.061a41.582,41.582,0,0,1-7.228-21.09c-.85-11.651,2.381-22.961,5.953-32.23C1384.685,27.723,1398.036,9.695,1412.663.17Z" transform="translate(-1353.9 0.01)"/>
      </g>
      <g id="Group_9170-2" data-name="Group 9170" transform="translate(87.558 49.12)">
        <path id="Path_9818-4" data-name="Path 9818" class="cls-1" d="M1353.9,41.264c3.765-10.237,7.85-20.153,12.854-27.912,5-7.712,11.064-13.175,17.353-13.359a16.316,16.316,0,0,1,8.677,2.617c7.758,4.5,14.874,13.451,20.291,25.525a26.144,26.144,0,0,1,2.479,8.585,20.867,20.867,0,0,1-2.892,12.533,15.682,15.682,0,0,1-6.611,5.417c-13.956,7.07-28.968,10.329-42.556.643a25.2,25.2,0,0,1-9.457-12.533Z" transform="translate(-1353.9 0.012)"/>
        <path id="Path_9819-4" data-name="Path 9819" class="cls-2" d="M1440.067,31.171c-5.417-12.12-12.533-21.072-20.291-25.525a.045.045,0,0,1-.046-.046c.367.872.78,1.744,1.148,2.709a51.874,51.874,0,0,1,2.8,23.137,45.952,45.952,0,0,1-2.663,10.329c-4.223,11.339-10.421,18.271-17.215,22.173,9.732,1.653,19.74-1.423,29.289-6.243a15.962,15.962,0,0,0,6.611-5.417,20.786,20.786,0,0,0,2.892-12.533A27.307,27.307,0,0,0,1440.067,31.171Z" transform="translate(-1380.893 -3.024)"/>
        <path id="Path_9820-4" data-name="Path 9820" class="cls-3" d="M1385.622.092c-.505-.046-1.01-.092-1.515-.092-6.289.184-12.349,5.6-17.353,13.359-5,7.712-9.09,17.674-12.854,27.912l.184,1.515a25.457,25.457,0,0,0,9.457,12.533c.826.6,1.7,1.148,2.525,1.653a22.448,22.448,0,0,1-3.9-11.385c-.459-6.289,1.285-12.4,3.214-17.4C1370.518,14.966,1377.726,5.233,1385.622.092Z" transform="translate(-1353.9 0.006)"/>
      </g>
    </g>
    <g id="Group_9169" data-name="Group 9169" transform="translate(-1112.71 90.112)">
      <ellipse id="Ellipse_1431" data-name="Ellipse 1431" class="cls-4" cx="54.555" cy="11.503" rx="54.555" ry="11.503" transform="translate(12689.512 3787.882)"/>
      <g id="Group_9167-3" data-name="Group 9167" transform="translate(12665.9 3720)">
        <path id="Path_9818-5" data-name="Path 9818" class="cls-1" d="M1353.9,60.47c5.516-15,11.5-29.531,18.835-40.9C1380.068,8.27,1388.947.265,1398.163,0c4.305-.135,8.61,1.413,12.714,3.834,11.368,6.592,21.8,19.71,29.733,37.4a38.31,38.31,0,0,1,3.633,12.579A30.576,30.576,0,0,1,1440,72.175c-2.825,4.238-6.256,6.189-9.687,7.938-20.45,10.359-42.446,15.135-62.358.942A36.919,36.919,0,0,1,1354.1,62.69Z" transform="translate(-1353.9 0.012)"/>
        <path id="Path_9819-5" data-name="Path 9819" class="cls-2" d="M1456.942,43.069c-7.938-17.759-18.364-30.876-29.733-37.4a.066.066,0,0,1-.067-.067c.538,1.278,1.144,2.556,1.682,3.969,3.5,9.687,5.583,22.266,4.1,33.9a67.341,67.341,0,0,1-3.9,15.135c-6.189,16.615-15.27,26.773-25.226,32.491,14.261,2.422,28.925-2.085,42.917-9.149,3.363-1.749,6.861-3.7,9.687-7.938s4.843-11.368,4.238-18.364A40.015,40.015,0,0,0,1456.942,43.069Z" transform="translate(-1370.233 -1.825)"/>
        <path id="Path_9820-5" data-name="Path 9820" class="cls-3" d="M1400.382.135c-.74-.067-1.48-.135-2.22-.135-9.216.269-18.1,8.207-25.427,19.575-7.332,11.3-13.319,25.9-18.835,40.9l.269,2.22a37.3,37.3,0,0,0,13.857,18.364c1.211.874,2.489,1.682,3.7,2.422a32.892,32.892,0,0,1-5.718-16.683c-.673-9.216,1.884-18.162,4.709-25.495C1378.251,21.93,1388.812,7.669,1400.382.135Z" transform="translate(-1353.9 0.008)"/>
      </g>
    </g>
    <g id="Group_9172" data-name="Group 9172" transform="translate(-1298.599 64.721)">
      <ellipse id="Ellipse_1431-2" data-name="Ellipse 1431" class="cls-4" cx="45.42" cy="9.577" rx="45.42" ry="9.577" transform="translate(12685.559 3776.516)"/>
      <g id="Group_9167-4" data-name="Group 9167" transform="translate(12665.9 3720)">
        <path id="Path_9818-6" data-name="Path 9818" class="cls-1" d="M1353.9,50.343c4.592-12.489,9.577-24.586,15.681-34.051,6.1-9.409,13.5-16.073,21.17-16.3a19.905,19.905,0,0,1,10.585,3.192c9.465,5.489,18.146,16.409,24.754,31.139a31.9,31.9,0,0,1,3.024,10.473,25.458,25.458,0,0,1-3.528,15.289c-2.352,3.528-5.208,5.152-8.065,6.609-17.026,8.625-35.339,12.6-51.917.784a30.738,30.738,0,0,1-11.537-15.289Z" transform="translate(-1353.9 0.012)"/>
        <path id="Path_9819-6" data-name="Path 9819" class="cls-2" d="M1448.044,36.795c-6.609-14.785-15.289-25.706-24.754-31.139a.055.055,0,0,1-.056-.056c.448,1.064.952,2.128,1.4,3.3a63.284,63.284,0,0,1,3.416,28.227,56.065,56.065,0,0,1-3.248,12.6c-5.152,13.833-12.713,22.29-21,27.05,11.873,2.016,24.082-1.736,35.731-7.617,2.8-1.456,5.712-3.08,8.065-6.609a25.356,25.356,0,0,0,3.528-15.289A33.313,33.313,0,0,0,1448.044,36.795Z" transform="translate(-1375.853 -2.457)"/>
        <path id="Path_9820-6" data-name="Path 9820" class="cls-3" d="M1392.6.112c-.616-.056-1.232-.112-1.848-.112-7.673.224-15.065,6.833-21.17,16.3-6.1,9.409-11.089,21.562-15.682,34.051l.224,1.848a31.058,31.058,0,0,0,11.537,15.289c1.008.728,2.072,1.4,3.08,2.016a27.383,27.383,0,0,1-4.76-13.889c-.56-7.673,1.568-15.121,3.92-21.226C1374.174,18.258,1382.967,6.385,1392.6.112Z" transform="translate(-1353.9 0.007)"/>
      </g>
    </g>
    <g id="Group_9168" data-name="Group 9168">
      <ellipse id="Ellipse_1431-3" data-name="Ellipse 1431" class="cls-4" cx="81.1" cy="17.1" rx="81.1" ry="17.1" transform="translate(12701 3820.912)"/>
      <g id="Group_9167-5" data-name="Group 9167">
        <path id="Path_9818-7" data-name="Path 9818" class="cls-1" d="M1353.9,89.9c8.2-22.3,17.1-43.9,28-60.8C1392.8,12.3,1406,.4,1419.7,0c6.4-.2,12.8,2.1,18.9,5.7,16.9,9.8,32.4,29.3,44.2,55.6,2.4,5.4,4.8,11.5,5.4,18.7.9,10.4-2.1,20.9-6.3,27.3-4.2,6.3-9.3,9.2-14.4,11.8-30.4,15.4-63.1,22.5-92.7,1.4a54.884,54.884,0,0,1-20.6-27.3Z" transform="translate(11312 3720.012)"/>
        <path id="Path_9819-7" data-name="Path 9819" class="cls-2" d="M1482.8,61.3c-11.8-26.4-27.3-45.9-44.2-55.6a.1.1,0,0,1-.1-.1c.8,1.9,1.7,3.8,2.5,5.9,5.2,14.4,8.3,33.1,6.1,50.4a100.1,100.1,0,0,1-5.8,22.5c-9.2,24.7-22.7,39.8-37.5,48.3,21.2,3.6,43-3.1,63.8-13.6,5-2.6,10.2-5.5,14.4-11.8s7.2-16.9,6.3-27.3C1487.6,72.8,1485.2,66.7,1482.8,61.3Z" transform="translate(11312 3720.012)"/>
        <path id="Path_9820-7" data-name="Path 9820" class="cls-3" d="M1423,.2c-1.1-.1-2.2-.2-3.3-.2-13.7.4-26.9,12.2-37.8,29.1-10.9,16.8-19.8,38.5-28,60.8l.4,3.3a55.454,55.454,0,0,0,20.6,27.3c1.8,1.3,3.7,2.5,5.5,3.6-4.3-5.9-7.7-14.5-8.5-24.8-1-13.7,2.8-27,7-37.9C1390.1,32.6,1405.8,11.4,1423,.2Z" transform="translate(11312 3720.012)"/>
      </g>
    </g>
  </g>
</svg>
