<svg id="Group_10142" data-name="Group 10142" xmlns="http://www.w3.org/2000/svg" viewBox="711 1014 140.635 140.635">
  <defs>
    <style>
      .cls-1, .cls-3 {
        fill: #ff604e;
      }

      .cls-1 {
        stroke: #95989a;
      }

      .cls-2 {
        fill: #f7f7f7;
        stroke: #a81620;
        stroke-width: 5px;
      }

      .cls-4 {
        fill: #fff;
      }

      .cls-5 {
        stroke: none;
      }

      .cls-6 {
        fill: none;
      }
    </style>
  </defs>
  <g id="Group_10135" data-name="Group 10135" transform="translate(453 -316.682)">
    <g id="Group_9126" data-name="Group 9126" transform="translate(-129.433 120)">
      <g id="Group_9125" data-name="Group 9125" transform="translate(387.432 1210.682)">
        <g id="Group_9124" data-name="Group 9124" transform="translate(0)">
          <g id="Ellipse_1390" data-name="Ellipse 1390" class="cls-1">
            <circle class="cls-5" cx="70.318" cy="70.318" r="70.318"/>
            <circle class="cls-6" cx="70.318" cy="70.318" r="69.818"/>
          </g>
          <g id="Ellipse_1391" data-name="Ellipse 1391" class="cls-2" transform="translate(8.003 8.004)">
            <circle class="cls-5" cx="62.314" cy="62.314" r="62.314"/>
            <circle class="cls-6" cx="62.314" cy="62.314" r="59.814"/>
          </g>
        </g>
      </g>
    </g>
  </g>
  <g id="Group_9919" data-name="Group 9919" transform="translate(742 1053)">
    <path id="Path_9635" data-name="Path 9635" class="cls-3" d="M1246.84,192.7c11.428,0,21.136,4.753,21.541,10.416-.3,5.663-10.012,10.416-21.541,10.416s-21.136-4.753-21.541-10.416C1225.6,197.453,1235.312,192.7,1246.84,192.7Z" transform="translate(-1190.613 -192.7)"/>
    <g id="Group_9064" data-name="Group 9064" transform="translate(0 14.563)">
      <path id="Path_9636" data-name="Path 9636" class="cls-3" d="M1237.823,225.708c-.2-.708-.4-1.517-.607-2.225a23.228,23.228,0,0,0-5.36-9,23.648,23.648,0,1,0,2.326,29.732,21.916,21.916,0,0,0,3.438-7.686,15.69,15.69,0,0,0,.4-2.124,20.049,20.049,0,0,0,.3-3.54A21.276,21.276,0,0,0,1237.823,225.708Z" transform="translate(-1191 -207.1)"/>
      <g id="Group_9063" data-name="Group 9063" transform="translate(5.562 5.461)">
        <path id="Path_9637" data-name="Path 9637" class="cls-4" d="M1214.7,214.725a15.978,15.978,0,1,1-15.979,15.978,16.012,16.012,0,0,1,15.979-15.978m0-2.225a18.2,18.2,0,1,0,18.2,18.2,18.257,18.257,0,0,0-18.2-18.2Z" transform="translate(-1196.5 -212.5)"/>
        <g id="Group_9062" data-name="Group 9062" transform="translate(12.034 3.337)">
          <path id="Path_9638" data-name="Path 9638" class="cls-4" d="M1213.052,241.183v-2.023c-5.057-.1-3.641-.607-4.652-1.214l.809-3.236a9.7,9.7,0,0,0,4.551,1.214c1.517,0,2.629-.607,2.629-1.719,0-1.011-.91-1.719-2.933-2.427-2.933-1.011-4.955-2.326-4.955-4.955,0-2.427-.506-4.247,4.551-4.854V215.8h3.034v5.967c0,.1,2.933.506,3.843.91l-.809,3.135a9.313,9.313,0,0,0-3.944-.91c-1.82,0-2.326.809-2.326,1.517,0,.91.91,1.517,3.236,2.326,3.236,1.112,4.753,2.629,4.753,5.158,0,2.427-4.652,4.551-4.652,5.056v2.225h-3.135Z" transform="translate(-1208.4 -215.8)"/>
        </g>
      </g>
      <path id="Path_9639" data-name="Path 9639" class="cls-3" d="M1245.194,244.377c11.63,0,20.125-4.854,20.125-10.72V228.5c-2.023,4.45-10.416,7.484-20.125,7.484a33.282,33.282,0,0,1-4.551-.3,22.875,22.875,0,0,1-3.843,7.686A37.408,37.408,0,0,0,1245.194,244.377Z" transform="translate(-1190.483 -206.858)"/>
      <path id="Path_9640" data-name="Path 9640" class="cls-3" d="M1241.811,233.676a17.808,17.808,0,0,0,3.337.3c11.63,0,20.125-4.854,20.125-10.72V217.9c-2.023,4.45-10.416,7.484-20.125,7.484a30.37,30.37,0,0,1-4.349-.3,27.851,27.851,0,0,1,.91,5.056A21.023,21.023,0,0,1,1241.811,233.676Z" transform="translate(-1190.438 -206.978)"/>
      <path id="Path_9641" data-name="Path 9641" class="cls-3" d="M1245.215,223.372c11.63,0,20.125-4.854,20.125-10.72V208c-2.023,4.45-10.416,7.484-20.125,7.484a35.822,35.822,0,0,1-10.315-1.416,22.417,22.417,0,0,1,4.955,9A47.6,47.6,0,0,0,1245.215,223.372Z" transform="translate(-1190.504 -207.09)"/>
    </g>
  </g>
</svg>
