<svg id="Group_10126" data-name="Group 10126" xmlns="http://www.w3.org/2000/svg" viewBox="440.5 53.5 140.635 140.635">
  <defs>
    <style>
      .cls-1, .cls-3 {
        fill: #00c5f4;
      }

      .cls-1 {
        stroke: #95989a;
      }

      .cls-2 {
        fill: #f7f7f7;
        stroke: #031e9a;
        stroke-width: 5px;
      }

      .cls-4 {
        stroke: none;
      }

      .cls-5 {
        fill: none;
      }
    </style>
  </defs>
  <g id="Group_9124" data-name="Group 9124" transform="translate(440.5 53.5)">
    <path id="Path_11569" data-name="Path 11569" class="cls-1" d="M70.318.5A69.818,69.818,0,1,1,.5,70.318,69.818,69.818,0,0,1,70.318.5Z"/>
    <g id="Ellipse_1391" data-name="Ellipse 1391" class="cls-2" transform="translate(8.003 8.004)">
      <circle class="cls-4" cx="62.314" cy="62.314" r="62.314"/>
      <circle class="cls-5" cx="62.314" cy="62.314" r="59.814"/>
    </g>
  </g>
  <g id="Group_10101" data-name="Group 10101" transform="translate(-1120.601 2275.64)">
    <path id="Path_9660" data-name="Path 9660" class="cls-3" d="M83.027,157.98l-6.757,3.346a2.14,2.14,0,0,0,.918,4.068,2.632,2.632,0,0,0,.984-.2l6.757-3.346a2.179,2.179,0,0,0,.984-2.887A2.141,2.141,0,0,0,83.027,157.98Z" transform="translate(1530.801 -2288.746)"/>
    <path id="Path_9661" data-name="Path 9661" class="cls-3" d="M124.127,137.386l-6.757,3.346a2.14,2.14,0,0,0,.918,4.068,2.632,2.632,0,0,0,.984-.2l6.757-3.346a2.157,2.157,0,0,0-1.9-3.871Z" transform="translate(1516.665 -2281.667)"/>
    <path id="Path_9662" data-name="Path 9662" class="cls-3" d="M103.527,147.686l-6.757,3.346a2.14,2.14,0,0,0,.918,4.067,2.632,2.632,0,0,0,.984-.2l6.757-3.346a2.157,2.157,0,1,0-1.9-3.871Z" transform="translate(1523.75 -2285.209)"/>
    <path id="Path_9663" data-name="Path 9663" class="cls-3" d="M122.782,123.4a2.229,2.229,0,0,0,1.968-1.246,2.168,2.168,0,0,0-1.05-2.821l-7.873-3.543a2.091,2.091,0,0,0-2.821,1.05,2.168,2.168,0,0,0,1.05,2.821l7.873,3.543A1.816,1.816,0,0,0,122.782,123.4Z" transform="translate(1517.813 -2274.244)"/>
    <path id="Path_9664" data-name="Path 9664" class="cls-3" d="M89.007,105.956a2.168,2.168,0,0,0,1.05,2.821l7.807,3.543a2.02,2.02,0,0,0,.853.2,2.229,2.229,0,0,0,1.968-1.247,2.168,2.168,0,0,0-1.05-2.821l-7.741-3.543A2.245,2.245,0,0,0,89.007,105.956Z" transform="translate(1526.068 -2270.51)"/>
    <path id="Path_11566" data-name="Path 11566" class="cls-3" d="M1032.732,402.066a5.766,5.766,0,1,0-11.532,0c0,.524.087.7.175,1.572h0s2.534,9.522,5.5,9.61,5.591-9.61,5.591-9.61h0A9.2,9.2,0,0,0,1032.732,402.066Zm-5.766,2.708a2.8,2.8,0,1,1,2.8-2.8A2.76,2.76,0,0,1,1026.966,404.774Z" transform="translate(584.544 -2576.94)"/>
    <path id="Path_11567" data-name="Path 11567" class="cls-3" d="M1032.732,402.066a5.766,5.766,0,1,0-11.532,0c0,.524.087.7.175,1.572h0s2.534,9.522,5.5,9.61,5.591-9.61,5.591-9.61h0A9.2,9.2,0,0,0,1032.732,402.066Zm-5.766,2.708a2.8,2.8,0,1,1,2.8-2.8A2.76,2.76,0,0,1,1026.966,404.774Z" transform="translate(573.401 -2536.652)"/>
    <path id="Path_11568" data-name="Path 11568" class="cls-3" d="M1046.862,409.131a12.831,12.831,0,1,0-25.662,0c0,1.166.194,1.555.389,3.5h0s5.638,21.19,12.248,21.385,12.442-21.385,12.442-21.385h0A20.485,20.485,0,0,0,1046.862,409.131Zm-12.831,6.027a6.221,6.221,0,1,1,6.221-6.221A6.141,6.141,0,0,1,1034.031,415.157Z" transform="translate(619.482 -2574.466)"/>
  </g>
</svg>
