<svg xmlns="http://www.w3.org/2000/svg" viewBox="680 1775 140.635 140.635">
  <defs>
    <style>
      .cls-1, .cls-3 {
        fill: #ff604e;
      }

      .cls-1 {
        stroke: #95989a;
      }

      .cls-2 {
        fill: #f7f7f7;
        stroke: #a81620;
        stroke-width: 5px;
      }

      .cls-4, .cls-6 {
        fill: none;
      }

      .cls-4 {
        stroke: #ff604e;
        stroke-linecap: round;
        stroke-linejoin: round;
        stroke-miterlimit: 10;
        stroke-width: 2px;
      }

      .cls-5 {
        stroke: none;
      }
    </style>
  </defs>
  <g id="Group_11160" data-name="Group 11160" transform="translate(-34 240)">
    <g id="Group_11099" data-name="Group 11099" transform="translate(3 -2)">
      <g id="Group_11083" data-name="Group 11083" transform="translate(0 184)">
        <g id="Group_10155" data-name="Group 10155" transform="translate(0 168)">
          <g id="Group_10146" data-name="Group 10146" transform="translate(0 171)">
            <g id="Group_10135" data-name="Group 10135" transform="translate(453 -316.682)">
              <g id="Group_9126" data-name="Group 9126" transform="translate(-129.433 120)">
                <g id="Group_9125" data-name="Group 9125" transform="translate(387.432 1210.682)">
                  <g id="Group_9124" data-name="Group 9124" transform="translate(0)">
                    <g id="Ellipse_1390" data-name="Ellipse 1390" class="cls-1">
                      <circle class="cls-5" cx="70.318" cy="70.318" r="70.318"/>
                      <circle class="cls-6" cx="70.318" cy="70.318" r="69.818"/>
                    </g>
                    <g id="Ellipse_1391" data-name="Ellipse 1391" class="cls-2" transform="translate(8.003 8.004)">
                      <circle class="cls-5" cx="62.314" cy="62.314" r="62.314"/>
                      <circle class="cls-6" cx="62.314" cy="62.314" r="59.814"/>
                    </g>
                  </g>
                </g>
              </g>
            </g>
          </g>
        </g>
      </g>
    </g>
    <g id="Group_11140" data-name="Group 11140" transform="translate(745.815 1561)">
      <path id="Path_12515" data-name="Path 12515" class="cls-3" d="M.065,54.922a.455.455,0,0,1,.075-.7,6.912,6.912,0,0,1,2.762-.7,9.76,9.76,0,0,0,3.285-1.48,2.917,2.917,0,0,0,.672-.7,2.416,2.416,0,0,1-2.165-.467,2.541,2.541,0,0,1-.224-3.037,1.98,1.98,0,0,1,3.061-.389,4.117,4.117,0,0,1,1.344,2.181,2.565,2.565,0,0,0,1.269-2.414c0-.312.373-.312.523-.078.672,1.48-.448,2.726-1.717,3.5A2.908,2.908,0,0,1,8.8,51.5c-.523,1.713-2.239,2.648-3.732,3.271C3.723,55.312,1.334,56.013.065,54.922Zm6.942-5.53c-.3-.545-.97-1.324-1.418-.545-.746,1.246.746,1.48,1.642,1.324A1.356,1.356,0,0,0,7.008,49.393Z" transform="translate(63.063 -10.374)"/>
      <path id="Path_12516" data-name="Path 12516" class="cls-4" d="M12.809,58.95l2.239-.7a22.961,22.961,0,0,1,2.389-4.05c.746-1.012,1.418-1.869,2.165-2.726V40.57c.075-1.4.746-2.414,1.792-2.57h.3c.746,0,4.778.312,10.526,5.685a36.7,36.7,0,0,1,10.9-1.713c18.737,0,29.934,9.268,29.934,24.844a22.756,22.756,0,0,1-7.913,16.822l1.045,6.153a3.251,3.251,0,0,1-.9,3.115,8.222,8.222,0,0,1-3.509,2.259l-2.687.857a6.466,6.466,0,0,1-4.479.234c-.224-.078-.746-.234-4.4-5.3a36.6,36.6,0,0,1-14.258,0c-3.658,5.062-4.106,5.218-4.4,5.3a4.581,4.581,0,0,1-1.792.312,8.133,8.133,0,0,1-2.762-.545L24.3,95.165A7.561,7.561,0,0,1,20.8,92.906a3.563,3.563,0,0,1-.97-3.115l1.12-6.231A23.572,23.572,0,0,1,14.9,75.305l-2.165-.7C10.868,73.981,9.3,71.567,9.3,69.23V64.324C9.449,62.065,10.942,59.573,12.809,58.95Z" transform="translate(-6.115 -8.405)"/>
      <ellipse id="Ellipse_1508" data-name="Ellipse 1508" class="cls-3" cx="1.866" cy="1.947" rx="1.866" ry="1.947" transform="translate(14.979 49.533)"/>
      <path id="Path_12517" data-name="Path 12517" class="cls-3" d="M49.4,15.9a8.8,8.8,0,1,0,8.8,8.8A8.842,8.842,0,0,0,49.4,15.9Zm0,2.1a6.776,6.776,0,1,1-6.776,6.776A6.781,6.781,0,0,1,49.4,18Z" transform="translate(-8.996 -3.517)"/>
      <g id="Group_11075" data-name="Group 11075" transform="translate(37.368 15.966)">
        <path id="Path_12518" data-name="Path 12518" class="cls-3" d="M52.05,30.936H50.025v-.857a10.015,10.015,0,0,1-1.48-.312l-.389-.078V27.431l.545.078c.467,0,1.48.078,2.336.078.234,0,.312,0,.312-.078V27.12h-.857A2.316,2.316,0,0,1,48,24.55v-.623a2.279,2.279,0,0,1,2.025-2.492V20.5H52.05v.935a9.055,9.055,0,0,1,1.4.312l.389.078v2.259L53.3,24a10.57,10.57,0,0,0-2.181-.078h-.389v.389h1.09a2.3,2.3,0,0,1,2.336,2.57v.467c0,1.558-.7,2.492-2.1,2.648v.935Zm-2.8-2.025a3.243,3.243,0,0,0,1.324.156h1.012c1.09,0,1.558-.467,1.558-1.636v-.467c0-.7-.234-1.558-1.324-1.558h-.857c-1.012,0-1.246-.623-1.246-1.168V24c0-1.09.935-1.09,1.324-1.09a15.031,15.031,0,0,1,1.791.078V22.6a6.859,6.859,0,0,0-1.324-.156H50.57c-1.09,0-1.558.467-1.558,1.48v.623c0,1.558,1.09,1.558,1.48,1.558h.779a1.045,1.045,0,0,1,1.168,1.09v.312c0,.312-.156,1.09-1.324,1.09a14.4,14.4,0,0,1-1.869-.078v.389Z" transform="translate(-48 -20.5)"/>
      </g>
      <path id="Path_12519" data-name="Path 12519" class="cls-3" d="M57.336,48.625a.557.557,0,0,0,.149-1.09,29.818,29.818,0,0,0-17.319,0,.561.561,0,0,0-.373.7.532.532,0,0,0,.672.389,27.6,27.6,0,0,1,16.647,0Z" transform="translate(-13.691 -10.23)"/>
      <path id="Path_12520" data-name="Path 12520" class="cls-4" d="M82.552,40.661a8.793,8.793,0,0,1,3.509.078l.448.156V52.5l-.149.156a27.958,27.958,0,0,0-2.239,2.726l-.523.779-.3-.857c-.075-.234-.149-.545-.224-.779L81.283,43.777C80.985,42.219,81.507,41.051,82.552,40.661Z" transform="translate(-73.246 -8.964)"/>
      <g id="Group_11079" data-name="Group 11079" transform="translate(51.464)">
        <g id="Group_11076" data-name="Group 11076">
          <path id="Path_12521" data-name="Path 12521" class="cls-3" d="M76.147,16.745c-.545-2.336-.389-6.075.156-7.009s3.66-2.726,5.841-3.271c-2.259.545-5.685.389-6.776-.312S72.642,2.336,72.1,0c.545,2.336.545,5.919-.234,7.165-.7,1.246-3.583,2.648-5.763,3.115,2.181-.545,5.685-.389,6.7.312C73.888,11.215,75.6,14.408,76.147,16.745Z" transform="translate(-66.1)"/>
        </g>
        <g id="Group_11077" data-name="Group 11077" transform="translate(12.15 10.903)">
          <path id="Path_12522" data-name="Path 12522" class="cls-3" d="M85.2,19.919a4.267,4.267,0,0,1,.078-2.492,4.388,4.388,0,0,1,2.1-1.168,4.852,4.852,0,0,1-2.414-.078A5.166,5.166,0,0,1,83.8,14a4.639,4.639,0,0,1-.078,2.57A3.624,3.624,0,0,1,81.7,17.66a4.852,4.852,0,0,1,2.414.078A5.077,5.077,0,0,1,85.2,19.919Z" transform="translate(-81.7 -14)"/>
        </g>
        <g id="Group_11078" data-name="Group 11078" transform="translate(1.869 17.29)">
          <path id="Path_12523" data-name="Path 12523" class="cls-3" d="M73.407,30.455a6.933,6.933,0,0,1,.078-3.427,6.514,6.514,0,0,1,2.882-1.636,6.221,6.221,0,0,1-3.271-.156A7.387,7.387,0,0,1,71.459,22.2a6.489,6.489,0,0,1-.078,3.5A5.369,5.369,0,0,1,68.5,27.262a6.221,6.221,0,0,1,3.271.156A6.2,6.2,0,0,1,73.407,30.455Z" transform="translate(-68.5 -22.2)"/>
        </g>
      </g>
    </g>
  </g>
</svg>
