<svg xmlns="http://www.w3.org/2000/svg" viewBox="116 378.682 140.635 140.635">
  <defs>
    <style>
      .cls-1 {
        fill: #195c0b;
        stroke: #95989a;
      }

      .cls-2, .cls-6 {
        fill: #f7f7f7;
      }

      .cls-2 {
        stroke: #113608;
        stroke-width: 5px;
      }

      .cls-3 {
        fill: #007934;
      }

      .cls-4 {
        fill: #144733;
      }

      .cls-5 {
        fill: #87c405;
      }

      .cls-7 {
        stroke: none;
      }

      .cls-8 {
        fill: none;
      }
    </style>
  </defs>
  <g id="Group_2" data-name="Group 2" transform="translate(-192 -1434)">
    <g id="Group_9955" data-name="Group 9955" transform="translate(50 482)">
      <g id="Group_9126" data-name="Group 9126" transform="translate(-129.433 120)">
        <g id="Group_9125" data-name="Group 9125" transform="translate(387.432 1210.682)">
          <g id="Group_9124" data-name="Group 9124" transform="translate(0)">
            <g id="Ellipse_1390" data-name="Ellipse 1390" class="cls-1">
              <circle class="cls-7" cx="70.318" cy="70.318" r="70.318"/>
              <circle class="cls-8" cx="70.318" cy="70.318" r="69.818"/>
            </g>
            <g id="Ellipse_1391" data-name="Ellipse 1391" class="cls-2" transform="translate(8.003 8.004)">
              <circle class="cls-7" cx="62.314" cy="62.314" r="62.314"/>
              <circle class="cls-8" cx="62.314" cy="62.314" r="59.814"/>
            </g>
          </g>
        </g>
      </g>
    </g>
    <g id="Group_9921" data-name="Group 9921" transform="translate(344.276 1850.745)">
      <path id="Path_9589" data-name="Path 9589" class="cls-3" d="M426.39,241.825,412,247.981V194.656l14.39-6.156Z" transform="translate(-408.862 -185.622)"/>
      <path id="Path_9590" data-name="Path 9590" class="cls-4" d="M430,241.825l15.19,6.156V194.656L430,188.5Z" transform="translate(-412.471 -185.622)"/>
      <path id="Path_9591" data-name="Path 9591" class="cls-3" d="M461.792,241.825,449,247.981V194.656l12.792-6.156Z" transform="translate(-416.281 -185.622)"/>
      <path id="Path_9592" data-name="Path 9592" class="cls-4" d="M465,241.825l15.19,6.156V194.656L465,188.5Z" transform="translate(-419.49 -185.622)"/>
      <path id="Path_9593" data-name="Path 9593" class="cls-5" d="M495.69,192.015a7.2,7.2,0,0,0-14.39-.08,7.657,7.657,0,0,0,.24,1.759h0s3.2,11.912,6.955,11.992,6.955-11.992,6.955-11.992h0A7.046,7.046,0,0,0,495.69,192.015Zm-7.2,3.758a3.518,3.518,0,1,1,3.518-3.518A3.549,3.549,0,0,1,488.5,195.773Z" transform="translate(-422.758 -184.9)"/>
      <g id="Group_9044" data-name="Group 9044" transform="translate(1.48 22.435)">
        <path id="Path_9595" data-name="Path 9595" class="cls-6" d="M414.862,236.177a.366.366,0,0,1-.4-.32.455.455,0,0,1,.32-.56,14.893,14.893,0,0,0,1.919-.72.431.431,0,1,1,.32.8,12.907,12.907,0,0,1-2.079.72Zm-4.877-.32a.683.683,0,0,1,0-.56.484.484,0,0,1,.64-.08,15.282,15.282,0,0,0,1.679,1.119.466.466,0,1,1-.48.8,15.047,15.047,0,0,1-1.839-1.279Zm8.634-1.359a.44.44,0,0,1-.4-.24.432.432,0,0,1,.16-.64c.56-.32,1.119-.72,1.679-1.119a.5.5,0,0,1,.64.08.484.484,0,0,1-.08.64c-.64.4-1.2.8-1.759,1.2C418.779,234.418,418.7,234.5,418.619,234.5Zm3.438-2.478a.415.415,0,0,1-.32-.16.423.423,0,0,1,.08-.64c.56-.4,1.039-.879,1.6-1.359a.456.456,0,1,1,.56.72c-.56.48-1.119.959-1.6,1.359A.6.6,0,0,1,422.057,232.02Zm3.2-2.718a.415.415,0,0,1-.32-.16.486.486,0,0,1,0-.64,3.694,3.694,0,0,0,.56-.56,9.574,9.574,0,0,1,.959-.879.452.452,0,0,1,.64.64c-.32.32-.64.56-.959.879a3.693,3.693,0,0,0-.56.56C425.415,229.222,425.335,229.3,425.255,229.3Zm3.118-2.8a.415.415,0,0,1-.32-.16.423.423,0,0,1,.08-.64c.64-.48,1.2-.879,1.759-1.279a.466.466,0,1,1,.48.8,16.922,16.922,0,0,0-1.679,1.2A.6.6,0,0,1,428.373,226.5Zm25.183-1.359H452.6c-.24,0-.4-.64-.4-.879s.24-.879.48-.879h0c.72,0,1.359.48,2.079.48.24,0,.48.4.48.64s-.16.56-.4.56A6.462,6.462,0,0,0,453.556,225.144Zm-3.038-.16h0a20.091,20.091,0,0,1-2.159-.32.442.442,0,0,1,.08-.879,18.67,18.67,0,0,0,2.079.32.448.448,0,0,1,.4.48A.428.428,0,0,1,450.518,224.985Zm6.236-.08a.507.507,0,0,1-.48-.4.448.448,0,0,1,.4-.48,14.731,14.731,0,0,0,2-.4.456.456,0,1,1,.24.879,14.892,14.892,0,0,1-2.159.4Zm-24.864-.64a.44.44,0,0,1-.4-.24.413.413,0,0,1,.24-.56,15.791,15.791,0,0,1,2.079-.64.456.456,0,1,1,.24.879,17.988,17.988,0,0,0-1.919.64A.294.294,0,0,0,431.89,224.265Zm14.47,0h-.08c-.72-.16-1.359-.24-2.079-.4a.442.442,0,0,1,.08-.879c.64.08,1.359.24,2.079.4a.455.455,0,0,1,.32.56C446.761,224.105,446.6,224.265,446.361,224.265Zm14.47-.32a.408.408,0,0,1-.4-.32.413.413,0,0,1,.24-.56,12.756,12.756,0,0,0,1.839-.8.466.466,0,0,1,.48.8,15.1,15.1,0,0,1-2,.879C460.991,223.865,460.911,223.945,460.831,223.945Zm-18.628-.4h0c-.8-.08-1.439-.16-2.159-.24a.442.442,0,0,1,.08-.879c.64.08,1.359.16,2.079.24a.448.448,0,0,1,.4.48C442.683,223.386,442.443,223.545,442.2,223.545Zm22.385-1.519a.611.611,0,0,1-.4-.16.432.432,0,0,1,.16-.64,12.459,12.459,0,0,0,1.6-1.279.456.456,0,0,1,.56.72c-.56.48-1.119.879-1.679,1.279C464.749,221.947,464.669,222.026,464.589,222.026Zm3.118-2.8a.481.481,0,0,1-.32-.08.416.416,0,0,1,0-.64,12.459,12.459,0,0,0,1.279-1.6.456.456,0,1,1,.72.56c-.4.56-.879,1.119-1.359,1.679C467.947,219.228,467.867,219.228,467.707,219.228Zm2.4-3.438a.294.294,0,0,1-.24-.08.419.419,0,0,1-.16-.64c.32-.64.56-1.279.8-1.839a.431.431,0,1,1,.8.32,21.726,21.726,0,0,1-.879,2C470.425,215.711,470.265,215.791,470.105,215.791Zm-34.537,7.2c-.16-.08-.32-.16-.32-.4a.448.448,0,0,1,.4-.48,19.6,19.6,0,0,1,2.159-.16.442.442,0,0,1-.08.879,8.111,8.111,0,0,0-2,.16C435.728,223.066,435.648,223.066,435.568,222.986Z" transform="translate(-409.925 -212.962)"/>
      </g>
    </g>
  </g>
</svg>
