<svg xmlns="http://www.w3.org/2000/svg" xmlns:xlink="http://www.w3.org/1999/xlink" viewBox="8 44 184.783 112.4">
  <defs>
    <style>
      .cls-1, .cls-7 {
        fill: #1a1a1a;
      }

      .cls-1, .cls-11, .cls-13, .cls-14, .cls-2, .cls-3, .cls-4, .cls-5, .cls-8 {
        fill-rule: evenodd;
      }

      .cls-3 {
        fill: #5d5d5d;
      }

      .cls-4 {
        fill: #222;
      }

      .cls-5 {
        fill: #717271;
      }

      .cls-6 {
        clip-path: url(#clip-path);
      }

      .cls-8, .cls-9 {
        fill: #bdbbbb;
      }

      .cls-10 {
        fill: #222720;
      }

      .cls-11 {
        fill: #bdecfa;
        opacity: 0.75;
      }

      .cls-12 {
        opacity: 0.24;
      }

      .cls-13 {
        fill: #0033a0;
        opacity: 0.71;
      }

      .cls-14 {
        fill: #fff;
        opacity: 0.6;
      }

      .cls-15 {
        fill: #eee49a;
      }
    </style>
    <clipPath id="clip-path">
      <path id="Path_238" data-name="Path 238" d="M92.5,51.3s-42.7.7-43.8,1.4a2.09,2.09,0,0,0-.8,1.3c-.2,2.8-.4,11,.3,12,1,1.3,1.6,1.5,1.6,1.5s42.1.9,42.7.7c.6.2,42.7-.7,42.7-.7s.6-.2,1.6-1.5c.7-1,.5-9.2.3-12,0-.6-.7-1.2-.8-1.3-1-.7-43.7-1.4-43.8-1.4.1.1,0,.1,0,0Z"/>
    </clipPath>
  </defs>
  <g id="Group_135" data-name="Group 135" transform="translate(8.026 44)">
    <g id="Group_127" data-name="Group 127">
      <path id="Path_226" data-name="Path 226" class="cls-1" d="M155.8,74.6H164a7.17,7.17,0,0,1,7.2,7.2v23.4a7.17,7.17,0,0,1-7.2,7.2h-8.2a7.17,7.17,0,0,1-7.2-7.2V81.8A7.3,7.3,0,0,1,155.8,74.6Z"/>
      <path id="Path_227" data-name="Path 227" class="cls-1" d="M21,74.6h8.2a7.17,7.17,0,0,1,7.2,7.2v23.4a7.17,7.17,0,0,1-7.2,7.2H21a7.17,7.17,0,0,1-7.2-7.2V81.8A7.17,7.17,0,0,1,21,74.6Z"/>
    </g>
    <path id="Path_228" data-name="Path 228" class="cls-2" d="M44.9,2.5c-.6.2-14.3,33-14.3,33s-21.2,5.6-23.5,8C5,46,.3,54.4,0,55.7-.2,57,.8,67.9.8,68.3c0,.3,3.3,9.1,4.9,11s3.1,1.5,3.1,1.5a76.032,76.032,0,0,1,7.8,9.4c2.8,4.3,3.1,5.9,4.6,6.3s15.5,1,15.7.9-.1-1.1.7-1.3,51.9,1.1,52.1,1.5.6,1.6,1,1.7,1.7.2,1.7.2h0s1.3-.1,1.7-.2.8-1.3,1-1.7,51.4-1.7,52.1-1.5c.8.2.5,1.2.7,1.3s14.1-.4,15.7-.9c1.6-.4,1.9-2,4.6-6.3a76.032,76.032,0,0,1,7.8-9.4s1.5.4,3.1-1.5,4.9-10.7,4.9-11,1-11.3.7-12.6c-.2-1.3-4.9-9.8-7.2-12.1-2.2-2.4-23.5-8-23.5-8s-13.7-32.8-14.3-33C130.9-.9,54-.8,44.9,2.5Z"/>
    <path id="Path_229" data-name="Path 229" class="cls-3" d="M55.5,34.3l-.2-18.9A7.277,7.277,0,0,1,62.5,8l10.7-.1a7.277,7.277,0,0,1,7.4,7.2L80.9,34"/>
    <path id="Path_230" data-name="Path 230" class="cls-3" d="M104.1,33.9l.3-18.9a7.364,7.364,0,0,1,7.5-7.2l10.7.2a7.364,7.364,0,0,1,7.2,7.5l-.3,18.9"/>
    <path id="Path_231" data-name="Path 231" class="cls-3" d="M98.9,6.4H95v-3H92v3H87.4c-1.7,0-1.4.5-1.4,2.2V10c0,1.7-.3,2.3,1.4,2.3H98.9c1.7,0,4.1-.6,4.1-2.3V8.6C103,6.8,100.7,6.4,98.9,6.4Z"/>
    <g id="Group_128" data-name="Group 128">
      <path id="Path_232" data-name="Path 232" class="cls-2" d="M32.2,36.7a18.483,18.483,0,0,1-6-2.3c-3-1.7-2.2-4.4,1.2-5.1a11.845,11.845,0,0,1,7.6.8C36.2,30.9,32.2,36.7,32.2,36.7Z"/>
      <path id="Path_233" data-name="Path 233" class="cls-2" d="M152.9,36.7a18.484,18.484,0,0,0,6-2.3c3-1.7,2.2-4.4-1.2-5.1a11.845,11.845,0,0,0-7.6.8C148.8,30.9,152.9,36.7,152.9,36.7Z"/>
    </g>
    <path id="Path_234" data-name="Path 234" class="cls-4" d="M30.7,35.6s-21.2,5.6-23.5,8a46.29,46.29,0,0,0-4,5.8l4.6,1.2a2.975,2.975,0,0,0,.8.7c.2.1,32.2.6,32.2.6l98.8-.7,37.6-.6,4.6-1.2a29.71,29.71,0,0,0-4-5.8c-2.2-2.4-23.5-8-23.5-8l-3.7-.6L89.9,31.7,34.4,35Z"/>
    <path id="Path_235" data-name="Path 235" class="cls-4" d="M92.5,48.9h0s-82.2,1-84.7,1.7-6.1,4.8-6.2,5.5.9,9.7,1,9.9,1,.1,1.2.7c.3.6,1,2.9,1.8,3.3.7.5,86.9,1.7,86.9,1.7h0s86.2-1.3,86.9-1.7c.7-.5,1.5-2.7,1.8-3.3s1.1-.6,1.2-.7c.1-.2,1.1-9.2,1-9.9s-3.6-4.8-6.2-5.5c-2.5-.7-84.7-1.7-84.7-1.7Zm0,.2v0Z"/>
    <path id="Path_236" data-name="Path 236" class="cls-4" d="M40.8,81s2.1,6.5,3.1,6.9,36.2,1.5,41.7,1.7c5.6.1,7,0,7,0s1.4.1,7,0,40.8-1.2,41.7-1.7c1-.4,3.1-6.9,3.1-6.9l-31.8.9L111.4,80l-18.7-.1h0L73.8,80l-1.2,1.9Z"/>
    <path id="Path_237" data-name="Path 237" class="cls-5" d="M92.5,51.3s-42.7.7-43.8,1.4a2.09,2.09,0,0,0-.8,1.3c-.2,2.8-.4,11,.3,12,1,1.3,1.6,1.5,1.6,1.5s42.1.9,42.7.7c.6.2,42.7-.7,42.7-.7s.6-.2,1.6-1.5c.7-1,.5-9.2.3-12,0-.6-.7-1.2-.8-1.3-1-.7-43.7-1.4-43.8-1.4.1.1,0,.1,0,0Z"/>
    <g id="Group_131" data-name="Group 131">
      <g id="Group_130" data-name="Group 130" class="cls-6">
        <g id="Group_129" data-name="Group 129">
          <rect id="Rectangle_106" data-name="Rectangle 106" class="cls-7" width="98" height="1.2" transform="translate(43.5 53.2)"/>
          <rect id="Rectangle_107" data-name="Rectangle 107" class="cls-7" width="98" height="1.2" transform="translate(43.5 56.2)"/>
          <rect id="Rectangle_108" data-name="Rectangle 108" class="cls-7" width="98" height="1.2" transform="translate(43.5 59.2)"/>
          <rect id="Rectangle_109" data-name="Rectangle 109" class="cls-7" width="98" height="1.2" transform="translate(43.5 62.3)"/>
          <rect id="Rectangle_110" data-name="Rectangle 110" class="cls-7" width="98" height="1.2" transform="translate(43.5 65.3)"/>
        </g>
      </g>
    </g>
    <path id="Path_239" data-name="Path 239" class="cls-2" d="M59.2,68.4h1.1a.9.9,0,0,1,.9.9V82.9a.9.9,0,0,1-.9.9H59.2a.9.9,0,0,1-.9-.9V69.3A.9.9,0,0,1,59.2,68.4Z"/>
    <path id="Path_240" data-name="Path 240" class="cls-2" d="M125.8,68.4h-1.1a.9.9,0,0,0-.9.9V82.9a.9.9,0,0,0,.9.9h1.1a.9.9,0,0,0,.9-.9V69.3C126.8,68.8,126.3,68.4,125.8,68.4Z"/>
    <path id="Path_241" data-name="Path 241" class="cls-8" d="M58.3,71.2C34.1,70.8,6,70.3,5.6,70c-.7-.5-1.5-2.7-1.8-3.3s-1.1-.6-1.2-.7c0,0-1.3.6-2,.9a11.309,11.309,0,0,1,.1,1.4c0,.3,3.3,9.1,4.9,11a3.35,3.35,0,0,0,3.1,1.5h0a13.815,13.815,0,0,0,2.4,0c.8-.1,15.1.2,29.6.5l-.1-.2,17.5.5V71.2Z"/>
    <path id="Path_242" data-name="Path 242" class="cls-8" d="M126.8,71.2c24.1-.4,52.3-.9,52.7-1.2.7-.5,1.5-2.7,1.8-3.3s1.1-.6,1.2-.7c0,0,1.3.6,2,.9a11.308,11.308,0,0,0-.1,1.4c0,.3-3.3,9.1-4.9,11a3.35,3.35,0,0,1-3.1,1.5h0a13.815,13.815,0,0,1-2.4,0c-.8-.1-15.1.2-29.6.5l.1-.2-17.5.5V71.2Z"/>
    <path id="Path_243" data-name="Path 243" class="cls-8" d="M61.3,71.3V81.6l11.3.3L73.8,80l18.7-.1V71.8S78.2,71.6,61.3,71.3Z"/>
    <path id="Path_244" data-name="Path 244" class="cls-8" d="M123.8,71.3V81.6l-11.3.3L111.3,80l-18.7-.1V71.8C92.5,71.8,106.8,71.6,123.8,71.3Z"/>
    <path id="Path_245" data-name="Path 245" class="cls-2" d="M92.5,48.9ZM39.7,44.2s-32.2-.6-32.4-.6h0a46.29,46.29,0,0,0-4,5.8l4.6,1.2c2.5-.7,84.7-1.7,84.7-1.7s82.2,1,84.7,1.7l4.6-1.2a29.71,29.71,0,0,0-4-5.8,3.49,3.49,0,0,0-.9-.6l-37.7.6Z"/>
    <g id="Group_132" data-name="Group 132">
      <rect id="Rectangle_111" data-name="Rectangle 111" class="cls-9" width="25.8" height="10.4" transform="translate(79.6 75.5)"/>
      <rect id="Rectangle_112" data-name="Rectangle 112" class="cls-10" width="20.5" height="8.2" transform="translate(82.3 76.6)"/>
    </g>
    <path id="Path_246" data-name="Path 246" class="cls-11" d="M46.1,4.7,34.4,35c39.5-1.5,76.7-1.5,116.2,0L138.9,4.7A513.66,513.66,0,0,0,46.1,4.7Z"/>
    <g id="Group_134" data-name="Group 134">
      <g id="Group_133" data-name="Group 133" class="cls-12">
        <path id="Path_247" data-name="Path 247" class="cls-13" d="M46.1,4.7,34.4,35c39.5-1.5,76.7-1.5,116.2,0L138.9,4.7A513.66,513.66,0,0,0,46.1,4.7Z"/>
        <path id="Path_248" data-name="Path 248" class="cls-14" d="M108.9,33.9c4.8.1,9.7.1,14.5.2L99,2.7H96Z"/>
        <path id="Path_249" data-name="Path 249" class="cls-14" d="M122.9,3.5l12.8,30.9c4.9.1,9.9.3,14.9.5L126.4,3.8C125.2,3.7,124,3.6,122.9,3.5Z"/>
      </g>
      <path id="Path_250" data-name="Path 250" class="cls-3" d="M80.6,35.4,68,31.5l6.4-1.8L45.9,32.5l20.6-.1,11.6,3Z"/>
      <path id="Path_251" data-name="Path 251" class="cls-3" d="M104,35.4l12.6-3.9-6.4-1.8,28.5,2.8-20.6-.1-11.6,3Z"/>
    </g>
    <circle id="Ellipse_23" data-name="Ellipse 23" class="cls-15" cx="6.5" cy="6.5" r="6.5" transform="translate(12.1 53)"/>
    <circle id="Ellipse_24" data-name="Ellipse 24" class="cls-15" cx="6.5" cy="6.5" r="6.5" transform="translate(159.9 53)"/>
    <circle id="Ellipse_25" data-name="Ellipse 25" class="cls-15" cx="4.5" cy="4.5" r="4.5" transform="translate(155.5 83.9)"/>
    <circle id="Ellipse_26" data-name="Ellipse 26" class="cls-15" cx="4.5" cy="4.5" r="4.5" transform="translate(22.1 83.9)"/>
  </g>
</svg>
