<svg xmlns="http://www.w3.org/2000/svg" viewBox="3335 1488 143.698 143.698">
  <defs>
    <style>
      .cls-1 {
        fill: #2ec2ef;
        opacity: 0.753;
      }

      .cls-2 {
        fill: #fff;
      }
    </style>
  </defs>
  <g id="Group_11504" data-name="Group 11504" transform="translate(1939 859)">
    <path id="Path_13373" data-name="Path 13373" class="cls-1" d="M71.849,0A71.849,71.849,0,1,1,0,71.849,71.849,71.849,0,0,1,71.849,0Z" transform="translate(1396 629)"/>
    <g id="Group_10216" data-name="Group 10216" transform="translate(1433.676 660.515)">
      <g id="Group_10212" data-name="Group 10212" transform="translate(12.846)">
        <path id="Path_13421" data-name="Path 13421" class="cls-2" d="M1105.691,507.717h0a9.658,9.658,0,0,0,0-19.317h-.066a9.658,9.658,0,1,0,.066,19.317Zm0-17.339h0a7.681,7.681,0,0,1,.066,15.361h0a7.653,7.653,0,0,1-7.648-7.648A7.569,7.569,0,0,1,1105.691,490.378Z" transform="translate(-1096 -488.4)"/>
      </g>
      <g id="Group_10213" data-name="Group 10213" transform="translate(34.471)">
        <path id="Path_13422" data-name="Path 13422" class="cls-2" d="M1138.491,507.717h0a9.658,9.658,0,0,0,0-19.317h-.066a9.658,9.658,0,1,0,.066,19.317Zm-.066-17.339h0a7.681,7.681,0,0,1,.066,15.361h0a7.681,7.681,0,0,1-.066-15.361Z" transform="translate(-1128.8 -488.4)"/>
      </g>
      <g id="Group_10214" data-name="Group 10214" transform="translate(0 20.372)">
        <path id="Path_13423" data-name="Path 13423" class="cls-2" d="M1130.434,520.684a3.466,3.466,0,0,0-2.769-1.384H1089.3a3.475,3.475,0,0,0-3.033,1.846l-9.3,18.921a3.947,3.947,0,0,0-.2,3.23,4.382,4.382,0,0,0,2.176,2.439,4.185,4.185,0,0,0,5.538-1.912l4.945-9.757.989,8.9-2.9,25.646a5.559,5.559,0,0,0,1.253,4.021,5.118,5.118,0,0,0,8.9-2.769l1.516-9.823,1.516,9.757a5.046,5.046,0,0,0,2.044,3.494l-.2,1.516h6.791l.066-.461h1.912l.066.461h6.791l-.132-.989a4.188,4.188,0,0,0,1.978-3.1l.659-7.054.659,7.054a3.882,3.882,0,0,0,3.89,3.56h0a3.948,3.948,0,0,0,2.769-1.187,4.16,4.16,0,0,0,1.121-2.835L1128.522,552h6.395l-3.824-16.548,7.252,8.373.066.066a3.993,3.993,0,0,0,5.142.264,3.889,3.889,0,0,0,1.516-2.637,3.775,3.775,0,0,0-.791-2.9Zm-27.294,50.1a3.151,3.151,0,0,1-.4-1.187l-2.176-13.647,3.3-2.373.725,5.274Zm9.955,2.176-2.637-14.5-2.637,14.5h-2.9l1.714-14.042-1.253-8.768-7.252,5.208a.7.7,0,0,1-.923-.132.706.706,0,0,1,.066-.923l7.911-7.45a1.871,1.871,0,0,1,1.121-.461h8.307a1.446,1.446,0,0,1,1.121.461l7.911,7.45a.706.706,0,0,1,.066.923.719.719,0,0,1-.923.132l-7.252-5.208-1.253,8.768L1116,572.965Zm5.01-2.373a1.576,1.576,0,0,1-.33.923l-1.582-12.592.725-5.274,2.505,1.78Zm25.118-29.272a2.037,2.037,0,0,1-.725,1.319,1.982,1.982,0,0,1-2.505-.066L1127.6,528.266l5.01,21.822h-5.933l.659,20.306a2,2,0,0,1-.527,1.384,2.056,2.056,0,0,1-1.385.593h0a1.886,1.886,0,0,1-1.912-1.78l-1.253-13.383a2.662,2.662,0,0,0,3.1-.791,2.728,2.728,0,0,0-.264-3.626l-7.911-7.45a3.539,3.539,0,0,0-2.505-.989h-8.307a3.539,3.539,0,0,0-2.505.989l-4.219,4.022-.33-2.044-.4,2.769-2.9,2.769a2.728,2.728,0,0,0-.264,3.626,2.558,2.558,0,0,0,2.044.989l-1.846,12.263a3.149,3.149,0,0,1-3.165,2.769,3.191,3.191,0,0,1-2.373-1.055,3.314,3.314,0,0,1-.791-2.439l2.9-25.778V543.1l-1.78-15.691-7.977,15.625a2.19,2.19,0,0,1-2.9.989,2.733,2.733,0,0,1-1.187-1.253,2.205,2.205,0,0,1,.132-1.714l9.3-18.921a1.4,1.4,0,0,1,1.253-.791h38.37a1.41,1.41,0,0,1,1.187.593l13.976,17.932A2.165,2.165,0,0,1,1143.224,541.32Z" transform="translate(-1076.514 -519.3)"/>
      </g>
      <g id="Group_10215" data-name="Group 10215" transform="translate(27.812 32.964)">
        <path id="Path_13424" data-name="Path 13424" class="cls-2" d="M1124.765,538.4h0a6.032,6.032,0,1,0,0,12.065h0a6.27,6.27,0,0,0,4.285-1.78,6.032,6.032,0,0,0,1.78-4.285,6.149,6.149,0,0,0-1.78-4.285A5.974,5.974,0,0,0,1124.765,538.4Zm2.9,8.9a3.941,3.941,0,0,1-2.835,1.187h0a4.056,4.056,0,0,1-2.9-6.922,3.941,3.941,0,0,1,2.835-1.187h0a3.834,3.834,0,0,1,2.835,1.187,3.941,3.941,0,0,1,1.187,2.835A4.026,4.026,0,0,1,1127.666,547.3Z" transform="translate(-1118.7 -538.4)"/>
      </g>
    </g>
  </g>
</svg>
