<svg xmlns="http://www.w3.org/2000/svg" viewBox="3335 1026 143.698 143.698">
  <defs>
    <style>
      .cls-1 {
        fill: #2ec2ef;
        opacity: 0.753;
      }

      .cls-2 {
        fill: #fff;
      }
    </style>
  </defs>
  <g id="Group_11496" data-name="Group 11496" transform="translate(1939 859)">
    <path id="Path_13373" data-name="Path 13373" class="cls-1" d="M71.849,0A71.849,71.849,0,1,1,0,71.849,71.849,71.849,0,0,1,71.849,0Z" transform="translate(1396 167)"/>
    <g id="Group_10163" data-name="Group 10163" transform="translate(1430.864 189.949)">
      <g id="Group_10157" data-name="Group 10157" transform="translate(0 53.845)">
        <g id="Group_10156" data-name="Group 10156">
          <path id="Path_13379" data-name="Path 13379" class="cls-2" d="M43.583,602.438H32.694a2.12,2.12,0,0,1-2.094-2.094v-45.05a2.12,2.12,0,0,1,2.094-2.094H43.523a2.12,2.12,0,0,1,2.094,2.094v45.05A2,2,0,0,1,43.583,602.438Zm-10.589-2.393h10.23V555.593H32.993Z" transform="translate(-30.6 -553.2)"/>
        </g>
      </g>
      <g id="Group_10159" data-name="Group 10159" transform="translate(28.538 44.571)">
        <g id="Group_10158" data-name="Group 10158">
          <path id="Path_13380" data-name="Path 13380" class="cls-2" d="M91.283,596.211H80.394a2.12,2.12,0,0,1-2.094-2.094V539.794a2.12,2.12,0,0,1,2.094-2.094H91.283a2.12,2.12,0,0,1,2.094,2.094v54.323A2.081,2.081,0,0,1,91.283,596.211Zm-10.589-2.393h10.23V540.093H80.693Z" transform="translate(-78.3 -537.7)"/>
        </g>
      </g>
      <g id="Group_10161" data-name="Group 10161" transform="translate(57.135 32.008)">
        <g id="Group_10160" data-name="Group 10160">
          <path id="Path_13381" data-name="Path 13381" class="cls-2" d="M139.023,587.775H128.194a2.12,2.12,0,0,1-2.094-2.094V518.794a2.12,2.12,0,0,1,2.094-2.094h10.829a2.12,2.12,0,0,1,2.094,2.094v66.887A2.081,2.081,0,0,1,139.023,587.775Zm-10.589-2.393h10.23V519.093h-10.23Z" transform="translate(-126.1 -516.7)"/>
        </g>
      </g>
      <g id="Group_10162" data-name="Group 10162" transform="translate(0.598)">
        <path id="Path_13382" data-name="Path 13382" class="cls-2" d="M106.683,463.2h-22.2a3.575,3.575,0,0,0-2.513,6.1l8.675,8.675c-7.9,6.88-32.307,25.427-56.836,16.632L31.6,500.831a46.425,46.425,0,0,0,15.675,2.692c9.752,0,20.042-2.872,30.452-8.5A98.541,98.541,0,0,0,95.316,482.7l8.854,8.854a3.694,3.694,0,0,0,2.513,1.077,2.727,2.727,0,0,0,1.376-.3,3.59,3.59,0,0,0,2.214-3.29v-22.2A3.576,3.576,0,0,0,106.683,463.2Zm0,25.786-8.795-8.795h0l-2.333-2.333L84.487,466.79h22.2Z" transform="translate(-31.6 -463.2)"/>
      </g>
    </g>
  </g>
</svg>
