<svg xmlns="http://www.w3.org/2000/svg" viewBox="14 34 171.1 132.4">
  <defs>
    <style>
      .cls-1 {
        fill: #2b2b38;
      }

      .cls-2 {
        fill: #4b4b70;
      }

      .cls-3 {
        fill: #d0d2d3;
      }

      .cls-4 {
        fill: #221f1f;
      }
    </style>
  </defs>
  <g id="Group_38" data-name="Group 38" transform="translate(14 34)">
    <path id="Path_79" data-name="Path 79" class="cls-1" d="M122,0H48.6c-5,0-9.1,5-9.1,8.5V45.2c0,3.5,4.1,6.3,9.1,6.3H122c5,0,9.1-2.8,9.1-6.3V8.5C131,5,127,0,122,0Zm-.2,39c0,3.5-4.1,6.3-9.1,6.3h-55c-5,0-9.1-2.8-9.1-6.3V14.7c0-3.5,4.1-6.3,9.1-6.3h55c5,0,9.1,2.8,9.1,6.3Z"/>
    <g id="Group_37" data-name="Group 37">
      <rect id="Rectangle_71" data-name="Rectangle 71" class="cls-1" width="164.7" height="103.4" transform="translate(3.2 29)"/>
      <path id="Path_80" data-name="Path 80" class="cls-2" d="M0,28V65.6L85.6,74l85.5-7.7V28Z"/>
      <rect id="Rectangle_72" data-name="Rectangle 72" class="cls-3" width="17.4" height="18.9" transform="translate(79 64.5)"/>
      <g id="Group_36" data-name="Group 36">
        <circle id="Ellipse_7" data-name="Ellipse 7" class="cls-4" cx="3.3" cy="3.3" r="3.3" transform="translate(84.5 68.5)"/>
        <rect id="Rectangle_73" data-name="Rectangle 73" class="cls-4" width="3.3" height="6.5" transform="translate(86.2 72.2)"/>
      </g>
    </g>
  </g>
</svg>
