<svg xmlns="http://www.w3.org/2000/svg" viewBox="6688.966 356 228.415 211.1">
  <defs>
    <style>
      .cls-1 {
        fill: #176936;
      }

      .cls-2 {
        fill: #144733;
        opacity: 0.42;
      }

      .cls-3, .cls-5 {
        fill: #86c404;
      }

      .cls-3 {
        opacity: 0.51;
      }

      .cls-4 {
        fill: #5d8611;
      }

      .cls-5 {
        opacity: 0.73;
      }

      .cls-6 {
        fill: #006241;
      }

      .cls-7 {
        fill: #6ca439;
      }

      .cls-8, .cls-9 {
        fill: #c4e86b;
      }

      .cls-8 {
        opacity: 0.33;
      }

      .cls-10 {
        fill: #103e86;
      }

      .cls-11, .cls-16 {
        fill: #08262c;
      }

      .cls-11, .cls-12 {
        opacity: 0.6;
      }

      .cls-12, .cls-13 {
        fill: #2da5e9;
      }

      .cls-13 {
        opacity: 0.67;
      }

      .cls-14 {
        fill: #001970;
      }

      .cls-14, .cls-15 {
        opacity: 0.54;
      }

      .cls-15 {
        fill: #041e41;
      }

      .cls-17 {
        fill: #a31923;
      }

      .cls-18 {
        fill: #5a2d2c;
      }

      .cls-19 {
        fill: #ef6a57;
      }

      .cls-20 {
        fill: #5c0f06;
        opacity: 0.45;
      }

      .cls-21 {
        fill: #c33031;
      }
    </style>
  </defs>
  <g id="Group_10297" data-name="Group 10297" transform="translate(1746.966 1083.257)">
    <g id="Group_419" data-name="Group 419" transform="translate(4942 -583.603)">
      <path id="Path_11594" data-name="Path 11594" class="cls-1" d="M219.119,443.364H17.624A6.023,6.023,0,0,1,11.6,437.34V407.724a6.023,6.023,0,0,1,6.024-6.024h201.5a6.023,6.023,0,0,1,6.024,6.024V437.34A6.023,6.023,0,0,1,219.119,443.364Z" transform="translate(-6.713 -376.129)"/>
      <rect id="Rectangle_64" data-name="Rectangle 64" class="cls-2" width="213.586" height="46.382" transform="translate(4.845)"/>
      <path id="Path_11595" data-name="Path 11595" class="cls-3" d="M12,481.9v1.854a6.066,6.066,0,0,0,5.856,6.235h1.9A10.326,10.326,0,0,0,12,481.9Z" transform="translate(-6.945 -422.543)"/>
      <path id="Path_11596" data-name="Path 11596" class="cls-3" d="M501.7,490.178h1.053a6.36,6.36,0,0,0,6.235-6.235V482.3A10.487,10.487,0,0,0,501.7,490.178Z" transform="translate(-290.347 -422.774)"/>
      <path id="Path_11597" data-name="Path 11597" class="cls-4" d="M225.5,382.706H3.66a3.183,3.183,0,0,1-3.16-3.16V344.16A3.183,3.183,0,0,1,3.66,341H225.544a3.183,3.183,0,0,1,3.16,3.16v35.387A3.192,3.192,0,0,1,225.5,382.706Z" transform="translate(-0.289 -341)"/>
      <path id="Path_11598" data-name="Path 11598" class="cls-5" d="M8.046,341H3.37A3.371,3.371,0,0,0,0,344.16v4.592A14.025,14.025,0,0,0,8.046,341Z" transform="translate(0 -341)"/>
      <path id="Path_11599" data-name="Path 11599" class="cls-5" d="M527.25,341H521.9a14.093,14.093,0,0,0,8.468,10.026V344.2A3.13,3.13,0,0,0,527.25,341Z" transform="translate(-302.037 -341)"/>
      <path id="Path_11600" data-name="Path 11600" class="cls-5" d="M0,420.2v5.182a3.342,3.342,0,0,0,3.37,3.16H8.636A14.021,14.021,0,0,0,0,420.2Z" transform="translate(0 -386.835)"/>
      <path id="Path_11601" data-name="Path 11601" class="cls-5" d="M520.1,428.02h6.151a3.147,3.147,0,0,0,3.117-3.16V419.3A14.073,14.073,0,0,0,520.1,428.02Z" transform="translate(-300.996 -386.314)"/>
      <g id="Group_414" data-name="Group 414" transform="translate(82.991 11.796)">
        <path id="Path_11602" data-name="Path 11602" class="cls-6" d="M250.712,390.064H206.563L197,380.8V369.843h5.9v8.426l6.024,5.9h39.263l5.687-5.814V369h5.9v11.711Z" transform="translate(-197 -369)"/>
      </g>
      <path id="Path_11603" data-name="Path 11603" class="cls-7" d="M252.258,401l-1.643,1.685H211.353L209.625,401H201.2l7.794,7.583h44.149L260.515,401Z" transform="translate(-116.44 -375.724)"/>
      <g id="Group_416" data-name="Group 416" transform="translate(44.613)">
        <path id="Path_11604" data-name="Path 11604" class="cls-7" d="M111.8,403.159h-1.643A4.243,4.243,0,0,1,105.9,398.9V341.4h10.111v57.5A4.181,4.181,0,0,1,111.8,403.159Z" transform="translate(-105.9 -341.231)"/>
        <path id="Path_11605" data-name="Path 11605" class="cls-8" d="M121,341v61.885a4.213,4.213,0,0,0,3.791-4.213V341Z" transform="translate(-114.639 -341)"/>
        <g id="Group_415" data-name="Group 415" transform="translate(3.707 16.851)">
          <circle id="Ellipse_163" data-name="Ellipse 163" class="cls-9" cx="1.39" cy="1.39" r="1.39"/>
          <circle id="Ellipse_164" data-name="Ellipse 164" class="cls-9" cx="1.39" cy="1.39" r="1.39" transform="translate(0 10.532)"/>
          <circle id="Ellipse_165" data-name="Ellipse 165" class="cls-9" cx="1.39" cy="1.39" r="1.39" transform="translate(0 21.022)"/>
          <circle id="Ellipse_166" data-name="Ellipse 166" class="cls-9" cx="1.39" cy="1.39" r="1.39" transform="translate(0 31.553)"/>
        </g>
      </g>
      <g id="Group_418" data-name="Group 418" transform="translate(173.944)">
        <path id="Path_11606" data-name="Path 11606" class="cls-7" d="M418.8,403.159h-1.643A4.243,4.243,0,0,1,412.9,398.9V341.4h10.111v57.5A4.181,4.181,0,0,1,418.8,403.159Z" transform="translate(-412.9 -341.231)"/>
        <path id="Path_11607" data-name="Path 11607" class="cls-8" d="M428,341v61.885a4.213,4.213,0,0,0,3.791-4.213V341Z" transform="translate(-421.639 -341)"/>
        <g id="Group_417" data-name="Group 417" transform="translate(3.707 16.851)">
          <circle id="Ellipse_167" data-name="Ellipse 167" class="cls-9" cx="1.39" cy="1.39" r="1.39"/>
          <circle id="Ellipse_168" data-name="Ellipse 168" class="cls-9" cx="1.39" cy="1.39" r="1.39" transform="translate(0 10.532)"/>
          <circle id="Ellipse_169" data-name="Ellipse 169" class="cls-9" cx="1.39" cy="1.39" r="1.39" transform="translate(0 21.022)"/>
          <circle id="Ellipse_170" data-name="Ellipse 170" class="cls-9" cx="1.39" cy="1.39" r="1.39" transform="translate(0 31.553)"/>
        </g>
      </g>
    </g>
    <g id="Group_426" data-name="Group 426" transform="translate(4960.805 -659.601)">
      <path id="Path_11608" data-name="Path 11608" class="cls-10" d="M251.282,236.345H70.555A5.07,5.07,0,0,1,65.5,231.29V165.655a5.07,5.07,0,0,1,5.055-5.055H251.282a5.07,5.07,0,0,1,5.055,5.055v65.592A5.079,5.079,0,0,1,251.282,236.345Z" transform="translate(-65.5 -160.6)"/>
      <path id="Path_11609" data-name="Path 11609" class="cls-11" d="M251.571,250H70.845c-2.78,0-4.845.379-4.845.674v3.539H256.837v-3.539C256.837,250.379,254.351,250,251.571,250Z" transform="translate(-65.789 -212.338)"/>
      <path id="Path_11610" data-name="Path 11610" class="cls-12" d="M251.571,161H70.845A4.751,4.751,0,0,0,66,165.887v33.028H256.837V165.887A5.114,5.114,0,0,0,251.571,161Z" transform="translate(-65.789 -160.831)"/>
      <path id="Path_11611" data-name="Path 11611" class="cls-13" d="M67.854,317.3a5.79,5.79,0,0,0-1.854.253v4.381a4.751,4.751,0,0,0,4.845,4.887h4.213a5.468,5.468,0,0,0,.337-2.022A7.445,7.445,0,0,0,67.854,317.3Z" transform="translate(-65.789 -251.286)"/>
      <path id="Path_11612" data-name="Path 11612" class="cls-13" d="M503.667,317.3A7.588,7.588,0,0,0,496,324.841a5.631,5.631,0,0,0,.253,2.022h4.171a5.114,5.114,0,0,0,5.266-4.887v-4.423A9.77,9.77,0,0,0,503.667,317.3Z" transform="translate(-314.642 -251.286)"/>
      <g id="Group_423" data-name="Group 423" transform="translate(59.61 29.19)">
        <g id="Group_420" data-name="Group 420" transform="translate(0 3.837)">
          <circle id="Ellipse_171" data-name="Ellipse 171" class="cls-14" cx="3.96" cy="3.96" r="3.96"/>
          <circle id="Ellipse_172" data-name="Ellipse 172" class="cls-15" cx="2.823" cy="2.823" r="2.823" transform="translate(1.137 1.137)"/>
        </g>
        <g id="Group_421" data-name="Group 421" transform="translate(62.391 3.837)">
          <circle id="Ellipse_173" data-name="Ellipse 173" class="cls-14" cx="3.96" cy="3.96" r="3.96"/>
          <circle id="Ellipse_174" data-name="Ellipse 174" class="cls-15" cx="2.823" cy="2.823" r="2.823" transform="translate(1.137 1.137)"/>
        </g>
        <g id="Group_422" data-name="Group 422" transform="translate(3.049)">
          <path id="Path_11613" data-name="Path 11613" class="cls-16" d="M216.539,239.837a2.306,2.306,0,0,1-2.148-1.517,2.338,2.338,0,0,1,1.348-2.991c1.306-.506,32.354-12.006,60.411.042a2.312,2.312,0,0,1-1.811,4.255c-26.372-11.29-56.661-.084-56.956.042A2.142,2.142,0,0,1,216.539,239.837Z" transform="translate(-214.238 -229.891)"/>
        </g>
        <path id="Path_11614" data-name="Path 11614" class="cls-10" d="M277.317,242.246a2.18,2.18,0,0,0-.084-1.98c-26.414-7.162-52.449-2.486-62.812,0a2.282,2.282,0,0,0-.126,1.9,2.306,2.306,0,0,0,2.149,1.517,1.825,1.825,0,0,0,.8-.169c.295-.126,30.627-11.332,56.956-.042A2.385,2.385,0,0,0,277.317,242.246Z" transform="translate(-211.135 -233.69)"/>
      </g>
      <g id="Group_424" data-name="Group 424" transform="translate(161.601 34.502)">
        <path id="Path_11615" data-name="Path 11615" class="cls-16" d="M453.945,253.032h-3.117A1.708,1.708,0,0,1,449.1,251.3v-7.077a1.708,1.708,0,0,1,1.727-1.727h3.117a1.708,1.708,0,0,1,1.727,1.727V251.3A1.735,1.735,0,0,1,453.945,253.032Z" transform="translate(-449.1 -242.5)"/>
        <path id="Path_11616" data-name="Path 11616" class="cls-12" d="M455.511,254.2h-.927a.89.89,0,0,1-.885-.885v-2.528a.89.89,0,0,1,.885-.885h.927a.89.89,0,0,1,.885.885v2.528A.918.918,0,0,1,455.511,254.2Z" transform="translate(-451.762 -246.783)"/>
      </g>
      <g id="Group_425" data-name="Group 425" transform="translate(21.022 34.502)">
        <path id="Path_11617" data-name="Path 11617" class="cls-16" d="M120.245,253.032h-3.117A1.708,1.708,0,0,1,115.4,251.3v-7.077a1.708,1.708,0,0,1,1.727-1.727h3.117a1.708,1.708,0,0,1,1.727,1.727V251.3A1.735,1.735,0,0,1,120.245,253.032Z" transform="translate(-115.4 -242.5)"/>
        <path id="Path_11618" data-name="Path 11618" class="cls-12" d="M121.811,254.2h-.927a.89.89,0,0,1-.885-.885v-2.528a.89.89,0,0,1,.885-.885h.927a.89.89,0,0,1,.885.885v2.528A.89.89,0,0,1,121.811,254.2Z" transform="translate(-118.062 -246.783)"/>
      </g>
    </g>
    <g id="Group_428" data-name="Group 428" transform="translate(4942 -727.257)">
      <path id="Path_11619" data-name="Path 11619" class="cls-17" d="M264.119,102.306H62.624A6.023,6.023,0,0,1,56.6,96.282V66.624A6.023,6.023,0,0,1,62.624,60.6h201.5a6.023,6.023,0,0,1,6.024,6.024V96.24A6.032,6.032,0,0,1,264.119,102.306Z" transform="translate(-51.713 -35.071)"/>
      <rect id="Rectangle_65" data-name="Rectangle 65" class="cls-2" width="213.586" height="46.382" transform="translate(4.845)"/>
      <path id="Path_11620" data-name="Path 11620" class="cls-18" d="M57,140.9v1.854a6.066,6.066,0,0,0,5.856,6.235h1.9A10.326,10.326,0,0,0,57,140.9Z" transform="translate(-51.945 -81.543)"/>
      <path id="Path_11621" data-name="Path 11621" class="cls-18" d="M546.7,149.178h1.053a6.36,6.36,0,0,0,6.235-6.235V141.3A10.487,10.487,0,0,0,546.7,149.178Z" transform="translate(-335.347 -81.774)"/>
      <path id="Path_11622" data-name="Path 11622" class="cls-19" d="M270.5,41.706H48.66a3.183,3.183,0,0,1-3.16-3.16V3.16A3.155,3.155,0,0,1,48.66,0H270.544a3.183,3.183,0,0,1,3.16,3.16V38.547A3.192,3.192,0,0,1,270.5,41.706Z" transform="translate(-45.289)"/>
      <path id="Path_11623" data-name="Path 11623" class="cls-20" d="M53.046,0H48.37A3.371,3.371,0,0,0,45,3.16V7.751A14.025,14.025,0,0,0,53.046,0Z" transform="translate(-45)"/>
      <path id="Path_11624" data-name="Path 11624" class="cls-20" d="M572.25,0H566.9a14.094,14.094,0,0,0,8.468,10.026V3.16A3.12,3.12,0,0,0,572.25,0Z" transform="translate(-347.037)"/>
      <path id="Path_11625" data-name="Path 11625" class="cls-20" d="M45,79.2v5.182a3.342,3.342,0,0,0,3.37,3.16h5.266A14.021,14.021,0,0,0,45,79.2Z" transform="translate(-45 -45.835)"/>
      <path id="Path_11626" data-name="Path 11626" class="cls-20" d="M565.1,86.962h6.151a3.147,3.147,0,0,0,3.117-3.16V78.2A14.23,14.23,0,0,0,565.1,86.962Z" transform="translate(-345.996 -45.256)"/>
      <g id="Group_427" data-name="Group 427" transform="translate(82.991 11.796)">
        <path id="Path_11627" data-name="Path 11627" class="cls-18" d="M295.712,49.064h-44.15L242,39.8V28.843h5.9v8.425l6.024,5.9h39.263l5.687-5.814V28h5.9V39.711Z" transform="translate(-242 -28)"/>
      </g>
      <path id="Path_11628" data-name="Path 11628" class="cls-21" d="M297.258,60l-1.643,1.685H256.353L254.625,60H246.2l7.794,7.583h44.149L305.515,60Z" transform="translate(-161.44 -34.724)"/>
      <rect id="Rectangle_66" data-name="Rectangle 66" class="cls-18" width="10.869" height="31.385" transform="translate(24.223 22.959)"/>
      <rect id="Rectangle_67" data-name="Rectangle 67" class="cls-21" width="10.869" height="7.246" transform="translate(24.223 33.576)"/>
      <rect id="Rectangle_68" data-name="Rectangle 68" class="cls-18" width="10.869" height="31.385" transform="translate(194.039 22.959)"/>
      <rect id="Rectangle_69" data-name="Rectangle 69" class="cls-21" width="10.869" height="7.246" transform="translate(194.039 33.576)"/>
    </g>
  </g>
</svg>
