<svg xmlns="http://www.w3.org/2000/svg" viewBox="5376 3232 143.697 143.698">
  <defs>
    <style>
      .cls-1 {
        fill: #87c405;
        opacity: 0.753;
      }

      .cls-2 {
        fill: #fff;
      }
    </style>
  </defs>
  <g id="Group_11507" data-name="Group 11507" transform="translate(3980 2372)">
    <path id="Path_13373" data-name="Path 13373" class="cls-1" d="M71.849,0A71.849,71.849,0,1,1,0,71.849,71.849,71.849,0,0,1,71.849,0Z" transform="translate(1396 860)"/>
    <g id="Group_10221" data-name="Group 10221" transform="translate(1435.698 893.515)">
      <g id="Group_10217" data-name="Group 10217" transform="translate(12.912)">
        <path id="Path_13425" data-name="Path 13425" class="cls-2" d="M1589.691,507.717h0a9.658,9.658,0,0,0,0-19.317h-.066a9.658,9.658,0,0,0,.066,19.317Zm-.066-17.339h0a7.681,7.681,0,1,1,.066,15.361h0a7.681,7.681,0,0,1-.066-15.361Z" transform="translate(-1580 -488.4)"/>
      </g>
      <g id="Group_10218" data-name="Group 10218" transform="translate(34.471)">
        <path id="Path_13426" data-name="Path 13426" class="cls-2" d="M1622.391,507.717h0a9.658,9.658,0,0,0,0-19.317h-.066a9.658,9.658,0,0,0,.066,19.317Zm0-17.339h0a7.681,7.681,0,1,1,.066,15.361h0a7.681,7.681,0,0,1-.066-15.361Z" transform="translate(-1612.7 -488.4)"/>
      </g>
      <g id="Group_10219" data-name="Group 10219" transform="translate(0 20.372)">
        <path id="Path_13427" data-name="Path 13427" class="cls-2" d="M1614.333,520.684a3.466,3.466,0,0,0-2.769-1.384h-38.37a3.475,3.475,0,0,0-3.033,1.846l-9.3,18.921a3.947,3.947,0,0,0-.2,3.23,4.382,4.382,0,0,0,2.176,2.439,4.185,4.185,0,0,0,5.538-1.912l4.945-9.757.989,8.9-2.9,25.646a5.558,5.558,0,0,0,1.253,4.021,5.059,5.059,0,0,0,3.824,1.714,5.2,5.2,0,0,0,5.142-4.549l1.516-12.526,1.516,12.526a5.2,5.2,0,0,0,5.142,4.549h0a5.189,5.189,0,0,0,3.824-1.714,5.035,5.035,0,0,0,1.253-4.021L1592.907,552h3.692l-.527,18.2a4.043,4.043,0,0,0,1.121,2.835,3.733,3.733,0,0,0,2.835,1.187h0a3.882,3.882,0,0,0,3.89-3.56l.659-7.054.659,7.054a3.882,3.882,0,0,0,3.89,3.56h0a3.947,3.947,0,0,0,2.769-1.187,4.159,4.159,0,0,0,1.121-2.835l-.593-18.262h6.395l-3.824-16.548,7.252,8.373.066.066a3.993,3.993,0,0,0,5.142.264,3.89,3.89,0,0,0,1.516-2.637,3.775,3.775,0,0,0-.791-2.9Zm12.79,20.635a2.037,2.037,0,0,1-.725,1.319,1.982,1.982,0,0,1-2.505-.066L1611.5,528.266l5.01,21.822h-5.934l.659,20.306a2,2,0,0,1-.527,1.384,2.055,2.055,0,0,1-1.384.593h0a1.886,1.886,0,0,1-1.912-1.78l-1.648-17.668h-1.978l-1.582,17.734a1.935,1.935,0,0,1-1.912,1.78h0a1.9,1.9,0,0,1-1.384-.593,1.619,1.619,0,0,1-.527-1.384l.593-20.24h-7.977l2.176,18.789a3.179,3.179,0,0,1-3.164,3.56h0a3.2,3.2,0,0,1-3.165-2.769l-3.56-28.744-3.428,28.744a3.149,3.149,0,0,1-3.164,2.769,3.191,3.191,0,0,1-2.373-1.055,3.314,3.314,0,0,1-.791-2.439l2.9-25.778v-.132l-1.78-15.691-7.977,15.625a2.19,2.19,0,0,1-2.9.989,2.732,2.732,0,0,1-1.187-1.253,2.2,2.2,0,0,1,.132-1.714l9.3-18.921a1.477,1.477,0,0,1,1.253-.791h38.37a1.41,1.41,0,0,1,1.187.593l13.977,17.932A1.9,1.9,0,0,1,1627.123,541.32Z" transform="translate(-1560.414 -519.3)"/>
      </g>
      <g id="Group_10220" data-name="Group 10220" transform="translate(23.187 26.832)">
        <path id="Path_13428" data-name="Path 13428" class="cls-2" d="M1611.286,529.1h0a6.423,6.423,0,0,0-4.681,2.044,6.536,6.536,0,0,0-4.681-2.044h0a6.331,6.331,0,0,0-6.329,6.329c-.066.725-.132,7.384,10.615,13.449l.461.264.461-.264c10.68-6.131,10.549-12.79,10.483-13.515A6.317,6.317,0,0,0,1611.286,529.1Zm3.428,10.087c-.989,1.978-3.165,4.879-8.043,7.779-9.362-5.538-9.1-11.274-9.1-11.339v-.066a4.4,4.4,0,0,1,4.351-4.417h0a4.406,4.406,0,0,1,3.824,2.242l.857,1.516.857-1.516a4.406,4.406,0,0,1,3.824-2.242h0a4.447,4.447,0,0,1,4.417,4.351v.066A8.337,8.337,0,0,1,1614.714,539.187Z" transform="translate(-1595.584 -529.1)"/>
      </g>
    </g>
  </g>
</svg>
