<svg xmlns="http://www.w3.org/2000/svg" xmlns:xlink="http://www.w3.org/1999/xlink" viewBox="15 43 170.189 113.089">
  <defs>
    <style>
      .cls-1 {
        fill: #d4e7e2;
      }

      .cls-2 {
        fill: #f4f6f6;
      }

      .cls-3 {
        fill: #34414f;
      }

      .cls-4 {
        fill: #c38a5b;
      }

      .cls-5 {
        fill: #9a6c48;
      }

      .cls-6 {
        fill: #2c3a49;
      }

      .cls-7 {
        fill: #dcaa00;
      }

      .cls-8 {
        fill: url(#radial-gradient);
      }
    </style>
    <radialGradient id="radial-gradient" cx="10.072" cy="10.08" r="10.052" gradientUnits="userSpaceOnUse">
      <stop offset="0" stop-color="#f5f0a1"/>
      <stop offset="1" stop-color="#ffd13f"/>
    </radialGradient>
  </defs>
  <g id="Group_54" data-name="Group 54" transform="translate(15 42.989)">
    <g id="Group_40" data-name="Group 40">
      <rect id="Rectangle_74" data-name="Rectangle 74" class="cls-1" width="145.3" height="93.3" transform="translate(5.9 13.9)"/>
      <g id="Group_39" data-name="Group 39">
        <rect id="Rectangle_75" data-name="Rectangle 75" class="cls-2" width="137.9" height="84.7" transform="translate(9.6 18.2)"/>
      </g>
    </g>
    <g id="Group_47" data-name="Group 47">
      <g id="Group_42" data-name="Group 42">
        <g id="Group_41" data-name="Group 41">
          <rect id="Rectangle_76" data-name="Rectangle 76" class="cls-3" width="90.3" height="4.6" transform="translate(32.7 59.1)"/>
        </g>
      </g>
      <g id="Group_44" data-name="Group 44">
        <g id="Group_43" data-name="Group 43">
          <rect id="Rectangle_77" data-name="Rectangle 77" class="cls-3" width="90.3" height="4.6" transform="translate(32.7 68.3)"/>
        </g>
      </g>
      <g id="Group_46" data-name="Group 46">
        <g id="Group_45" data-name="Group 45">
          <rect id="Rectangle_78" data-name="Rectangle 78" class="cls-3" width="90.3" height="4.6" transform="translate(32.7 49.9)"/>
        </g>
      </g>
    </g>
    <g id="Group_48" data-name="Group 48">
      <path id="Path_81" data-name="Path 81" class="cls-4" d="M151.2,13.9v93.3H5.9V13.9H151.2M157,8H0V113.1H157.1V8Z"/>
      <path id="Path_82" data-name="Path 82" class="cls-5" d="M151.2,13.9v93.3H5.9V13.9H151.2m2.7-2.8H3.1v98.7H153.8V11.1Z"/>
    </g>
    <g id="Group_51" data-name="Group 51">
      <g id="Group_49" data-name="Group 49">
        <path id="Path_83" data-name="Path 83" class="cls-3" d="M146,24.8l-3.6,33.1,10.1-6.3V24.8Z"/>
      </g>
      <g id="Group_50" data-name="Group 50">
        <path id="Path_84" data-name="Path 84" class="cls-6" d="M159,24.8h-6.5V51.6l10,6.3Z"/>
      </g>
    </g>
    <g id="Group_52" data-name="Group 52">
      <path id="Path_85" data-name="Path 85" class="cls-7" d="M149.9.6a4.353,4.353,0,0,0,5.1,0,2.368,2.368,0,0,1,3.8,1,4.616,4.616,0,0,0,4.4,2.6A2.378,2.378,0,0,1,166,7a4.378,4.378,0,0,0,2.6,4.4,2.368,2.368,0,0,1,1,3.8,4.353,4.353,0,0,0,0,5.1,2.368,2.368,0,0,1-1,3.8,4.616,4.616,0,0,0-2.6,4.4,2.378,2.378,0,0,1-2.8,2.8,4.378,4.378,0,0,0-4.4,2.6,2.368,2.368,0,0,1-3.8,1,4.353,4.353,0,0,0-5.1,0,2.368,2.368,0,0,1-3.8-1,4.616,4.616,0,0,0-4.4-2.6,2.378,2.378,0,0,1-2.8-2.8,4.378,4.378,0,0,0-2.6-4.4,2.368,2.368,0,0,1-1-3.8,4.353,4.353,0,0,0,0-5.1,2.368,2.368,0,0,1,1-3.8A4.616,4.616,0,0,0,138.9,7a2.378,2.378,0,0,1,2.8-2.8,4.378,4.378,0,0,0,4.4-2.6A2.368,2.368,0,0,1,149.9.6Z"/>
    </g>
    <g id="Group_53" data-name="Group 53">
      <circle id="Ellipse_8" data-name="Ellipse 8" class="cls-8" cx="10.1" cy="10.1" r="10.1" transform="translate(142.4 7.6)"/>
    </g>
  </g>
</svg>
