<svg xmlns="http://www.w3.org/2000/svg" viewBox="679.475 4016.115 65.416 72.788">
  <defs>
    <style>
      .cls-1 {
        fill: #ff6768;
        fill-rule: evenodd;
      }
    </style>
  </defs>
  <path id="Path_14596" data-name="Path 14596" class="cls-1" d="M192.311,20.809c5.962-1.578,8.768-4.384,9.294-9.82-6.313,3.332-9.294,3.507-15.432-.175-5.436-3.332-15.081-3.157-12.1,3.507.7,1.929,2.981,4.209,5.787,5.962a44.274,44.274,0,0,0-27.006,43.665c1.929,22.446,60.325,23.849,64.884,1.228,3.156-17.887-12.8-39.983-25.428-44.367ZM186.875,60.09h0V63.6H184.6V60.09a14.056,14.056,0,0,1-5.787-1.4l.877-2.28a11.773,11.773,0,0,0,5.436,1.4c2.806,0,4.559-1.228,4.559-3.332,0-1.754-1.4-2.981-4.209-4.033-3.858-1.4-6.313-2.806-6.313-5.787,0-2.806,2.1-4.91,5.787-5.436V35.714H187.4v3.332a13.151,13.151,0,0,1,4.91,1.228l-.877,2.1a9.17,9.17,0,0,0-4.91-1.052c-2.981,0-4.033,1.4-4.033,2.806,0,1.754,1.4,2.806,4.559,3.858,4.033,1.4,5.962,3.157,5.962,6.138-.175,2.981-2.28,5.436-6.138,5.962Z" transform="translate(526.748 4007.427)"/>
</svg>
