<svg xmlns="http://www.w3.org/2000/svg" viewBox="411.815 4002.282 82.264 106.445">
  <defs>
    <style>
      .cls-1, .cls-2 {
        fill: #ff6768;
      }

      .cls-1, .cls-2, .cls-3 {
        fill-rule: evenodd;
      }

      .cls-2 {
        stroke: #fff;
        stroke-miterlimit: 10;
        stroke-width: 0.25px;
      }

      .cls-3 {
        fill: #fff;
      }
    </style>
  </defs>
  <g id="Group_12150" data-name="Group 12150" transform="translate(412 4002.282)">
    <path id="Path_14597" data-name="Path 14597" class="cls-1" d="M19.3.8h2.981V9.042L24.386.8h9.47V107.245H19.3Z" transform="translate(14.194 -0.8)"/>
    <path id="Path_14598" data-name="Path 14598" class="cls-2" d="M4.7,9H66.427l1.929,1.754-7.365,1.052,8.417-.175c1.4,1.228,2.63,2.455,4.033,3.683l-3.507.877,4.559.175C76.423,18.119,78,19.522,78.7,20.223,77.651,21.1,75.2,23.38,72.39,26.01H61.517l9.294,1.4c-1.4,1.4-2.981,2.806-4.384,4.033H4.7V23.555l8.067-.877-8.067-.7V12.858L15.572,11.63S8.733,11.28,4.7,11.1Z" transform="translate(3.191 5.38)"/>
    <path id="Path_14599" data-name="Path 14599" class="cls-3" d="M24.68,18.259a2.28,2.28,0,1,0-2.28-2.28,2.321,2.321,0,0,0,2.28,2.28Z" transform="translate(16.53 8.922)"/>
    <path id="Path_14600" data-name="Path 14600" class="cls-2" d="M74.027,47.246H12.475l-1.929-1.754,7.365-1.052-8.417.175c-1.4-1.228-2.63-2.63-4.033-3.683l3.507-.877-4.559-.175C2.48,38.128.9,36.725.2,36.023c1.052-.877,3.507-3.157,6.313-5.787H17.385l-9.294-1.4c1.4-1.4,2.981-2.806,4.384-4.033H74.2v7.891l-8.067.877,8.067.7v9.119L63.33,44.616s6.839.351,10.872.526v2.1Z" transform="translate(-0.2 17.287)"/>
    <path id="Path_14601" data-name="Path 14601" class="cls-3" d="M24.38,30.3a2.28,2.28,0,1,0,2.28,2.28,2.321,2.321,0,0,0-2.28-2.28Z" transform="translate(16.304 21.432)"/>
  </g>
</svg>
