<svg xmlns="http://www.w3.org/2000/svg" viewBox="2673.589 578.665 134.67 134.67">
  <defs>
    <style>
      .cls-1 {
        fill: #ff6768;
      }

      .cls-2 {
        fill: #fff;
      }
    </style>
  </defs>
  <g id="Group_11231" data-name="Group 11231" transform="translate(1887 -154)">
    <circle id="Ellipse_1542" data-name="Ellipse 1542" class="cls-1" cx="67.335" cy="67.335" r="67.335" transform="translate(786.589 732.665)"/>
    <path id="Path_13595" data-name="Path 13595" class="cls-2" d="M115.671,501.059l-13.8-35.579a2.011,2.011,0,0,0,1.164-2.161c-.5-2-1.829-1.33-3.824-1.5a14.986,14.986,0,0,1-3.658-.831c-6.152-3.491-10.142-9.976-23.609-12.3A9.136,9.136,0,0,0,63.8,443.7a8.95,8.95,0,0,0-8.147,4.988c-13.467,2.328-17.623,8.646-23.609,12.3a14.986,14.986,0,0,1-3.658.831c-1.829.166-3.325-.5-3.824,1.5a1.905,1.905,0,0,0,1.164,2.161l-13.8,35.579H8.6a19.693,19.693,0,0,0,38.9,0H44.346l-13.3-34.748a8.1,8.1,0,0,0,2-.166c9.809-2.494,10.474-7.482,23.11-8.147a9.445,9.445,0,0,0,7.482,3.99A8.794,8.794,0,0,0,71.113,458c12.636.665,13.3,5.487,23.11,8.147a8.1,8.1,0,0,1,2,.166l-13.3,34.748H79.759a19.693,19.693,0,0,0,38.9,0Zm-75.482,0H15.915l12.3-31.589Zm47.051,0L99.378,469.47l12.3,31.589Z" transform="translate(790.126 319.224)"/>
  </g>
</svg>
