<svg xmlns="http://www.w3.org/2000/svg" viewBox="2010.257 769.198 134.67 134.67">
  <defs>
    <style>
      .cls-1 {
        fill: #00c5f4;
      }

      .cls-2 {
        fill: #f1f2f2;
        fill-rule: evenodd;
      }
    </style>
  </defs>
  <g id="Group_11211" data-name="Group 11211" transform="translate(2010.257 769.198)">
    <circle id="Ellipse_1543" data-name="Ellipse 1543" class="cls-1" cx="67.335" cy="67.335" r="67.335"/>
    <path id="Path_13596" data-name="Path 13596" class="cls-2" d="M22.1,554.2H86.775v87.785H22.1Zm38.073,58.024-5.32-5.32-5.985,11.139-.333.333L37.23,623.863l-6.318,6.152-.831-.831,6.318-6.318.166-.166,11.139-5.32,6.318-11.638.333-.665.831.333,5.154,5.154,5.653-11.306.333-.166h5.487l5.487-11.8,1.164.5-5.653,12.137-.166.333H66.824l-5.653,11.306Zm-3.159,25.438h23.11v-2.993H57.014Zm-28.1-32.587H34.9V599.09H28.917Zm51.707-5.985v6.318h0v26.768H28.252v-27.1h0v-26.1H81.621V599.09h-1Zm-.5,5.985V599.09H74.472l-.333.665v5.32h5.985Zm-5.487-6.484h5.487v-5.985h-2.66Zm2.993-6.484h2.494v-5.985h-2.66l2.494,1.164Zm-1-5.985H74.139v5.487Zm-2.494-.5h5.985v-5.985H74.139Zm-.5,19.452v-4.323l-.333.5H67.489v3.658H73.64Zm0-12.3h0l-5.985-.166v5.32h3.491Zm-5.985-.665H73.64v-5.985H67.655Zm0-6.484H73.64v-5.985H67.655Zm-.5,19.452v-2.993l-1.5,2.993Zm-2.328-5.985H61.171v5.985h.665Zm-3.658-.5h3.824l.166-.333.831-.333h1v-5.32H61v5.985Zm0-6.484h5.985v-5.985H61.171Zm0-6.484h5.985v-5.985H61.171ZM54.188,603.08v-3.99H48.2v5.985h4.822Zm6.484,2V599.09H54.687v4.323l1.164,1.164.5.5Zm-6.484-6.484v-5.985H48.2v5.985Zm.5,0h5.985v-5.985H54.687Zm-.5-6.484v-5.985H48.2v5.985Zm.5,0h5.985v-5.985H54.687Zm-.5-6.484v-5.985H48.2v5.985Zm.5,0h5.985v-5.985H54.687ZM34.9,598.591v-5.985H28.917v5.985Zm0-6.484v-5.985H28.917v5.985Zm0-6.484v-5.985H28.917v5.985Zm.5,19.452h5.985V599.09H35.4Zm5.819-6.484v-5.985H35.234v5.985Zm0-6.484v-5.985H35.234v5.985Zm0-6.484v-5.985H35.234v5.985Zm.665,19.452H47.87V599.09H41.885Zm5.819-6.484v-5.985H41.885v5.985Zm0-6.484v-5.985H41.885v5.985Zm0-6.484v-5.985H41.885v5.985Zm26.435,19.951v5.985h5.985v-5.985Zm0,6.484v5.985h5.985v-5.985Zm0,6.484v5.985h5.985v-5.985Zm0,6.484v5.985h5.985v-5.985Zm-6.484-19.452v5.985H73.64v-5.985Zm0,6.484v5.985H73.64v-5.985Zm0,6.484v5.985H73.64v-5.985Zm0,6.484v5.985H73.64v-5.985Zm-6.484-19.452v.665l.333-.665Zm1.33,5.985h4.655v-5.985H65.327Zm-1.33,1.33v5.154h5.985v-5.985H62.168l-.166.333Zm0,5.653v5.985h5.985v-5.985Zm0,6.484v5.985h5.985v-5.985ZM54.687,609.4v2.161h3.159l-2.66-2.826Zm5.985-2v-1.829H56.848l3.159,3.159Zm-5.985,4.655v5.985h5.985v-4.822l-.665.5-1.5-1.662Zm0,6.484v5.985h5.985v-5.985ZM35.4,605.574v5.985h5.985v-5.985Zm-.5,6.484H28.917v5.985H34.9Zm.5,0v5.985h5.985v-5.985Zm-.5,6.484H28.917v5.985h4.323l1.663-1.663Zm.5,0v3.824l.5-.5.333-.166,5.154-2.494v-.665Zm2.66,5.985H41.22v-1.5Zm-5.487.5H28.917v3.658Zm-3.658,4.323v1.663h1.663Zm2.494,1.5h3.325V627.52Zm3.99-3.824v3.824h5.985V624.86H37.562Zm6.484-21.447v5.985H47.87v-5.985Zm0,6.484v5.985h1.829l3.325-1.663.665-1.33v-2.993Zm0,6.484v.333l.831-.333Zm0,4.156v1.829H47.87v-4.655Zm0,2.328v5.985H47.87v-5.985Zm6.484-19.452v5.985H49.7l3.159-5.985Zm5.154,5.985h.665V610.4Zm-5.154.5v2.161l1.164-2.161Zm1.663,5.985h4.156v-5.985h-1Zm-1.663,1.5v4.822h5.985v-5.985H49.865v.166l-.5.5Zm0,5.487v5.985h5.985v-5.985Zm6.318,0v5.985h5.985v-5.985ZM34.9,605.574H28.917v5.985H34.9Zm-7.315-30.259H54.853v-1.164H27.587Zm0-2.993h47.55v-1.829H27.587Zm0-3.99h47.55V566.5H27.587Zm0-3.99H50.7v-2.993H27.587Z" transform="translate(12.814 -530.757)"/>
  </g>
</svg>
