<svg xmlns="http://www.w3.org/2000/svg" viewBox="3020.149 -128.768 134.67 134.67">
  <defs>
    <style>
      .cls-1 {
        fill: #ff6768;
      }

      .cls-2 {
        fill: #fff;
      }
    </style>
  </defs>
  <g id="Group_11224" data-name="Group 11224" transform="translate(1887 -154)">
    <circle id="Ellipse_1537" data-name="Ellipse 1537" class="cls-1" cx="67.335" cy="67.335" r="67.335" transform="translate(1133.149 25.232)"/>
    <g id="Group_11198" data-name="Group 11198" transform="translate(1162.91 60.016)">
      <path id="Path_13577" data-name="Path 13577" class="cls-2" d="M499.7,22.8" transform="translate(-424.385 -19.677)"/>
      <path id="Path_13578" data-name="Path 13578" class="cls-2" d="M472.688,23.166A10.976,10.976,0,0,0,470.361,23a15.961,15.961,0,0,0,0,31.922,15.89,15.89,0,0,0,15.961-15.961A16.238,16.238,0,0,0,472.688,23.166Zm-1.33,22.944V48.6h-2.328V46.276a8.23,8.23,0,0,1-3.99-1l.665-2.826a8.784,8.784,0,0,0,3.99,1c1.33,0,2.328-.5,2.328-1.5q0-1.247-2.494-2c-2.494-.831-4.323-2-4.323-4.323,0-2.161,1.5-3.658,3.99-4.156V29.152h2.328v2.161a6.335,6.335,0,0,1,3.491.831l-.665,2.66a7.011,7.011,0,0,0-3.491-.831c-1.5,0-2,.665-2,1.33,0,.831.831,1.33,2.826,2,2.826,1,3.99,2.328,3.99,4.489A4.638,4.638,0,0,1,471.358,46.11Z" transform="translate(-454.4 -19.544)"/>
      <path id="Path_13579" data-name="Path 13579" class="cls-2" d="M465.214,61.093a5,5,0,0,0,4.323,5.487c5.154.5,8.479,5.985,10.308,9.643A5.708,5.708,0,0,0,485,79.381h21.78a5.783,5.783,0,0,0,5.819-5.819V64.917a10.963,10.963,0,0,0-9.477-10.973l-9.809-1.5a1.411,1.411,0,0,1-1.164-1.33V35.988a4.988,4.988,0,1,0-9.976,0V59.6a.914.914,0,0,1-.5.831,1.06,1.06,0,0,1-1,0,22.264,22.264,0,0,0-10.142-3.658A4.843,4.843,0,0,0,465.214,61.093Z" transform="translate(-447.258 -14.244)"/>
      <g id="Group_11195" data-name="Group 11195" transform="translate(34.116 4.818)">
        <path id="Path_13580" data-name="Path 13580" class="cls-2" d="M476.716,28.775c-.166,0-.333.166-.5.166a1.255,1.255,0,0,1-1.164-.665,1.292,1.292,0,0,1,.5-1.663l5.32-2.66a1.227,1.227,0,1,1,1.164,2.161Z" transform="translate(-474.919 -23.819)"/>
      </g>
      <g id="Group_11196" data-name="Group 11196" transform="translate(31.791)">
        <path id="Path_13581" data-name="Path 13581" class="cls-2" d="M474.65,28.866h-.333a1.011,1.011,0,0,1-.665-1.5l2-5.653a1.158,1.158,0,1,1,2.161.831l-2,5.653A1.4,1.4,0,0,1,474.65,28.866Z" transform="translate(-473.522 -20.922)"/>
      </g>
      <g id="Group_11197" data-name="Group 11197" transform="translate(35.283 10.474)">
        <path id="Path_13582" data-name="Path 13582" class="cls-2" d="M482.4,31.508h-.333l-5.653-2a1.011,1.011,0,0,1-.665-1.5,1.011,1.011,0,0,1,1.5-.665l5.653,2a1.011,1.011,0,0,1,.665,1.5A1.4,1.4,0,0,1,482.4,31.508Z" transform="translate(-475.622 -27.222)"/>
      </g>
    </g>
  </g>
</svg>
