<svg xmlns="http://www.w3.org/2000/svg" viewBox="2362.802 70.411 134.67 134.67">
  <defs>
    <style>
      .cls-1 {
        fill: #00c5f4;
      }

      .cls-2 {
        fill: #fff;
      }
    </style>
  </defs>
  <g id="Group_11236" data-name="Group 11236" transform="translate(1887 -154)">
    <circle id="Ellipse_1530" data-name="Ellipse 1530" class="cls-1" cx="67.335" cy="67.335" r="67.335" transform="translate(475.802 224.411)"/>
    <g id="Group_11202" data-name="Group 11202" transform="translate(512.878 257.33)">
      <path id="Path_13585" data-name="Path 13585" class="cls-2" d="M497.72,139.766a12.584,12.584,0,0,0-2.494-.166A16.626,16.626,0,1,0,507.2,167.7a17.059,17.059,0,0,0,4.655-11.638A16.464,16.464,0,0,0,497.72,139.766Zm-1.33,24.108v2.494H493.9V164.04a8.969,8.969,0,0,1-4.156-1l.665-2.826a9.467,9.467,0,0,0,4.156,1.164c1.5,0,2.328-.5,2.328-1.5s-.831-1.5-2.66-2.161c-2.66-.831-4.489-2.161-4.489-4.489,0-2.161,1.5-3.824,4.156-4.489v-2.328h2.494v2.161a9.123,9.123,0,0,1,3.658.831l-.665,2.826a7.813,7.813,0,0,0-3.658-.831c-1.663,0-2.161.665-2.161,1.33,0,.831.831,1.33,2.993,2.161,2.993,1,4.156,2.328,4.156,4.655C500.879,161.546,499.216,163.375,496.39,163.874Z" transform="translate(-451.333 -139.6)"/>
      <path id="Path_13586" data-name="Path 13586" class="cls-2" d="M501.936,174.681v22.944H466.523V148.578h22.445a18.509,18.509,0,0,1,8.479-8.978H470.513a8.232,8.232,0,0,0-8.313,8.313v52.372a8.232,8.232,0,0,0,8.313,8.313h27.433a8.232,8.232,0,0,0,8.313-8.313V175.179h0A31,31,0,0,1,501.936,174.681Zm-17.623,31.09a2.66,2.66,0,1,1,2.66-2.66A2.626,2.626,0,0,1,484.312,205.771Z" transform="translate(-462.2 -139.6)"/>
    </g>
  </g>
</svg>
